%!PS-Adobe-3.0 EPSF-3.0
%%Title: n=2000_alg=n_k.eps
%%Creator: Matplotlib v3.4.1, https://matplotlib.org/
%%CreationDate: Wed Jul 28 11:55:51 2021
%%Orientation: portrait
%%BoundingBox: 75 192 537 600
%%HiResBoundingBox: 75.600000 192.960000 536.400000 599.040000
%%EndComments
%%BeginProlog
/mpldict 11 dict def
mpldict begin
/d { bind def } bind def
/m { moveto } d
/l { lineto } d
/r { rlineto } d
/c { curveto } d
/cl { closepath } d
/ce { closepath eofill } d
/box {
      m
      1 index 0 r
      0 exch r
      neg 0 r
      cl
    } d
/clipbox {
      box
      clip
      newpath
    } d
/sc { setcachedevice } d
%!PS-Adobe-3.0 Resource-Font
%%Creator: Converted from TrueType to Type 3 by Matplotlib.
10 dict begin
/FontName /DejaVuSans def
/PaintType 0 def
/FontMatrix [0.00048828125 0 0 0.00048828125 0 0] def
/FontBBox [-2090 -948 3673 2524] def
/FontType 3 def
/Encoding [/period /zero /one /two /three /four /five /six /seven /eight] def
/CharStrings 11 dict dup begin
/.notdef 0 def
/period{651 0 219 0 430 254 sc
219 254 m
430 254 l
430 0 l
219 0 l
219 254 l

ce} d
/zero{1303 0 135 -29 1167 1520 sc
651 1360 m
547 1360 469 1309 416 1206 c
364 1104 338 950 338 745 c
338 540 364 387 416 284 c
469 182 547 131 651 131 c
756 131 834 182 886 284 c
939 387 965 540 965 745 c
965 950 939 1104 886 1206 c
834 1309 756 1360 651 1360 c

651 1520 m
818 1520 946 1454 1034 1321 c
1123 1189 1167 997 1167 745 c
1167 494 1123 302 1034 169 c
946 37 818 -29 651 -29 c
484 -29 356 37 267 169 c
179 302 135 494 135 745 c
135 997 179 1189 267 1321 c
356 1454 484 1520 651 1520 c

ce} d
/one{1303 0 225 0 1114 1493 sc
254 170 m
584 170 l
584 1309 l
225 1237 l
225 1421 l
582 1493 l
784 1493 l
784 170 l
1114 170 l
1114 0 l
254 0 l
254 170 l

ce} d
/two{1303 0 150 0 1098 1520 sc
393 170 m
1098 170 l
1098 0 l
150 0 l
150 170 l
227 249 331 356 463 489 c
596 623 679 709 713 748 c
778 821 823 882 848 932 c
874 983 887 1032 887 1081 c
887 1160 859 1225 803 1275 c
748 1325 675 1350 586 1350 c
523 1350 456 1339 385 1317 c
315 1295 240 1262 160 1217 c
160 1421 l
241 1454 317 1478 388 1495 c
459 1512 523 1520 582 1520 c
737 1520 860 1481 952 1404 c
1044 1327 1090 1223 1090 1094 c
1090 1033 1078 974 1055 919 c
1032 864 991 800 930 725 c
913 706 860 650 771 557 c
682 465 556 336 393 170 c

ce} d
/three{1303 0 156 -29 1139 1520 sc
831 805 m
928 784 1003 741 1057 676 c
1112 611 1139 530 1139 434 c
1139 287 1088 173 987 92 c
886 11 742 -29 555 -29 c
492 -29 428 -23 361 -10 c
295 2 227 20 156 45 c
156 240 l
212 207 273 183 340 166 c
407 149 476 141 549 141 c
676 141 772 166 838 216 c
905 266 938 339 938 434 c
938 522 907 591 845 640 c
784 690 698 715 588 715 c
414 715 l
414 881 l
596 881 l
695 881 771 901 824 940 c
877 980 903 1037 903 1112 c
903 1189 876 1247 821 1288 c
767 1329 689 1350 588 1350 c
533 1350 473 1344 410 1332 c
347 1320 277 1301 201 1276 c
201 1456 l
278 1477 349 1493 416 1504 c
483 1515 547 1520 606 1520 c
759 1520 881 1485 970 1415 c
1059 1346 1104 1252 1104 1133 c
1104 1050 1080 980 1033 923 c
986 866 918 827 831 805 c

ce} d
/four{1303 0 100 0 1188 1493 sc
774 1317 m
264 520 l
774 520 l
774 1317 l

721 1493 m
975 1493 l
975 520 l
1188 520 l
1188 352 l
975 352 l
975 0 l
774 0 l
774 352 l
100 352 l
100 547 l
721 1493 l

ce} d
/five{1303 0 158 -29 1124 1493 sc
221 1493 m
1014 1493 l
1014 1323 l
406 1323 l
406 957 l
435 967 465 974 494 979 c
523 984 553 987 582 987 c
749 987 881 941 978 850 c
1075 759 1124 635 1124 479 c
1124 318 1074 193 974 104 c
874 15 733 -29 551 -29 c
488 -29 424 -24 359 -13 c
294 -2 227 14 158 35 c
158 238 l
218 205 280 181 344 165 c
408 149 476 141 547 141 c
662 141 754 171 821 232 c
888 293 922 375 922 479 c
922 583 888 665 821 726 c
754 787 662 817 547 817 c
493 817 439 811 385 799 c
332 787 277 768 221 743 c
221 1493 l

ce} d
/six{1303 0 143 -29 1174 1520 sc
676 827 m
585 827 513 796 460 734 c
407 672 381 587 381 479 c
381 372 407 287 460 224 c
513 162 585 131 676 131 c
767 131 838 162 891 224 c
944 287 971 372 971 479 c
971 587 944 672 891 734 c
838 796 767 827 676 827 c

1077 1460 m
1077 1276 l
1026 1300 975 1318 923 1331 c
872 1344 821 1350 770 1350 c
637 1350 535 1305 464 1215 c
394 1125 354 989 344 807 c
383 865 433 909 492 940 c
551 971 617 987 688 987 c
838 987 956 941 1043 850 c
1130 759 1174 636 1174 479 c
1174 326 1129 203 1038 110 c
947 17 827 -29 676 -29 c
503 -29 371 37 280 169 c
189 302 143 494 143 745 c
143 981 199 1169 311 1309 c
423 1450 573 1520 762 1520 c
813 1520 864 1515 915 1505 c
967 1495 1021 1480 1077 1460 c

ce} d
/seven{1303 0 168 0 1128 1493 sc
168 1493 m
1128 1493 l
1128 1407 l
586 0 l
375 0 l
885 1323 l
168 1323 l
168 1493 l

ce} d
/eight{1303 0 139 -29 1163 1520 sc
651 709 m
555 709 479 683 424 632 c
369 581 342 510 342 420 c
342 330 369 259 424 208 c
479 157 555 131 651 131 c
747 131 823 157 878 208 c
933 260 961 331 961 420 c
961 510 933 581 878 632 c
823 683 748 709 651 709 c

449 795 m
362 816 295 857 246 916 c
198 975 174 1048 174 1133 c
174 1252 216 1347 301 1416 c
386 1485 503 1520 651 1520 c
800 1520 916 1485 1001 1416 c
1086 1347 1128 1252 1128 1133 c
1128 1048 1104 975 1055 916 c
1007 857 940 816 854 795 c
951 772 1027 728 1081 662 c
1136 596 1163 515 1163 420 c
1163 275 1119 164 1030 87 c
942 10 816 -29 651 -29 c
486 -29 360 10 271 87 c
183 164 139 275 139 420 c
139 515 166 596 221 662 c
276 728 352 772 449 795 c

375 1114 m
375 1037 399 976 447 933 c
496 890 564 868 651 868 c
738 868 805 890 854 933 c
903 976 928 1037 928 1114 c
928 1191 903 1252 854 1295 c
805 1338 738 1360 651 1360 c
564 1360 496 1338 447 1295 c
399 1252 375 1191 375 1114 c

ce} d
end readonly def

/BuildGlyph {
 exch begin
 CharStrings exch
 2 copy known not {pop /.notdef} if
 true 3 1 roll get exec
 end
} d

/BuildChar {
 1 index /Encoding get exch get
 1 index /BuildGlyph get exec
} d

FontName currentdict end definefont pop
end
%%EndProlog
mpldict begin
75.6 192.96 translate
460.8 406.08 0 0 clipbox
gsave
0 0 m
460.8 0 l
460.8 406.08 l
0 406.08 l
cl
1.000 setgray
fill
grestore
gsave
79.8192 44.6688 m
392.5008 44.6688 l
392.5008 357.3504 l
79.8192 357.3504 l
cl
1.000 setgray
fill
grestore
1.000 setlinewidth
0 setlinejoin
0 setlinecap
[] 0 setdash
0.950 setgray
gsave
123.252126 116.193793 m
158.012042 146.90136 l
157.234234 287.733966 l
122.008318 274.244254 l
gsave
fill
grestore
stroke
grestore
0.900 setgray
gsave
158.012042 146.90136 m
346.02537 143.65107 l
347.03601 286.307612 l
157.234234 287.733966 l
gsave
fill
grestore
stroke
grestore
0.925 setgray
gsave
123.252126 116.193793 m
334.270684 112.086224 l
346.02537 143.65107 l
158.012042 146.90136 l
gsave
fill
grestore
stroke
grestore
0.800 setlinewidth
1 setlinejoin
2 setlinecap
0.000 setgray
gsave
123.252126 116.193793 m
334.270684 112.086224 l
stroke
grestore
0 setlinecap
0.690 setgray
gsave
150.499205 115.663417 m
182.322695 146.481088 l
181.773506 287.549554 l
stroke
grestore
gsave
178.582491 115.116763 m
207.368858 146.048101 l
207.056023 287.359557 l
stroke
grestore
gsave
206.775507 114.567974 m
232.50209 145.613609 l
232.427263 287.168893 l
stroke
grestore
gsave
235.078897 114.017036 m
257.722844 145.177604 l
257.887695 286.977559 l
stroke
grestore
gsave
263.49331 113.463937 m
283.031579 144.740078 l
283.43779 286.785551 l
stroke
grestore
gsave
292.019402 112.908664 m
308.428756 144.301023 l
309.078023 286.592865 l
stroke
grestore
gsave
320.657831 112.351204 m
333.914839 143.860431 l
334.80887 286.399499 l
stroke
grestore
2 setlinecap
0.000 setgray
gsave
150.784952 115.940132 m
149.926014 115.108342 l
stroke
grestore
/DejaVuSans 10.000 selectfont
gsave

138.482455 94.452093 translate
0.000000 rotate
0.000000 0 m /one glyphshow
6.362305 0 m /zero glyphshow
12.724609 0 m /zero glyphshow
grestore
gsave
178.841022 115.394558 m
178.063891 114.55952 l
stroke
grestore
gsave

166.787149 93.874269 translate
0.000000 rotate
0.000000 0 m /two glyphshow
6.362305 0 m /zero glyphshow
12.724609 0 m /zero glyphshow
grestore
gsave
207.006607 114.846854 m
206.311928 114.008549 l
stroke
grestore
gsave

195.203330 93.294169 translate
0.000000 rotate
0.000000 0 m /three glyphshow
6.362305 0 m /zero glyphshow
12.724609 0 m /zero glyphshow
grestore
gsave
235.282349 114.297009 m
234.670776 113.455417 l
stroke
grestore
gsave

223.731659 92.711780 translate
0.000000 rotate
0.000000 0 m /four glyphshow
6.362305 0 m /zero glyphshow
12.724609 0 m /zero glyphshow
grestore
gsave
263.668896 113.745009 m
263.141087 112.90011 l
stroke
grestore
gsave

252.372800 92.127087 translate
0.000000 rotate
0.000000 0 m /five glyphshow
6.362305 0 m /zero glyphshow
12.724609 0 m /zero glyphshow
grestore
gsave
292.166901 113.190841 m
291.723519 112.342617 l
stroke
grestore
gsave

281.127426 91.540078 translate
0.000000 rotate
0.000000 0 m /six glyphshow
6.362305 0 m /zero glyphshow
12.724609 0 m /zero glyphshow
grestore
gsave
320.77702 112.634493 m
320.418736 111.782924 l
stroke
grestore
gsave

309.996210 90.950738 translate
0.000000 rotate
0.000000 0 m /seven glyphshow
6.362305 0 m /zero glyphshow
12.724609 0 m /zero glyphshow
grestore
gsave
346.02537 143.65107 m
334.270684 112.086224 l
stroke
grestore
0 setlinecap
0.690 setgray
gsave
123.53408 274.828542 m
124.756027 117.522367 l
334.780039 113.453994 l
stroke
grestore
gsave
128.351245 276.673268 m
129.505168 121.717849 l
336.388055 117.771997 l
stroke
grestore
gsave
133.023961 278.462678 m
134.113345 125.788799 l
337.947665 121.960017 l
stroke
grestore
gsave
137.558629 280.199222 m
138.586742 129.740683 l
339.461023 126.023836 l
stroke
grestore
gsave
141.961278 281.88521 m
142.931187 133.578648 l
340.930157 129.968898 l
stroke
grestore
gsave
146.23759 283.522817 m
147.152177 137.30755 l
342.356976 133.800334 l
stroke
grestore
gsave
150.392926 285.114097 m
151.254899 140.931972 l
343.743283 137.522984 l
stroke
grestore
gsave
154.432349 286.660988 m
155.244257 144.456246 l
345.09078 141.141415 l
stroke
grestore
2 setlinecap
0.000 setgray
gsave
333.075501 113.487012 m
338.190309 113.387933 l
stroke
grestore
gsave

343.401660 94.415994 translate
0.000000 rotate
0.000000 0 m /four glyphshow
6.362305 0 m /five glyphshow
grestore
gsave
334.709377 117.804014 m
339.74657 117.70794 l
stroke
grestore
gsave

344.781130 98.910129 translate
0.000000 rotate
0.000000 0 m /five glyphshow
6.362305 0 m /zero glyphshow
grestore
gsave
336.294074 121.991077 m
341.255972 121.897874 l
stroke
grestore
gsave

346.119063 103.268943 translate
0.000000 rotate
0.000000 0 m /five glyphshow
6.362305 0 m /five glyphshow
grestore
gsave
337.83178 126.053982 m
342.720602 125.963523 l
stroke
grestore
gsave

347.417308 107.498455 translate
0.000000 rotate
0.000000 0 m /six glyphshow
6.362305 0 m /zero glyphshow
grestore
gsave
339.324555 129.99817 m
344.142421 129.910335 l
stroke
grestore
gsave

348.677604 111.604336 translate
0.000000 rotate
0.000000 0 m /six glyphshow
6.362305 0 m /five glyphshow
grestore
gsave
340.774339 133.828769 m
345.52328 133.743446 l
stroke
grestore
gsave

349.901591 115.591928 translate
0.000000 rotate
0.000000 0 m /seven glyphshow
6.362305 0 m /zero glyphshow
grestore
gsave
342.182964 137.550618 m
346.864923 137.4677 l
stroke
grestore
gsave

351.090816 119.466271 translate
0.000000 rotate
0.000000 0 m /seven glyphshow
6.362305 0 m /five glyphshow
grestore
gsave
343.552158 141.168281 m
348.168999 141.087668 l
stroke
grestore
gsave

352.246740 123.232120 translate
0.000000 rotate
0.000000 0 m /eight glyphshow
6.362305 0 m /zero glyphshow
grestore
gsave
346.02537 143.65107 m
347.03601 286.307612 l
stroke
grestore
0 setlinecap
0.690 setgray
gsave
346.089113 152.648613 m
157.962979 155.78489 l
123.173754 126.15253 l
stroke
grestore
gsave
346.265939 177.608427 m
157.826878 180.427702 l
122.95629 153.785609 l
stroke
grestore
gsave
346.443357 202.65189 m
157.690328 205.152032 l
122.738018 181.521414 l
stroke
grestore
gsave
346.621372 227.779421 m
157.553325 229.958285 l
122.518933 209.36052 l
stroke
grestore
gsave
346.799984 252.991445 m
157.415867 254.846868 l
122.29903 237.303504 l
stroke
grestore
gsave
346.979199 278.288389 m
157.277953 279.818193 l
122.078306 265.350948 l
stroke
grestore
2 setlinecap
0.000 setgray
gsave
344.564615 152.674028 m
349.139064 152.597767 l
stroke
grestore
gsave

352.233919 146.730566 translate
0.000000 rotate
0.000000 0 m /zero glyphshow
6.362305 0 m /period glyphshow
9.541016 0 m /zero glyphshow
grestore
gsave
344.738873 177.631274 m
349.32103 177.56272 l
stroke
grestore
gsave

352.432947 171.521022 translate
0.000000 rotate
0.000000 0 m /zero glyphshow
6.362305 0 m /period glyphshow
9.541016 0 m /two glyphshow
grestore
gsave
344.913714 202.672151 m
349.503606 202.611355 l
stroke
grestore
gsave

352.632637 196.393985 translate
0.000000 rotate
0.000000 0 m /zero glyphshow
6.362305 0 m /period glyphshow
9.541016 0 m /four glyphshow
grestore
gsave
345.089142 227.797079 m
349.686795 227.744094 l
stroke
grestore
gsave

352.832992 221.349866 translate
0.000000 rotate
0.000000 0 m /zero glyphshow
6.362305 0 m /period glyphshow
9.541016 0 m /six glyphshow
grestore
gsave
345.265161 253.006482 m
349.8706 252.961362 l
stroke
grestore
gsave

353.034017 246.389082 translate
0.000000 rotate
0.000000 0 m /zero glyphshow
6.362305 0 m /period glyphshow
9.541016 0 m /eight glyphshow
grestore
gsave
345.441772 278.300787 m
350.055025 278.263585 l
stroke
grestore
gsave

353.235714 271.512050 translate
0.000000 rotate
0.000000 0 m /one glyphshow
6.362305 0 m /period glyphshow
9.541016 0 m /zero glyphshow
grestore
/p0_0 {
newpath
translate
0 -2.236068 m
0.593012 -2.236068 1.161816 -2.000462 1.581139 -1.581139 c
2.000462 -1.161816 2.236068 -0.593012 2.236068 0 c
2.236068 0.593012 2.000462 1.161816 1.581139 1.581139 c
1.161816 2.000462 0.593012 2.236068 0 2.236068 c
-0.593012 2.236068 -1.161816 2.000462 -1.581139 1.581139 c
-2.000462 1.161816 -2.236068 0.593012 -2.236068 0 c
-2.236068 -0.593012 -2.000462 -1.161816 -1.581139 -1.581139 c
-1.161816 -2.000462 -0.593012 -2.236068 0 -2.236068 c
cl

} bind def
1.000 setlinewidth
0 setlinecap
0.122 0.467 0.706 setrgbcolor
gsave
312.682 312.682 79.819 44.669 clipbox
167.887 153.894 p0_0
gsave
fill
grestore
stroke
grestore
gsave
312.682 312.682 79.819 44.669 clipbox
180.471 153.683 p0_0
gsave
fill
grestore
stroke
grestore
gsave
312.682 312.682 79.819 44.669 clipbox
193.078 153.472 p0_0
gsave
fill
grestore
stroke
grestore
gsave
312.682 312.682 79.819 44.669 clipbox
205.706 153.259 p0_0
gsave
fill
grestore
stroke
grestore
gsave
312.682 312.682 79.819 44.669 clipbox
167.134 153.224 p0_0
gsave
fill
grestore
stroke
grestore
gsave
312.682 312.682 79.819 44.669 clipbox
218.357 153.047 p0_0
gsave
fill
grestore
stroke
grestore
gsave
312.682 312.682 79.819 44.669 clipbox
179.753 153.012 p0_0
gsave
fill
grestore
stroke
grestore
gsave
312.682 312.682 79.819 44.669 clipbox
231.03 152.834 p0_0
gsave
fill
grestore
stroke
grestore
gsave
312.682 312.682 79.819 44.669 clipbox
192.393 152.799 p0_0
gsave
fill
grestore
stroke
grestore
gsave
312.682 312.682 79.819 44.669 clipbox
243.725 152.621 p0_0
gsave
fill
grestore
stroke
grestore
gsave
312.682 312.682 79.819 44.669 clipbox
205.056 152.586 p0_0
gsave
fill
grestore
stroke
grestore
gsave
312.682 312.682 79.819 44.669 clipbox
166.377 152.551 p0_0
gsave
fill
grestore
stroke
grestore
gsave
312.682 312.682 79.819 44.669 clipbox
256.442 152.408 p0_0
gsave
fill
grestore
stroke
grestore
gsave
312.682 312.682 79.819 44.669 clipbox
217.741 152.372 p0_0
gsave
fill
grestore
stroke
grestore
gsave
312.682 312.682 79.819 44.669 clipbox
179.03 152.337 p0_0
gsave
fill
grestore
stroke
grestore
gsave
312.682 312.682 79.819 44.669 clipbox
269.182 152.568 p0_0
gsave
fill
grestore
stroke
grestore
gsave
312.682 312.682 79.819 44.669 clipbox
230.449 152.158 p0_0
gsave
fill
grestore
stroke
grestore
gsave
312.682 312.682 79.819 44.669 clipbox
191.705 152.123 p0_0
gsave
fill
grestore
stroke
grestore
gsave
312.682 312.682 79.819 44.669 clipbox
243.179 151.944 p0_0
gsave
fill
grestore
stroke
grestore
gsave
312.682 312.682 79.819 44.669 clipbox
281.953 155.603 p0_0
gsave
fill
grestore
stroke
grestore
gsave
312.682 312.682 79.819 44.669 clipbox
204.403 151.909 p0_0
gsave
fill
grestore
stroke
grestore
gsave
312.682 312.682 79.819 44.669 clipbox
165.616 151.873 p0_0
gsave
fill
grestore
stroke
grestore
gsave
312.682 312.682 79.819 44.669 clipbox
255.931 151.729 p0_0
gsave
fill
grestore
stroke
grestore
gsave
312.682 312.682 79.819 44.669 clipbox
217.122 151.694 p0_0
gsave
fill
grestore
stroke
grestore
gsave
312.682 312.682 79.819 44.669 clipbox
178.303 151.658 p0_0
gsave
fill
grestore
stroke
grestore
gsave
312.682 312.682 79.819 44.669 clipbox
294.774 164.655 p0_0
gsave
fill
grestore
stroke
grestore
gsave
312.682 312.682 79.819 44.669 clipbox
268.706 152.14 p0_0
gsave
fill
grestore
stroke
grestore
gsave
312.682 312.682 79.819 44.669 clipbox
229.865 151.479 p0_0
gsave
fill
grestore
stroke
grestore
gsave
312.682 312.682 79.819 44.669 clipbox
191.013 151.443 p0_0
gsave
fill
grestore
stroke
grestore
gsave
312.682 312.682 79.819 44.669 clipbox
242.629 151.263 p0_0
gsave
fill
grestore
stroke
grestore
gsave
312.682 312.682 79.819 44.669 clipbox
281.513 155.058 p0_0
gsave
fill
grestore
stroke
grestore
gsave
312.682 312.682 79.819 44.669 clipbox
203.745 151.228 p0_0
gsave
fill
grestore
stroke
grestore
gsave
312.682 312.682 79.819 44.669 clipbox
164.85 151.192 p0_0
gsave
fill
grestore
stroke
grestore
gsave
312.682 312.682 79.819 44.669 clipbox
255.417 151.173 p0_0
gsave
fill
grestore
stroke
grestore
gsave
312.682 312.682 79.819 44.669 clipbox
216.5 151.012 p0_0
gsave
fill
grestore
stroke
grestore
gsave
312.682 312.682 79.819 44.669 clipbox
307.682 184.41 p0_0
gsave
fill
grestore
stroke
grestore
gsave
312.682 312.682 79.819 44.669 clipbox
177.572 150.976 p0_0
gsave
fill
grestore
stroke
grestore
gsave
312.682 312.682 79.819 44.669 clipbox
294.375 165.641 p0_0
gsave
fill
grestore
stroke
grestore
gsave
312.682 312.682 79.819 44.669 clipbox
268.227 151.082 p0_0
gsave
fill
grestore
stroke
grestore
gsave
312.682 312.682 79.819 44.669 clipbox
229.277 150.795 p0_0
gsave
fill
grestore
stroke
grestore
gsave
312.682 312.682 79.819 44.669 clipbox
190.317 150.76 p0_0
gsave
fill
grestore
stroke
grestore
gsave
312.682 312.682 79.819 44.669 clipbox
242.077 150.579 p0_0
gsave
fill
grestore
stroke
grestore
gsave
312.682 312.682 79.819 44.669 clipbox
281.07 154.509 p0_0
gsave
fill
grestore
stroke
grestore
gsave
312.682 312.682 79.819 44.669 clipbox
203.084 150.543 p0_0
gsave
fill
grestore
stroke
grestore
gsave
312.682 312.682 79.819 44.669 clipbox
164.08 150.507 p0_0
gsave
fill
grestore
stroke
grestore
gsave
312.682 312.682 79.819 44.669 clipbox
320.643 203.37 p0_0
gsave
fill
grestore
stroke
grestore
gsave
312.682 312.682 79.819 44.669 clipbox
254.9 150.487 p0_0
gsave
fill
grestore
stroke
grestore
gsave
312.682 312.682 79.819 44.669 clipbox
307.309 183.313 p0_0
gsave
fill
grestore
stroke
grestore
gsave
312.682 312.682 79.819 44.669 clipbox
215.874 150.326 p0_0
gsave
fill
grestore
stroke
grestore
gsave
312.682 312.682 79.819 44.669 clipbox
176.837 150.29 p0_0
gsave
fill
grestore
stroke
grestore
gsave
312.682 312.682 79.819 44.669 clipbox
267.746 150.773 p0_0
gsave
fill
grestore
stroke
grestore
gsave
312.682 312.682 79.819 44.669 clipbox
293.976 167.641 p0_0
gsave
fill
grestore
stroke
grestore
gsave
312.682 312.682 79.819 44.669 clipbox
228.687 150.108 p0_0
gsave
fill
grestore
stroke
grestore
gsave
312.682 312.682 79.819 44.669 clipbox
189.617 150.072 p0_0
gsave
fill
grestore
stroke
grestore
gsave
312.682 312.682 79.819 44.669 clipbox
333.667 223.678 p0_0
gsave
fill
grestore
stroke
grestore
gsave
312.682 312.682 79.819 44.669 clipbox
241.522 149.89 p0_0
gsave
fill
grestore
stroke
grestore
gsave
312.682 312.682 79.819 44.669 clipbox
280.624 153.832 p0_0
gsave
fill
grestore
stroke
grestore
gsave
312.682 312.682 79.819 44.669 clipbox
202.42 149.854 p0_0
gsave
fill
grestore
stroke
grestore
gsave
312.682 312.682 79.819 44.669 clipbox
163.306 149.818 p0_0
gsave
fill
grestore
stroke
grestore
gsave
312.682 312.682 79.819 44.669 clipbox
320.319 204.979 p0_0
gsave
fill
grestore
stroke
grestore
gsave
312.682 312.682 79.819 44.669 clipbox
254.38 149.672 p0_0
gsave
fill
grestore
stroke
grestore
gsave
312.682 312.682 79.819 44.669 clipbox
215.245 149.636 p0_0
gsave
fill
grestore
stroke
grestore
gsave
312.682 312.682 79.819 44.669 clipbox
176.098 149.6 p0_0
gsave
fill
grestore
stroke
grestore
gsave
312.682 312.682 79.819 44.669 clipbox
306.957 187.267 p0_0
gsave
fill
grestore
stroke
grestore
gsave
312.682 312.682 79.819 44.669 clipbox
267.262 150.21 p0_0
gsave
fill
grestore
stroke
grestore
gsave
312.682 312.682 79.819 44.669 clipbox
293.565 166.747 p0_0
gsave
fill
grestore
stroke
grestore
gsave
312.682 312.682 79.819 44.669 clipbox
228.093 149.417 p0_0
gsave
fill
grestore
stroke
grestore
gsave
312.682 312.682 79.819 44.669 clipbox
188.913 149.381 p0_0
gsave
fill
grestore
stroke
grestore
gsave
312.682 312.682 79.819 44.669 clipbox
240.964 149.198 p0_0
gsave
fill
grestore
stroke
grestore
gsave
312.682 312.682 79.819 44.669 clipbox
201.751 149.162 p0_0
gsave
fill
grestore
stroke
grestore
gsave
312.682 312.682 79.819 44.669 clipbox
333.4 228.272 p0_0
gsave
fill
grestore
stroke
grestore
gsave
312.682 312.682 79.819 44.669 clipbox
280.181 155.299 p0_0
gsave
fill
grestore
stroke
grestore
gsave
312.682 312.682 79.819 44.669 clipbox
162.527 149.125 p0_0
gsave
fill
grestore
stroke
grestore
gsave
312.682 312.682 79.819 44.669 clipbox
253.858 149.105 p0_0
gsave
fill
grestore
stroke
grestore
gsave
312.682 312.682 79.819 44.669 clipbox
214.612 148.942 p0_0
gsave
fill
grestore
stroke
grestore
gsave
312.682 312.682 79.819 44.669 clipbox
320.022 211.931 p0_0
gsave
fill
grestore
stroke
grestore
gsave
312.682 312.682 79.819 44.669 clipbox
175.355 148.906 p0_0
gsave
fill
grestore
stroke
grestore
gsave
312.682 312.682 79.819 44.669 clipbox
306.591 188.581 p0_0
gsave
fill
grestore
stroke
grestore
gsave
312.682 312.682 79.819 44.669 clipbox
266.776 149.771 p0_0
gsave
fill
grestore
stroke
grestore
gsave
312.682 312.682 79.819 44.669 clipbox
227.496 148.722 p0_0
gsave
fill
grestore
stroke
grestore
gsave
312.682 312.682 79.819 44.669 clipbox
188.205 148.686 p0_0
gsave
fill
grestore
stroke
grestore
gsave
312.682 312.682 79.819 44.669 clipbox
293.169 170.79 p0_0
gsave
fill
grestore
stroke
grestore
gsave
312.682 312.682 79.819 44.669 clipbox
240.402 148.501 p0_0
gsave
fill
grestore
stroke
grestore
gsave
312.682 312.682 79.819 44.669 clipbox
201.079 148.465 p0_0
gsave
fill
grestore
stroke
grestore
gsave
312.682 312.682 79.819 44.669 clipbox
161.744 148.429 p0_0
gsave
fill
grestore
stroke
grestore
gsave
312.682 312.682 79.819 44.669 clipbox
279.734 156.141 p0_0
gsave
fill
grestore
stroke
grestore
gsave
312.682 312.682 79.819 44.669 clipbox
333.121 231.366 p0_0
gsave
fill
grestore
stroke
grestore
gsave
312.682 312.682 79.819 44.669 clipbox
253.332 148.281 p0_0
gsave
fill
grestore
stroke
grestore
gsave
312.682 312.682 79.819 44.669 clipbox
319.679 210.519 p0_0
gsave
fill
grestore
stroke
grestore
gsave
312.682 312.682 79.819 44.669 clipbox
213.975 148.244 p0_0
gsave
fill
grestore
stroke
grestore
gsave
312.682 312.682 79.819 44.669 clipbox
174.607 148.208 p0_0
gsave
fill
grestore
stroke
grestore
gsave
312.682 312.682 79.819 44.669 clipbox
306.236 193.085 p0_0
gsave
fill
grestore
stroke
grestore
gsave
312.682 312.682 79.819 44.669 clipbox
266.288 149.709 p0_0
gsave
fill
grestore
stroke
grestore
gsave
312.682 312.682 79.819 44.669 clipbox
226.895 148.023 p0_0
gsave
fill
grestore
stroke
grestore
gsave
312.682 312.682 79.819 44.669 clipbox
187.494 147.986 p0_0
gsave
fill
grestore
stroke
grestore
gsave
312.682 312.682 79.819 44.669 clipbox
292.755 170.662 p0_0
gsave
fill
grestore
stroke
grestore
gsave
312.682 312.682 79.819 44.669 clipbox
239.838 147.801 p0_0
gsave
fill
grestore
stroke
grestore
gsave
312.682 312.682 79.819 44.669 clipbox
200.403 147.765 p0_0
gsave
fill
grestore
stroke
grestore
gsave
312.682 312.682 79.819 44.669 clipbox
160.957 147.728 p0_0
gsave
fill
grestore
stroke
grestore
gsave
312.682 312.682 79.819 44.669 clipbox
332.813 230.006 p0_0
gsave
fill
grestore
stroke
grestore
gsave
312.682 312.682 79.819 44.669 clipbox
279.285 157.37 p0_0
gsave
fill
grestore
stroke
grestore
gsave
312.682 312.682 79.819 44.669 clipbox
252.804 147.961 p0_0
gsave
fill
grestore
stroke
grestore
gsave
312.682 312.682 79.819 44.669 clipbox
213.335 147.542 p0_0
gsave
fill
grestore
stroke
grestore
gsave
312.682 312.682 79.819 44.669 clipbox
173.856 147.506 p0_0
gsave
fill
grestore
stroke
grestore
gsave
312.682 312.682 79.819 44.669 clipbox
319.366 215.231 p0_0
gsave
fill
grestore
stroke
grestore
gsave
312.682 312.682 79.819 44.669 clipbox
305.862 193.659 p0_0
gsave
fill
grestore
stroke
grestore
gsave
312.682 312.682 79.819 44.669 clipbox
226.291 147.32 p0_0
gsave
fill
grestore
stroke
grestore
gsave
312.682 312.682 79.819 44.669 clipbox
265.797 150.284 p0_0
gsave
fill
grestore
stroke
grestore
gsave
312.682 312.682 79.819 44.669 clipbox
186.778 147.283 p0_0
gsave
fill
grestore
stroke
grestore
gsave
312.682 312.682 79.819 44.669 clipbox
292.351 173.849 p0_0
gsave
fill
grestore
stroke
grestore
gsave
312.682 312.682 79.819 44.669 clipbox
239.27 147.097 p0_0
gsave
fill
grestore
stroke
grestore
gsave
312.682 312.682 79.819 44.669 clipbox
199.723 147.06 p0_0
gsave
fill
grestore
stroke
grestore
gsave
312.682 312.682 79.819 44.669 clipbox
160.165 147.023 p0_0
gsave
fill
grestore
stroke
grestore
gsave
312.682 312.682 79.819 44.669 clipbox
278.83 157.075 p0_0
gsave
fill
grestore
stroke
grestore
gsave
312.682 312.682 79.819 44.669 clipbox
332.532 233.38 p0_0
gsave
fill
grestore
stroke
grestore
gsave
312.682 312.682 79.819 44.669 clipbox
252.272 147.001 p0_0
gsave
fill
grestore
stroke
grestore
gsave
312.682 312.682 79.819 44.669 clipbox
212.692 146.837 p0_0
gsave
fill
grestore
stroke
grestore
gsave
312.682 312.682 79.819 44.669 clipbox
173.1 146.8 p0_0
gsave
fill
grestore
stroke
grestore
gsave
312.682 312.682 79.819 44.669 clipbox
319.038 217.537 p0_0
gsave
fill
grestore
stroke
grestore
gsave
312.682 312.682 79.819 44.669 clipbox
265.3 148.564 p0_0
gsave
fill
grestore
stroke
grestore
gsave
312.682 312.682 79.819 44.669 clipbox
225.683 146.613 p0_0
gsave
fill
grestore
stroke
grestore
gsave
312.682 312.682 79.819 44.669 clipbox
186.058 146.576 p0_0
gsave
fill
grestore
stroke
grestore
gsave
312.682 312.682 79.819 44.669 clipbox
305.499 197.309 p0_0
gsave
fill
grestore
stroke
grestore
gsave
312.682 312.682 79.819 44.669 clipbox
291.941 176.16 p0_0
gsave
fill
grestore
stroke
grestore
gsave
312.682 312.682 79.819 44.669 clipbox
238.699 146.389 p0_0
gsave
fill
grestore
stroke
grestore
gsave
312.682 312.682 79.819 44.669 clipbox
199.039 146.352 p0_0
gsave
fill
grestore
stroke
grestore
gsave
312.682 312.682 79.819 44.669 clipbox
159.368 146.315 p0_0
gsave
fill
grestore
stroke
grestore
gsave
312.682 312.682 79.819 44.669 clipbox
278.376 158.313 p0_0
gsave
fill
grestore
stroke
grestore
gsave
312.682 312.682 79.819 44.669 clipbox
332.251 236.903 p0_0
gsave
fill
grestore
stroke
grestore
gsave
312.682 312.682 79.819 44.669 clipbox
251.737 146.292 p0_0
gsave
fill
grestore
stroke
grestore
gsave
312.682 312.682 79.819 44.669 clipbox
212.044 146.127 p0_0
gsave
fill
grestore
stroke
grestore
gsave
312.682 312.682 79.819 44.669 clipbox
172.34 146.09 p0_0
gsave
fill
grestore
stroke
grestore
gsave
312.682 312.682 79.819 44.669 clipbox
318.695 217.414 p0_0
gsave
fill
grestore
stroke
grestore
gsave
312.682 312.682 79.819 44.669 clipbox
225.073 145.902 p0_0
gsave
fill
grestore
stroke
grestore
gsave
312.682 312.682 79.819 44.669 clipbox
264.805 149.651 p0_0
gsave
fill
grestore
stroke
grestore
gsave
312.682 312.682 79.819 44.669 clipbox
185.334 145.865 p0_0
gsave
fill
grestore
stroke
grestore
gsave
312.682 312.682 79.819 44.669 clipbox
305.115 196.614 p0_0
gsave
fill
grestore
stroke
grestore
gsave
312.682 312.682 79.819 44.669 clipbox
291.522 176.432 p0_0
gsave
fill
grestore
stroke
grestore
gsave
312.682 312.682 79.819 44.669 clipbox
238.124 145.677 p0_0
gsave
fill
grestore
stroke
grestore
gsave
312.682 312.682 79.819 44.669 clipbox
198.352 145.639 p0_0
gsave
fill
grestore
stroke
grestore
gsave
312.682 312.682 79.819 44.669 clipbox
158.568 145.602 p0_0
gsave
fill
grestore
stroke
grestore
gsave
312.682 312.682 79.819 44.669 clipbox
277.919 159.174 p0_0
gsave
fill
grestore
stroke
grestore
gsave
312.682 312.682 79.819 44.669 clipbox
251.2 145.707 p0_0
gsave
fill
grestore
stroke
grestore
gsave
312.682 312.682 79.819 44.669 clipbox
331.949 237.352 p0_0
gsave
fill
grestore
stroke
grestore
gsave
312.682 312.682 79.819 44.669 clipbox
211.393 145.413 p0_0
gsave
fill
grestore
stroke
grestore
gsave
312.682 312.682 79.819 44.669 clipbox
171.575 145.376 p0_0
gsave
fill
grestore
stroke
grestore
gsave
312.682 312.682 79.819 44.669 clipbox
318.372 221.417 p0_0
gsave
fill
grestore
stroke
grestore
gsave
312.682 312.682 79.819 44.669 clipbox
224.458 145.187 p0_0
gsave
fill
grestore
stroke
grestore
gsave
312.682 312.682 79.819 44.669 clipbox
264.304 148.433 p0_0
gsave
fill
grestore
stroke
grestore
gsave
312.682 312.682 79.819 44.669 clipbox
184.606 145.15 p0_0
gsave
fill
grestore
stroke
grestore
gsave
312.682 312.682 79.819 44.669 clipbox
304.74 198.492 p0_0
gsave
fill
grestore
stroke
grestore
gsave
312.682 312.682 79.819 44.669 clipbox
291.094 174.902 p0_0
gsave
fill
grestore
stroke
grestore
gsave
312.682 312.682 79.819 44.669 clipbox
237.547 144.96 p0_0
gsave
fill
grestore
stroke
grestore
gsave
312.682 312.682 79.819 44.669 clipbox
197.66 144.923 p0_0
gsave
fill
grestore
stroke
grestore
gsave
312.682 312.682 79.819 44.669 clipbox
157.762 144.885 p0_0
gsave
fill
grestore
stroke
grestore
gsave
312.682 312.682 79.819 44.669 clipbox
277.454 158.239 p0_0
gsave
fill
grestore
stroke
grestore
gsave
312.682 312.682 79.819 44.669 clipbox
250.66 145.762 p0_0
gsave
fill
grestore
stroke
grestore
gsave
312.682 312.682 79.819 44.669 clipbox
331.646 238.062 p0_0
gsave
fill
grestore
stroke
grestore
gsave
312.682 312.682 79.819 44.669 clipbox
210.738 144.696 p0_0
gsave
fill
grestore
stroke
grestore
gsave
312.682 312.682 79.819 44.669 clipbox
170.806 144.658 p0_0
gsave
fill
grestore
stroke
grestore
gsave
312.682 312.682 79.819 44.669 clipbox
318.022 220.658 p0_0
gsave
fill
grestore
stroke
grestore
gsave
312.682 312.682 79.819 44.669 clipbox
223.84 144.468 p0_0
gsave
fill
grestore
stroke
grestore
gsave
312.682 312.682 79.819 44.669 clipbox
183.873 144.43 p0_0
gsave
fill
grestore
stroke
grestore
gsave
312.682 312.682 79.819 44.669 clipbox
263.804 150.041 p0_0
gsave
fill
grestore
stroke
grestore
gsave
312.682 312.682 79.819 44.669 clipbox
304.37 202.191 p0_0
gsave
fill
grestore
stroke
grestore
gsave
312.682 312.682 79.819 44.669 clipbox
236.966 144.24 p0_0
gsave
fill
grestore
stroke
grestore
gsave
312.682 312.682 79.819 44.669 clipbox
196.965 144.202 p0_0
gsave
fill
grestore
stroke
grestore
gsave
312.682 312.682 79.819 44.669 clipbox
290.688 180.466 p0_0
gsave
fill
grestore
stroke
grestore
gsave
312.682 312.682 79.819 44.669 clipbox
156.952 144.165 p0_0
gsave
fill
grestore
stroke
grestore
gsave
312.682 312.682 79.819 44.669 clipbox
250.115 144.527 p0_0
gsave
fill
grestore
stroke
grestore
gsave
312.682 312.682 79.819 44.669 clipbox
210.08 143.974 p0_0
gsave
fill
grestore
stroke
grestore
gsave
312.682 312.682 79.819 44.669 clipbox
277.004 164.269 p0_0
gsave
fill
grestore
stroke
grestore
gsave
312.682 312.682 79.819 44.669 clipbox
170.033 143.936 p0_0
gsave
fill
grestore
stroke
grestore
gsave
312.682 312.682 79.819 44.669 clipbox
331.36 241.762 p0_0
gsave
fill
grestore
stroke
grestore
gsave
312.682 312.682 79.819 44.669 clipbox
223.219 143.745 p0_0
gsave
fill
grestore
stroke
grestore
gsave
312.682 312.682 79.819 44.669 clipbox
317.69 223.916 p0_0
gsave
fill
grestore
stroke
grestore
gsave
312.682 312.682 79.819 44.669 clipbox
183.137 143.707 p0_0
gsave
fill
grestore
stroke
grestore
gsave
312.682 312.682 79.819 44.669 clipbox
263.297 149.205 p0_0
gsave
fill
grestore
stroke
grestore
gsave
312.682 312.682 79.819 44.669 clipbox
236.381 143.515 p0_0
gsave
fill
grestore
stroke
grestore
gsave
312.682 312.682 79.819 44.669 clipbox
196.265 143.477 p0_0
gsave
fill
grestore
stroke
grestore
gsave
312.682 312.682 79.819 44.669 clipbox
304.007 207.989 p0_0
gsave
fill
grestore
stroke
grestore
gsave
312.682 312.682 79.819 44.669 clipbox
156.137 143.44 p0_0
gsave
fill
grestore
stroke
grestore
gsave
312.682 312.682 79.819 44.669 clipbox
290.28 186.455 p0_0
gsave
fill
grestore
stroke
grestore
gsave
312.682 312.682 79.819 44.669 clipbox
249.568 143.803 p0_0
gsave
fill
grestore
stroke
grestore
gsave
312.682 312.682 79.819 44.669 clipbox
209.417 143.248 p0_0
gsave
fill
grestore
stroke
grestore
gsave
312.682 312.682 79.819 44.669 clipbox
276.532 162.954 p0_0
gsave
fill
grestore
stroke
grestore
gsave
312.682 312.682 79.819 44.669 clipbox
169.255 143.21 p0_0
gsave
fill
grestore
stroke
grestore
gsave
312.682 312.682 79.819 44.669 clipbox
331.06 243.531 p0_0
gsave
fill
grestore
stroke
grestore
gsave
312.682 312.682 79.819 44.669 clipbox
222.594 143.017 p0_0
gsave
fill
grestore
stroke
grestore
gsave
312.682 312.682 79.819 44.669 clipbox
182.396 142.979 p0_0
gsave
fill
grestore
stroke
grestore
gsave
312.682 312.682 79.819 44.669 clipbox
262.79 150.306 p0_0
gsave
fill
grestore
stroke
grestore
gsave
312.682 312.682 79.819 44.669 clipbox
317.353 226.414 p0_0
gsave
fill
grestore
stroke
grestore
gsave
312.682 312.682 79.819 44.669 clipbox
235.794 142.916 p0_0
gsave
fill
grestore
stroke
grestore
gsave
312.682 312.682 79.819 44.669 clipbox
195.562 142.748 p0_0
gsave
fill
grestore
stroke
grestore
gsave
312.682 312.682 79.819 44.669 clipbox
155.318 142.71 p0_0
gsave
fill
grestore
stroke
grestore
gsave
312.682 312.682 79.819 44.669 clipbox
303.623 209.529 p0_0
gsave
fill
grestore
stroke
grestore
gsave
312.682 312.682 79.819 44.669 clipbox
289.852 187.28 p0_0
gsave
fill
grestore
stroke
grestore
gsave
312.682 312.682 79.819 44.669 clipbox
249.019 143.593 p0_0
gsave
fill
grestore
stroke
grestore
gsave
312.682 312.682 79.819 44.669 clipbox
208.751 142.517 p0_0
gsave
fill
grestore
stroke
grestore
gsave
312.682 312.682 79.819 44.669 clipbox
168.472 142.479 p0_0
gsave
fill
grestore
stroke
grestore
gsave
312.682 312.682 79.819 44.669 clipbox
276.068 165.528 p0_0
gsave
fill
grestore
stroke
grestore
gsave
312.682 312.682 79.819 44.669 clipbox
330.775 248.055 p0_0
gsave
fill
grestore
stroke
grestore
gsave
312.682 312.682 79.819 44.669 clipbox
221.965 142.286 p0_0
gsave
fill
grestore
stroke
grestore
gsave
312.682 312.682 79.819 44.669 clipbox
181.651 142.247 p0_0
gsave
fill
grestore
stroke
grestore
gsave
312.682 312.682 79.819 44.669 clipbox
262.28 151.544 p0_0
gsave
fill
grestore
stroke
grestore
gsave
312.682 312.682 79.819 44.669 clipbox
317.017 229.581 p0_0
gsave
fill
grestore
stroke
grestore
gsave
312.682 312.682 79.819 44.669 clipbox
235.203 142.054 p0_0
gsave
fill
grestore
stroke
grestore
gsave
312.682 312.682 79.819 44.669 clipbox
194.854 142.015 p0_0
gsave
fill
grestore
stroke
grestore
gsave
312.682 312.682 79.819 44.669 clipbox
154.493 141.977 p0_0
gsave
fill
grestore
stroke
grestore
gsave
312.682 312.682 79.819 44.669 clipbox
303.253 214.865 p0_0
gsave
fill
grestore
stroke
grestore
gsave
312.682 312.682 79.819 44.669 clipbox
289.425 189.153 p0_0
gsave
fill
grestore
stroke
grestore
gsave
312.682 312.682 79.819 44.669 clipbox
248.465 143.122 p0_0
gsave
fill
grestore
stroke
grestore
gsave
312.682 312.682 79.819 44.669 clipbox
208.081 141.783 p0_0
gsave
fill
grestore
stroke
grestore
gsave
312.682 312.682 79.819 44.669 clipbox
167.685 141.744 p0_0
gsave
fill
grestore
stroke
grestore
gsave
312.682 312.682 79.819 44.669 clipbox
275.601 168.248 p0_0
gsave
fill
grestore
stroke
grestore
gsave
312.682 312.682 79.819 44.669 clipbox
330.46 247.757 p0_0
gsave
fill
grestore
stroke
grestore
gsave
312.682 312.682 79.819 44.669 clipbox
221.332 141.55 p0_0
gsave
fill
grestore
stroke
grestore
gsave
312.682 312.682 79.819 44.669 clipbox
180.902 141.511 p0_0
gsave
fill
grestore
stroke
grestore
gsave
312.682 312.682 79.819 44.669 clipbox
261.766 152.269 p0_0
gsave
fill
grestore
stroke
grestore
gsave
312.682 312.682 79.819 44.669 clipbox
234.608 141.447 p0_0
gsave
fill
grestore
stroke
grestore
gsave
312.682 312.682 79.819 44.669 clipbox
316.689 234.865 p0_0
gsave
fill
grestore
stroke
grestore
gsave
312.682 312.682 79.819 44.669 clipbox
194.142 141.278 p0_0
gsave
fill
grestore
stroke
grestore
gsave
312.682 312.682 79.819 44.669 clipbox
153.664 141.239 p0_0
gsave
fill
grestore
stroke
grestore
gsave
312.682 312.682 79.819 44.669 clipbox
302.856 214.47 p0_0
gsave
fill
grestore
stroke
grestore
gsave
312.682 312.682 79.819 44.669 clipbox
207.407 141.044 p0_0
gsave
fill
grestore
stroke
grestore
gsave
312.682 312.682 79.819 44.669 clipbox
247.909 143.561 p0_0
gsave
fill
grestore
stroke
grestore
gsave
312.682 312.682 79.819 44.669 clipbox
166.894 141.005 p0_0
gsave
fill
grestore
stroke
grestore
gsave
312.682 312.682 79.819 44.669 clipbox
289.019 198.24 p0_0
gsave
fill
grestore
stroke
grestore
gsave
312.682 312.682 79.819 44.669 clipbox
275.129 170.201 p0_0
gsave
fill
grestore
stroke
grestore
gsave
312.682 312.682 79.819 44.669 clipbox
330.144 247.852 p0_0
gsave
fill
grestore
stroke
grestore
gsave
312.682 312.682 79.819 44.669 clipbox
220.696 140.81 p0_0
gsave
fill
grestore
stroke
grestore
gsave
312.682 312.682 79.819 44.669 clipbox
180.148 140.771 p0_0
gsave
fill
grestore
stroke
grestore
gsave
312.682 312.682 79.819 44.669 clipbox
261.247 151.428 p0_0
gsave
fill
grestore
stroke
grestore
gsave
312.682 312.682 79.819 44.669 clipbox
234.01 140.836 p0_0
gsave
fill
grestore
stroke
grestore
gsave
312.682 312.682 79.819 44.669 clipbox
193.426 140.536 p0_0
gsave
fill
grestore
stroke
grestore
gsave
312.682 312.682 79.819 44.669 clipbox
316.338 235.974 p0_0
gsave
fill
grestore
stroke
grestore
gsave
312.682 312.682 79.819 44.669 clipbox
152.83 140.497 p0_0
gsave
fill
grestore
stroke
grestore
gsave
312.682 312.682 79.819 44.669 clipbox
247.349 142.302 p0_0
gsave
fill
grestore
stroke
grestore
gsave
312.682 312.682 79.819 44.669 clipbox
206.729 140.301 p0_0
gsave
fill
grestore
stroke
grestore
gsave
312.682 312.682 79.819 44.669 clipbox
166.098 140.262 p0_0
gsave
fill
grestore
stroke
grestore
gsave
312.682 312.682 79.819 44.669 clipbox
302.495 223.145 p0_0
gsave
fill
grestore
stroke
grestore
gsave
312.682 312.682 79.819 44.669 clipbox
288.574 196.087 p0_0
gsave
fill
grestore
stroke
grestore
gsave
312.682 312.682 79.819 44.669 clipbox
220.057 140.065 p0_0
gsave
fill
grestore
stroke
grestore
gsave
312.682 312.682 79.819 44.669 clipbox
179.39 140.026 p0_0
gsave
fill
grestore
stroke
grestore
gsave
312.682 312.682 79.819 44.669 clipbox
329.855 252.696 p0_0
gsave
fill
grestore
stroke
grestore
gsave
312.682 312.682 79.819 44.669 clipbox
274.663 175.972 p0_0
gsave
fill
grestore
stroke
grestore
gsave
312.682 312.682 79.819 44.669 clipbox
260.728 152.681 p0_0
gsave
fill
grestore
stroke
grestore
gsave
312.682 312.682 79.819 44.669 clipbox
233.408 140.353 p0_0
gsave
fill
grestore
stroke
grestore
gsave
312.682 312.682 79.819 44.669 clipbox
192.706 139.79 p0_0
gsave
fill
grestore
stroke
grestore
gsave
312.682 312.682 79.819 44.669 clipbox
151.992 139.751 p0_0
gsave
fill
grestore
stroke
grestore
gsave
312.682 312.682 79.819 44.669 clipbox
315.999 239.86 p0_0
gsave
fill
grestore
stroke
grestore
gsave
312.682 312.682 79.819 44.669 clipbox
206.047 139.553 p0_0
gsave
fill
grestore
stroke
grestore
gsave
312.682 312.682 79.819 44.669 clipbox
246.787 143.659 p0_0
gsave
fill
grestore
stroke
grestore
gsave
312.682 312.682 79.819 44.669 clipbox
165.297 139.514 p0_0
gsave
fill
grestore
stroke
grestore
gsave
312.682 312.682 79.819 44.669 clipbox
302.095 223.036 p0_0
gsave
fill
grestore
stroke
grestore
gsave
312.682 312.682 79.819 44.669 clipbox
288.146 200.115 p0_0
gsave
fill
grestore
stroke
grestore
gsave
312.682 312.682 79.819 44.669 clipbox
219.413 139.316 p0_0
gsave
fill
grestore
stroke
grestore
gsave
312.682 312.682 79.819 44.669 clipbox
178.627 139.277 p0_0
gsave
fill
grestore
stroke
grestore
gsave
312.682 312.682 79.819 44.669 clipbox
329.537 252.938 p0_0
gsave
fill
grestore
stroke
grestore
gsave
312.682 312.682 79.819 44.669 clipbox
274.183 177.039 p0_0
gsave
fill
grestore
stroke
grestore
gsave
312.682 312.682 79.819 44.669 clipbox
260.206 153.81 p0_0
gsave
fill
grestore
stroke
grestore
gsave
312.682 312.682 79.819 44.669 clipbox
232.804 139.342 p0_0
gsave
fill
grestore
stroke
grestore
gsave
312.682 312.682 79.819 44.669 clipbox
191.982 139.04 p0_0
gsave
fill
grestore
stroke
grestore
gsave
312.682 312.682 79.819 44.669 clipbox
151.148 139 p0_0
gsave
fill
grestore
stroke
grestore
gsave
312.682 312.682 79.819 44.669 clipbox
315.649 242.051 p0_0
gsave
fill
grestore
stroke
grestore
gsave
312.682 312.682 79.819 44.669 clipbox
205.362 138.801 p0_0
gsave
fill
grestore
stroke
grestore
gsave
312.682 312.682 79.819 44.669 clipbox
246.221 142.92 p0_0
gsave
fill
grestore
stroke
grestore
gsave
312.682 312.682 79.819 44.669 clipbox
164.492 138.762 p0_0
gsave
fill
grestore
stroke
grestore
gsave
312.682 312.682 79.819 44.669 clipbox
301.683 220.808 p0_0
gsave
fill
grestore
stroke
grestore
gsave
312.682 312.682 79.819 44.669 clipbox
218.766 138.563 p0_0
gsave
fill
grestore
stroke
grestore
gsave
312.682 312.682 79.819 44.669 clipbox
287.71 202.713 p0_0
gsave
fill
grestore
stroke
grestore
gsave
312.682 312.682 79.819 44.669 clipbox
177.86 138.524 p0_0
gsave
fill
grestore
stroke
grestore
gsave
312.682 312.682 79.819 44.669 clipbox
329.226 254.774 p0_0
gsave
fill
grestore
stroke
grestore
gsave
312.682 312.682 79.819 44.669 clipbox
273.7 178.113 p0_0
gsave
fill
grestore
stroke
grestore
gsave
312.682 312.682 79.819 44.669 clipbox
232.195 138.851 p0_0
gsave
fill
grestore
stroke
grestore
gsave
312.682 312.682 79.819 44.669 clipbox
191.253 138.285 p0_0
gsave
fill
grestore
stroke
grestore
gsave
312.682 312.682 79.819 44.669 clipbox
259.684 158.113 p0_0
gsave
fill
grestore
stroke
grestore
gsave
312.682 312.682 79.819 44.669 clipbox
150.299 138.245 p0_0
gsave
fill
grestore
stroke
grestore
gsave
312.682 312.682 79.819 44.669 clipbox
315.278 240.403 p0_0
gsave
fill
grestore
stroke
grestore
gsave
312.682 312.682 79.819 44.669 clipbox
204.672 138.045 p0_0
gsave
fill
grestore
stroke
grestore
gsave
312.682 312.682 79.819 44.669 clipbox
163.681 138.006 p0_0
gsave
fill
grestore
stroke
grestore
gsave
312.682 312.682 79.819 44.669 clipbox
245.651 143.099 p0_0
gsave
fill
grestore
stroke
grestore
gsave
312.682 312.682 79.819 44.669 clipbox
301.294 224.54 p0_0
gsave
fill
grestore
stroke
grestore
gsave
312.682 312.682 79.819 44.669 clipbox
218.115 137.937 p0_0
gsave
fill
grestore
stroke
grestore
gsave
312.682 312.682 79.819 44.669 clipbox
177.089 137.766 p0_0
gsave
fill
grestore
stroke
grestore
gsave
312.682 312.682 79.819 44.669 clipbox
287.272 205.461 p0_0
gsave
fill
grestore
stroke
grestore
gsave
312.682 312.682 79.819 44.669 clipbox
328.897 253.959 p0_0
gsave
fill
grestore
stroke
grestore
gsave
312.682 312.682 79.819 44.669 clipbox
273.225 184.364 p0_0
gsave
fill
grestore
stroke
grestore
gsave
312.682 312.682 79.819 44.669 clipbox
231.583 137.962 p0_0
gsave
fill
grestore
stroke
grestore
gsave
312.682 312.682 79.819 44.669 clipbox
190.521 137.525 p0_0
gsave
fill
grestore
stroke
grestore
gsave
312.682 312.682 79.819 44.669 clipbox
259.153 157.545 p0_0
gsave
fill
grestore
stroke
grestore
gsave
312.682 312.682 79.819 44.669 clipbox
149.446 137.486 p0_0
gsave
fill
grestore
stroke
grestore
gsave
312.682 312.682 79.819 44.669 clipbox
314.921 242.075 p0_0
gsave
fill
grestore
stroke
grestore
gsave
312.682 312.682 79.819 44.669 clipbox
203.978 137.285 p0_0
gsave
fill
grestore
stroke
grestore
gsave
312.682 312.682 79.819 44.669 clipbox
162.867 137.245 p0_0
gsave
fill
grestore
stroke
grestore
gsave
312.682 312.682 79.819 44.669 clipbox
245.078 143.148 p0_0
gsave
fill
grestore
stroke
grestore
gsave
312.682 312.682 79.819 44.669 clipbox
300.91 230.295 p0_0
gsave
fill
grestore
stroke
grestore
gsave
312.682 312.682 79.819 44.669 clipbox
217.46 137.043 p0_0
gsave
fill
grestore
stroke
grestore
gsave
312.682 312.682 79.819 44.669 clipbox
176.312 137.003 p0_0
gsave
fill
grestore
stroke
grestore
gsave
312.682 312.682 79.819 44.669 clipbox
328.581 255.543 p0_0
gsave
fill
grestore
stroke
grestore
gsave
312.682 312.682 79.819 44.669 clipbox
272.724 179.617 p0_0
gsave
fill
grestore
stroke
grestore
gsave
312.682 312.682 79.819 44.669 clipbox
286.848 213.421 p0_0
gsave
fill
grestore
stroke
grestore
gsave
312.682 312.682 79.819 44.669 clipbox
230.967 137.464 p0_0
gsave
fill
grestore
stroke
grestore
gsave
312.682 312.682 79.819 44.669 clipbox
189.783 136.762 p0_0
gsave
fill
grestore
stroke
grestore
gsave
312.682 312.682 79.819 44.669 clipbox
148.587 136.722 p0_0
gsave
fill
grestore
stroke
grestore
gsave
312.682 312.682 79.819 44.669 clipbox
258.624 160.957 p0_0
gsave
fill
grestore
stroke
grestore
gsave
312.682 312.682 79.819 44.669 clipbox
314.577 246.966 p0_0
gsave
fill
grestore
stroke
grestore
gsave
312.682 312.682 79.819 44.669 clipbox
203.28 136.519 p0_0
gsave
fill
grestore
stroke
grestore
gsave
312.682 312.682 79.819 44.669 clipbox
162.047 136.479 p0_0
gsave
fill
grestore
stroke
grestore
gsave
312.682 312.682 79.819 44.669 clipbox
244.502 143.595 p0_0
gsave
fill
grestore
stroke
grestore
gsave
312.682 312.682 79.819 44.669 clipbox
216.801 136.409 p0_0
gsave
fill
grestore
stroke
grestore
gsave
312.682 312.682 79.819 44.669 clipbox
175.532 136.237 p0_0
gsave
fill
grestore
stroke
grestore
gsave
312.682 312.682 79.819 44.669 clipbox
300.513 233.681 p0_0
gsave
fill
grestore
stroke
grestore
gsave
312.682 312.682 79.819 44.669 clipbox
286.382 209.005 p0_0
gsave
fill
grestore
stroke
grestore
gsave
312.682 312.682 79.819 44.669 clipbox
328.258 256.332 p0_0
gsave
fill
grestore
stroke
grestore
gsave
312.682 312.682 79.819 44.669 clipbox
230.348 136.432 p0_0
gsave
fill
grestore
stroke
grestore
gsave
312.682 312.682 79.819 44.669 clipbox
189.042 135.993 p0_0
gsave
fill
grestore
stroke
grestore
gsave
312.682 312.682 79.819 44.669 clipbox
147.723 135.953 p0_0
gsave
fill
grestore
stroke
grestore
gsave
312.682 312.682 79.819 44.669 clipbox
272.255 191.383 p0_0
gsave
fill
grestore
stroke
grestore
gsave
312.682 312.682 79.819 44.669 clipbox
258.091 164.258 p0_0
gsave
fill
grestore
stroke
grestore
gsave
312.682 312.682 79.819 44.669 clipbox
202.577 135.75 p0_0
gsave
fill
grestore
stroke
grestore
gsave
312.682 312.682 79.819 44.669 clipbox
161.222 135.709 p0_0
gsave
fill
grestore
stroke
grestore
gsave
312.682 312.682 79.819 44.669 clipbox
314.228 251.218 p0_0
gsave
fill
grestore
stroke
grestore
gsave
312.682 312.682 79.819 44.669 clipbox
243.922 145.777 p0_0
gsave
fill
grestore
stroke
grestore
gsave
312.682 312.682 79.819 44.669 clipbox
216.138 135.505 p0_0
gsave
fill
grestore
stroke
grestore
gsave
312.682 312.682 79.819 44.669 clipbox
174.746 135.465 p0_0
gsave
fill
grestore
stroke
grestore
gsave
312.682 312.682 79.819 44.669 clipbox
300.101 233.602 p0_0
gsave
fill
grestore
stroke
grestore
gsave
312.682 312.682 79.819 44.669 clipbox
327.946 259.278 p0_0
gsave
fill
grestore
stroke
grestore
gsave
312.682 312.682 79.819 44.669 clipbox
229.724 136.594 p0_0
gsave
fill
grestore
stroke
grestore
gsave
312.682 312.682 79.819 44.669 clipbox
188.296 135.22 p0_0
gsave
fill
grestore
stroke
grestore
gsave
312.682 312.682 79.819 44.669 clipbox
146.854 135.18 p0_0
gsave
fill
grestore
stroke
grestore
gsave
312.682 312.682 79.819 44.669 clipbox
285.956 218.503 p0_0
gsave
fill
grestore
stroke
grestore
gsave
312.682 312.682 79.819 44.669 clipbox
271.756 191.042 p0_0
gsave
fill
grestore
stroke
grestore
gsave
312.682 312.682 79.819 44.669 clipbox
257.554 167.447 p0_0
gsave
fill
grestore
stroke
grestore
gsave
312.682 312.682 79.819 44.669 clipbox
201.871 134.975 p0_0
gsave
fill
grestore
stroke
grestore
gsave
312.682 312.682 79.819 44.669 clipbox
160.393 134.935 p0_0
gsave
fill
grestore
stroke
grestore
gsave
312.682 312.682 79.819 44.669 clipbox
313.847 249.307 p0_0
gsave
fill
grestore
stroke
grestore
gsave
312.682 312.682 79.819 44.669 clipbox
243.339 146.903 p0_0
gsave
fill
grestore
stroke
grestore
gsave
312.682 312.682 79.819 44.669 clipbox
215.471 134.863 p0_0
gsave
fill
grestore
stroke
grestore
gsave
312.682 312.682 79.819 44.669 clipbox
173.956 134.689 p0_0
gsave
fill
grestore
stroke
grestore
gsave
312.682 312.682 79.819 44.669 clipbox
299.706 238.635 p0_0
gsave
fill
grestore
stroke
grestore
gsave
312.682 312.682 79.819 44.669 clipbox
327.61 258.6 p0_0
gsave
fill
grestore
stroke
grestore
gsave
312.682 312.682 79.819 44.669 clipbox
187.546 134.443 p0_0
gsave
fill
grestore
stroke
grestore
gsave
312.682 312.682 79.819 44.669 clipbox
229.095 137.827 p0_0
gsave
fill
grestore
stroke
grestore
gsave
312.682 312.682 79.819 44.669 clipbox
145.98 134.402 p0_0
gsave
fill
grestore
stroke
grestore
gsave
312.682 312.682 79.819 44.669 clipbox
285.505 220.53 p0_0
gsave
fill
grestore
stroke
grestore
gsave
312.682 312.682 79.819 44.669 clipbox
271.265 195.536 p0_0
gsave
fill
grestore
stroke
grestore
gsave
312.682 312.682 79.819 44.669 clipbox
257.01 167.033 p0_0
gsave
fill
grestore
stroke
grestore
gsave
312.682 312.682 79.819 44.669 clipbox
201.16 134.196 p0_0
gsave
fill
grestore
stroke
grestore
gsave
312.682 312.682 79.819 44.669 clipbox
159.558 134.156 p0_0
gsave
fill
grestore
stroke
grestore
gsave
312.682 312.682 79.819 44.669 clipbox
313.494 253.728 p0_0
gsave
fill
grestore
stroke
grestore
gsave
312.682 312.682 79.819 44.669 clipbox
242.752 148.975 p0_0
gsave
fill
grestore
stroke
grestore
gsave
312.682 312.682 79.819 44.669 clipbox
214.801 133.949 p0_0
gsave
fill
grestore
stroke
grestore
gsave
312.682 312.682 79.819 44.669 clipbox
173.162 133.908 p0_0
gsave
fill
grestore
stroke
grestore
gsave
312.682 312.682 79.819 44.669 clipbox
299.301 241.811 p0_0
gsave
fill
grestore
stroke
grestore
gsave
312.682 312.682 79.819 44.669 clipbox
327.294 261.571 p0_0
gsave
fill
grestore
stroke
grestore
gsave
312.682 312.682 79.819 44.669 clipbox
186.791 133.661 p0_0
gsave
fill
grestore
stroke
grestore
gsave
312.682 312.682 79.819 44.669 clipbox
228.465 136.787 p0_0
gsave
fill
grestore
stroke
grestore
gsave
312.682 312.682 79.819 44.669 clipbox
145.101 133.62 p0_0
gsave
fill
grestore
stroke
grestore
gsave
312.682 312.682 79.819 44.669 clipbox
285.057 224.865 p0_0
gsave
fill
grestore
stroke
grestore
gsave
312.682 312.682 79.819 44.669 clipbox
270.761 195.34 p0_0
gsave
fill
grestore
stroke
grestore
gsave
312.682 312.682 79.819 44.669 clipbox
200.446 133.413 p0_0
gsave
fill
grestore
stroke
grestore
gsave
312.682 312.682 79.819 44.669 clipbox
158.719 133.372 p0_0
gsave
fill
grestore
stroke
grestore
gsave
312.682 312.682 79.819 44.669 clipbox
313.11 252.354 p0_0
gsave
fill
grestore
stroke
grestore
gsave
312.682 312.682 79.819 44.669 clipbox
256.47 173.618 p0_0
gsave
fill
grestore
stroke
grestore
gsave
312.682 312.682 79.819 44.669 clipbox
214.126 133.298 p0_0
gsave
fill
grestore
stroke
grestore
gsave
312.682 312.682 79.819 44.669 clipbox
242.162 151.195 p0_0
gsave
fill
grestore
stroke
grestore
gsave
312.682 312.682 79.819 44.669 clipbox
172.362 133.123 p0_0
gsave
fill
grestore
stroke
grestore
gsave
312.682 312.682 79.819 44.669 clipbox
326.953 260.761 p0_0
gsave
fill
grestore
stroke
grestore
gsave
312.682 312.682 79.819 44.669 clipbox
298.89 244.058 p0_0
gsave
fill
grestore
stroke
grestore
gsave
312.682 312.682 79.819 44.669 clipbox
186.031 132.874 p0_0
gsave
fill
grestore
stroke
grestore
gsave
312.682 312.682 79.819 44.669 clipbox
144.216 132.833 p0_0
gsave
fill
grestore
stroke
grestore
gsave
312.682 312.682 79.819 44.669 clipbox
227.829 138.028 p0_0
gsave
fill
grestore
stroke
grestore
gsave
312.682 312.682 79.819 44.669 clipbox
284.592 224.487 p0_0
gsave
fill
grestore
stroke
grestore
gsave
312.682 312.682 79.819 44.669 clipbox
199.726 132.624 p0_0
gsave
fill
grestore
stroke
grestore
gsave
312.682 312.682 79.819 44.669 clipbox
157.874 132.583 p0_0
gsave
fill
grestore
stroke
grestore
gsave
312.682 312.682 79.819 44.669 clipbox
270.266 201.23 p0_0
gsave
fill
grestore
stroke
grestore
gsave
312.682 312.682 79.819 44.669 clipbox
312.744 255.046 p0_0
gsave
fill
grestore
stroke
grestore
gsave
312.682 312.682 79.819 44.669 clipbox
255.925 178.355 p0_0
gsave
fill
grestore
stroke
grestore
gsave
312.682 312.682 79.819 44.669 clipbox
213.448 132.374 p0_0
gsave
fill
grestore
stroke
grestore
gsave
312.682 312.682 79.819 44.669 clipbox
171.558 132.333 p0_0
gsave
fill
grestore
stroke
grestore
gsave
312.682 312.682 79.819 44.669 clipbox
241.568 156.4 p0_0
gsave
fill
grestore
stroke
grestore
gsave
312.682 312.682 79.819 44.669 clipbox
298.458 241.835 p0_0
gsave
fill
grestore
stroke
grestore
gsave
312.682 312.682 79.819 44.669 clipbox
185.267 132.082 p0_0
gsave
fill
grestore
stroke
grestore
gsave
312.682 312.682 79.819 44.669 clipbox
326.626 262.668 p0_0
gsave
fill
grestore
stroke
grestore
gsave
312.682 312.682 79.819 44.669 clipbox
227.191 136.442 p0_0
gsave
fill
grestore
stroke
grestore
gsave
312.682 312.682 79.819 44.669 clipbox
143.326 132.041 p0_0
gsave
fill
grestore
stroke
grestore
gsave
312.682 312.682 79.819 44.669 clipbox
284.133 226.824 p0_0
gsave
fill
grestore
stroke
grestore
gsave
312.682 312.682 79.819 44.669 clipbox
199.003 131.831 p0_0
gsave
fill
grestore
stroke
grestore
gsave
312.682 312.682 79.819 44.669 clipbox
157.024 131.79 p0_0
gsave
fill
grestore
stroke
grestore
gsave
312.682 312.682 79.819 44.669 clipbox
312.36 254.485 p0_0
gsave
fill
grestore
stroke
grestore
gsave
312.682 312.682 79.819 44.669 clipbox
269.77 208.655 p0_0
gsave
fill
grestore
stroke
grestore
gsave
312.682 312.682 79.819 44.669 clipbox
212.764 131.985 p0_0
gsave
fill
grestore
stroke
grestore
gsave
312.682 312.682 79.819 44.669 clipbox
170.748 131.538 p0_0
gsave
fill
grestore
stroke
grestore
gsave
312.682 312.682 79.819 44.669 clipbox
255.375 182.718 p0_0
gsave
fill
grestore
stroke
grestore
gsave
312.682 312.682 79.819 44.669 clipbox
240.969 153.51 p0_0
gsave
fill
grestore
stroke
grestore
gsave
312.682 312.682 79.819 44.669 clipbox
298.043 244.369 p0_0
gsave
fill
grestore
stroke
grestore
gsave
312.682 312.682 79.819 44.669 clipbox
184.499 131.286 p0_0
gsave
fill
grestore
stroke
grestore
gsave
312.682 312.682 79.819 44.669 clipbox
326.284 262.265 p0_0
gsave
fill
grestore
stroke
grestore
gsave
312.682 312.682 79.819 44.669 clipbox
226.549 135.659 p0_0
gsave
fill
grestore
stroke
grestore
gsave
312.682 312.682 79.819 44.669 clipbox
142.431 131.244 p0_0
gsave
fill
grestore
stroke
grestore
gsave
312.682 312.682 79.819 44.669 clipbox
198.275 131.033 p0_0
gsave
fill
grestore
stroke
grestore
gsave
312.682 312.682 79.819 44.669 clipbox
156.17 130.992 p0_0
gsave
fill
grestore
stroke
grestore
gsave
312.682 312.682 79.819 44.669 clipbox
283.678 231.904 p0_0
gsave
fill
grestore
stroke
grestore
gsave
312.682 312.682 79.819 44.669 clipbox
311.98 255.288 p0_0
gsave
fill
grestore
stroke
grestore
gsave
312.682 312.682 79.819 44.669 clipbox
212.077 131.187 p0_0
gsave
fill
grestore
stroke
grestore
gsave
312.682 312.682 79.819 44.669 clipbox
169.934 130.738 p0_0
gsave
fill
grestore
stroke
grestore
gsave
312.682 312.682 79.819 44.669 clipbox
254.817 182.753 p0_0
gsave
fill
grestore
stroke
grestore
gsave
312.682 312.682 79.819 44.669 clipbox
269.269 214.906 p0_0
gsave
fill
grestore
stroke
grestore
gsave
312.682 312.682 79.819 44.669 clipbox
240.367 156.038 p0_0
gsave
fill
grestore
stroke
grestore
gsave
312.682 312.682 79.819 44.669 clipbox
183.725 130.485 p0_0
gsave
fill
grestore
stroke
grestore
gsave
312.682 312.682 79.819 44.669 clipbox
325.941 261.997 p0_0
gsave
fill
grestore
stroke
grestore
gsave
312.682 312.682 79.819 44.669 clipbox
141.531 130.443 p0_0
gsave
fill
grestore
stroke
grestore
gsave
312.682 312.682 79.819 44.669 clipbox
297.626 247.193 p0_0
gsave
fill
grestore
stroke
grestore
gsave
312.682 312.682 79.819 44.669 clipbox
225.899 138.538 p0_0
gsave
fill
grestore
stroke
grestore
gsave
312.682 312.682 79.819 44.669 clipbox
197.543 130.231 p0_0
gsave
fill
grestore
stroke
grestore
gsave
312.682 312.682 79.819 44.669 clipbox
155.31 130.189 p0_0
gsave
fill
grestore
stroke
grestore
gsave
312.682 312.682 79.819 44.669 clipbox
283.222 237.567 p0_0
gsave
fill
grestore
stroke
grestore
gsave
312.682 312.682 79.819 44.669 clipbox
311.61 258.701 p0_0
gsave
fill
grestore
stroke
grestore
gsave
312.682 312.682 79.819 44.669 clipbox
211.385 130.792 p0_0
gsave
fill
grestore
stroke
grestore
gsave
312.682 312.682 79.819 44.669 clipbox
169.115 129.934 p0_0
gsave
fill
grestore
stroke
grestore
gsave
312.682 312.682 79.819 44.669 clipbox
268.75 213.809 p0_0
gsave
fill
grestore
stroke
grestore
gsave
312.682 312.682 79.819 44.669 clipbox
254.263 190.027 p0_0
gsave
fill
grestore
stroke
grestore
gsave
312.682 312.682 79.819 44.669 clipbox
239.761 161.718 p0_0
gsave
fill
grestore
stroke
grestore
gsave
312.682 312.682 79.819 44.669 clipbox
182.948 129.679 p0_0
gsave
fill
grestore
stroke
grestore
gsave
312.682 312.682 79.819 44.669 clipbox
325.6 262.552 p0_0
gsave
fill
grestore
stroke
grestore
gsave
312.682 312.682 79.819 44.669 clipbox
140.624 129.637 p0_0
gsave
fill
grestore
stroke
grestore
gsave
312.682 312.682 79.819 44.669 clipbox
225.248 138.574 p0_0
gsave
fill
grestore
stroke
grestore
gsave
312.682 312.682 79.819 44.669 clipbox
297.207 250.447 p0_0
gsave
fill
grestore
stroke
grestore
gsave
312.682 312.682 79.819 44.669 clipbox
196.806 129.423 p0_0
gsave
fill
grestore
stroke
grestore
gsave
312.682 312.682 79.819 44.669 clipbox
154.445 129.381 p0_0
gsave
fill
grestore
stroke
grestore
gsave
312.682 312.682 79.819 44.669 clipbox
282.739 234.75 p0_0
gsave
fill
grestore
stroke
grestore
gsave
312.682 312.682 79.819 44.669 clipbox
210.69 129.849 p0_0
gsave
fill
grestore
stroke
grestore
gsave
312.682 312.682 79.819 44.669 clipbox
311.228 259.934 p0_0
gsave
fill
grestore
stroke
grestore
gsave
312.682 312.682 79.819 44.669 clipbox
168.291 129.125 p0_0
gsave
fill
grestore
stroke
grestore
gsave
312.682 312.682 79.819 44.669 clipbox
268.24 219.157 p0_0
gsave
fill
grestore
stroke
grestore
gsave
312.682 312.682 79.819 44.669 clipbox
253.701 193.513 p0_0
gsave
fill
grestore
stroke
grestore
gsave
312.682 312.682 79.819 44.669 clipbox
182.165 128.868 p0_0
gsave
fill
grestore
stroke
grestore
gsave
312.682 312.682 79.819 44.669 clipbox
239.152 162.921 p0_0
gsave
fill
grestore
stroke
grestore
gsave
312.682 312.682 79.819 44.669 clipbox
139.713 128.825 p0_0
gsave
fill
grestore
stroke
grestore
gsave
312.682 312.682 79.819 44.669 clipbox
325.257 263.11 p0_0
gsave
fill
grestore
stroke
grestore
gsave
312.682 312.682 79.819 44.669 clipbox
296.773 250.004 p0_0
gsave
fill
grestore
stroke
grestore
gsave
312.682 312.682 79.819 44.669 clipbox
224.592 140.114 p0_0
gsave
fill
grestore
stroke
grestore
gsave
312.682 312.682 79.819 44.669 clipbox
196.065 128.611 p0_0
gsave
fill
grestore
stroke
grestore
gsave
312.682 312.682 79.819 44.669 clipbox
153.574 128.568 p0_0
gsave
fill
grestore
stroke
grestore
gsave
312.682 312.682 79.819 44.669 clipbox
310.827 257.863 p0_0
gsave
fill
grestore
stroke
grestore
gsave
312.682 312.682 79.819 44.669 clipbox
282.283 242.664 p0_0
gsave
fill
grestore
stroke
grestore
gsave
312.682 312.682 79.819 44.669 clipbox
167.462 128.31 p0_0
gsave
fill
grestore
stroke
grestore
gsave
312.682 312.682 79.819 44.669 clipbox
209.987 130.816 p0_0
gsave
fill
grestore
stroke
grestore
gsave
312.682 312.682 79.819 44.669 clipbox
267.722 221.923 p0_0
gsave
fill
grestore
stroke
grestore
gsave
312.682 312.682 79.819 44.669 clipbox
253.133 193.445 p0_0
gsave
fill
grestore
stroke
grestore
gsave
312.682 312.682 79.819 44.669 clipbox
181.377 128.052 p0_0
gsave
fill
grestore
stroke
grestore
gsave
312.682 312.682 79.819 44.669 clipbox
324.901 261.737 p0_0
gsave
fill
grestore
stroke
grestore
gsave
312.682 312.682 79.819 44.669 clipbox
138.795 128.009 p0_0
gsave
fill
grestore
stroke
grestore
gsave
312.682 312.682 79.819 44.669 clipbox
238.537 169.763 p0_0
gsave
fill
grestore
stroke
grestore
gsave
312.682 312.682 79.819 44.669 clipbox
223.929 143.035 p0_0
gsave
fill
grestore
stroke
grestore
gsave
312.682 312.682 79.819 44.669 clipbox
296.359 256.053 p0_0
gsave
fill
grestore
stroke
grestore
gsave
312.682 312.682 79.819 44.669 clipbox
195.319 127.93 p0_0
gsave
fill
grestore
stroke
grestore
gsave
312.682 312.682 79.819 44.669 clipbox
152.698 127.75 p0_0
gsave
fill
grestore
stroke
grestore
gsave
312.682 312.682 79.819 44.669 clipbox
209.284 129.592 p0_0
gsave
fill
grestore
stroke
grestore
gsave
312.682 312.682 79.819 44.669 clipbox
166.628 127.491 p0_0
gsave
fill
grestore
stroke
grestore
gsave
312.682 312.682 79.819 44.669 clipbox
281.802 242.886 p0_0
gsave
fill
grestore
stroke
grestore
gsave
312.682 312.682 79.819 44.669 clipbox
310.449 261.04 p0_0
gsave
fill
grestore
stroke
grestore
gsave
312.682 312.682 79.819 44.669 clipbox
267.195 221.805 p0_0
gsave
fill
grestore
stroke
grestore
gsave
312.682 312.682 79.819 44.669 clipbox
180.585 127.231 p0_0
gsave
fill
grestore
stroke
grestore
gsave
312.682 312.682 79.819 44.669 clipbox
324.564 264.098 p0_0
gsave
fill
grestore
stroke
grestore
gsave
312.682 312.682 79.819 44.669 clipbox
252.568 201.936 p0_0
gsave
fill
grestore
stroke
grestore
gsave
312.682 312.682 79.819 44.669 clipbox
295.909 253.128 p0_0
gsave
fill
grestore
stroke
grestore
gsave
312.682 312.682 79.819 44.669 clipbox
237.919 172.929 p0_0
gsave
fill
grestore
stroke
grestore
gsave
312.682 312.682 79.819 44.669 clipbox
194.569 126.971 p0_0
gsave
fill
grestore
stroke
grestore
gsave
312.682 312.682 79.819 44.669 clipbox
223.263 145.701 p0_0
gsave
fill
grestore
stroke
grestore
gsave
312.682 312.682 79.819 44.669 clipbox
281.317 242.832 p0_0
gsave
fill
grestore
stroke
grestore
gsave
312.682 312.682 79.819 44.669 clipbox
310.049 260.209 p0_0
gsave
fill
grestore
stroke
grestore
gsave
312.682 312.682 79.819 44.669 clipbox
208.571 130.84 p0_0
gsave
fill
grestore
stroke
grestore
gsave
312.682 312.682 79.819 44.669 clipbox
324.213 264.388 p0_0
gsave
fill
grestore
stroke
grestore
gsave
312.682 312.682 79.819 44.669 clipbox
266.681 231.257 p0_0
gsave
fill
grestore
stroke
grestore
gsave
312.682 312.682 79.819 44.669 clipbox
251.993 202.725 p0_0
gsave
fill
grestore
stroke
grestore
gsave
312.682 312.682 79.819 44.669 clipbox
295.47 253.801 p0_0
gsave
fill
grestore
stroke
grestore
gsave
312.682 312.682 79.819 44.669 clipbox
237.297 173.903 p0_0
gsave
fill
grestore
stroke
grestore
gsave
312.682 312.682 79.819 44.669 clipbox
222.591 148.937 p0_0
gsave
fill
grestore
stroke
grestore
gsave
312.682 312.682 79.819 44.669 clipbox
309.651 260.209 p0_0
gsave
fill
grestore
stroke
grestore
gsave
312.682 312.682 79.819 44.669 clipbox
280.844 248.068 p0_0
gsave
fill
grestore
stroke
grestore
gsave
312.682 312.682 79.819 44.669 clipbox
323.855 263.703 p0_0
gsave
fill
grestore
stroke
grestore
gsave
312.682 312.682 79.819 44.669 clipbox
266.145 229.636 p0_0
gsave
fill
grestore
stroke
grestore
gsave
312.682 312.682 79.819 44.669 clipbox
295.038 257.13 p0_0
gsave
fill
grestore
stroke
grestore
gsave
312.682 312.682 79.819 44.669 clipbox
251.418 208.804 p0_0
gsave
fill
grestore
stroke
grestore
gsave
312.682 312.682 79.819 44.669 clipbox
236.669 185.856 p0_0
gsave
fill
grestore
stroke
grestore
gsave
312.682 312.682 79.819 44.669 clipbox
309.258 261.886 p0_0
gsave
fill
grestore
stroke
grestore
gsave
312.682 312.682 79.819 44.669 clipbox
280.355 248.449 p0_0
gsave
fill
grestore
stroke
grestore
gsave
312.682 312.682 79.819 44.669 clipbox
323.497 263.574 p0_0
gsave
fill
grestore
stroke
grestore
gsave
312.682 312.682 79.819 44.669 clipbox
265.62 236.805 p0_0
gsave
fill
grestore
stroke
grestore
gsave
312.682 312.682 79.819 44.669 clipbox
294.592 257.26 p0_0
gsave
fill
grestore
stroke
grestore
gsave
312.682 312.682 79.819 44.669 clipbox
250.84 217.022 p0_0
gsave
fill
grestore
stroke
grestore
gsave
312.682 312.682 79.819 44.669 clipbox
308.855 262.031 p0_0
gsave
fill
grestore
stroke
grestore
gsave
312.682 312.682 79.819 44.669 clipbox
279.864 249.674 p0_0
gsave
fill
grestore
stroke
grestore
gsave
312.682 312.682 79.819 44.669 clipbox
323.137 263.444 p0_0
gsave
fill
grestore
stroke
grestore
gsave
312.682 312.682 79.819 44.669 clipbox
265.083 238.976 p0_0
gsave
fill
grestore
stroke
grestore
gsave
312.682 312.682 79.819 44.669 clipbox
294.139 256.548 p0_0
gsave
fill
grestore
stroke
grestore
gsave
312.682 312.682 79.819 44.669 clipbox
308.444 260.911 p0_0
gsave
fill
grestore
stroke
grestore
gsave
312.682 312.682 79.819 44.669 clipbox
279.369 250.484 p0_0
gsave
fill
grestore
stroke
grestore
gsave
312.682 312.682 79.819 44.669 clipbox
322.773 263.031 p0_0
gsave
fill
grestore
stroke
grestore
gsave
312.682 312.682 79.819 44.669 clipbox
293.691 257.946 p0_0
gsave
fill
grestore
stroke
grestore
gsave
312.682 312.682 79.819 44.669 clipbox
308.039 261.76 p0_0
gsave
fill
grestore
stroke
grestore
gsave
312.682 312.682 79.819 44.669 clipbox
322.411 263.322 p0_0
gsave
fill
grestore
stroke
grestore

end
showpage
