%!PS-Adobe-3.0 EPSF-3.0
%%Title: n=2000_alg=exh_p=1.eps
%%Creator: Matplotlib v3.4.1, https://matplotlib.org/
%%CreationDate: Wed Jul 28 11:51:25 2021
%%Orientation: portrait
%%BoundingBox: 75 223 537 569
%%HiResBoundingBox: 75.600000 223.200000 536.400000 568.800000
%%EndComments
%%BeginProlog
/mpldict 11 dict def
mpldict begin
/d { bind def } bind def
/m { moveto } d
/l { lineto } d
/r { rlineto } d
/c { curveto } d
/cl { closepath } d
/ce { closepath eofill } d
/box {
      m
      1 index 0 r
      0 exch r
      neg 0 r
      cl
    } d
/clipbox {
      box
      clip
      newpath
    } d
/sc { setcachedevice } d
%!PS-Adobe-3.0 Resource-Font
%%Creator: Converted from TrueType to Type 3 by Matplotlib.
10 dict begin
/FontName /DejaVuSans def
/PaintType 0 def
/FontMatrix [0.00048828125 0 0 0.00048828125 0 0] def
/FontBBox [-2090 -948 3673 2524] def
/FontType 3 def
/Encoding [/period /zero /one /two /three /four /five /six /seven /eight] def
/CharStrings 11 dict dup begin
/.notdef 0 def
/period{651 0 219 0 430 254 sc
219 254 m
430 254 l
430 0 l
219 0 l
219 254 l

ce} d
/zero{1303 0 135 -29 1167 1520 sc
651 1360 m
547 1360 469 1309 416 1206 c
364 1104 338 950 338 745 c
338 540 364 387 416 284 c
469 182 547 131 651 131 c
756 131 834 182 886 284 c
939 387 965 540 965 745 c
965 950 939 1104 886 1206 c
834 1309 756 1360 651 1360 c

651 1520 m
818 1520 946 1454 1034 1321 c
1123 1189 1167 997 1167 745 c
1167 494 1123 302 1034 169 c
946 37 818 -29 651 -29 c
484 -29 356 37 267 169 c
179 302 135 494 135 745 c
135 997 179 1189 267 1321 c
356 1454 484 1520 651 1520 c

ce} d
/one{1303 0 225 0 1114 1493 sc
254 170 m
584 170 l
584 1309 l
225 1237 l
225 1421 l
582 1493 l
784 1493 l
784 170 l
1114 170 l
1114 0 l
254 0 l
254 170 l

ce} d
/two{1303 0 150 0 1098 1520 sc
393 170 m
1098 170 l
1098 0 l
150 0 l
150 170 l
227 249 331 356 463 489 c
596 623 679 709 713 748 c
778 821 823 882 848 932 c
874 983 887 1032 887 1081 c
887 1160 859 1225 803 1275 c
748 1325 675 1350 586 1350 c
523 1350 456 1339 385 1317 c
315 1295 240 1262 160 1217 c
160 1421 l
241 1454 317 1478 388 1495 c
459 1512 523 1520 582 1520 c
737 1520 860 1481 952 1404 c
1044 1327 1090 1223 1090 1094 c
1090 1033 1078 974 1055 919 c
1032 864 991 800 930 725 c
913 706 860 650 771 557 c
682 465 556 336 393 170 c

ce} d
/three{1303 0 156 -29 1139 1520 sc
831 805 m
928 784 1003 741 1057 676 c
1112 611 1139 530 1139 434 c
1139 287 1088 173 987 92 c
886 11 742 -29 555 -29 c
492 -29 428 -23 361 -10 c
295 2 227 20 156 45 c
156 240 l
212 207 273 183 340 166 c
407 149 476 141 549 141 c
676 141 772 166 838 216 c
905 266 938 339 938 434 c
938 522 907 591 845 640 c
784 690 698 715 588 715 c
414 715 l
414 881 l
596 881 l
695 881 771 901 824 940 c
877 980 903 1037 903 1112 c
903 1189 876 1247 821 1288 c
767 1329 689 1350 588 1350 c
533 1350 473 1344 410 1332 c
347 1320 277 1301 201 1276 c
201 1456 l
278 1477 349 1493 416 1504 c
483 1515 547 1520 606 1520 c
759 1520 881 1485 970 1415 c
1059 1346 1104 1252 1104 1133 c
1104 1050 1080 980 1033 923 c
986 866 918 827 831 805 c

ce} d
/four{1303 0 100 0 1188 1493 sc
774 1317 m
264 520 l
774 520 l
774 1317 l

721 1493 m
975 1493 l
975 520 l
1188 520 l
1188 352 l
975 352 l
975 0 l
774 0 l
774 352 l
100 352 l
100 547 l
721 1493 l

ce} d
/five{1303 0 158 -29 1124 1493 sc
221 1493 m
1014 1493 l
1014 1323 l
406 1323 l
406 957 l
435 967 465 974 494 979 c
523 984 553 987 582 987 c
749 987 881 941 978 850 c
1075 759 1124 635 1124 479 c
1124 318 1074 193 974 104 c
874 15 733 -29 551 -29 c
488 -29 424 -24 359 -13 c
294 -2 227 14 158 35 c
158 238 l
218 205 280 181 344 165 c
408 149 476 141 547 141 c
662 141 754 171 821 232 c
888 293 922 375 922 479 c
922 583 888 665 821 726 c
754 787 662 817 547 817 c
493 817 439 811 385 799 c
332 787 277 768 221 743 c
221 1493 l

ce} d
/six{1303 0 143 -29 1174 1520 sc
676 827 m
585 827 513 796 460 734 c
407 672 381 587 381 479 c
381 372 407 287 460 224 c
513 162 585 131 676 131 c
767 131 838 162 891 224 c
944 287 971 372 971 479 c
971 587 944 672 891 734 c
838 796 767 827 676 827 c

1077 1460 m
1077 1276 l
1026 1300 975 1318 923 1331 c
872 1344 821 1350 770 1350 c
637 1350 535 1305 464 1215 c
394 1125 354 989 344 807 c
383 865 433 909 492 940 c
551 971 617 987 688 987 c
838 987 956 941 1043 850 c
1130 759 1174 636 1174 479 c
1174 326 1129 203 1038 110 c
947 17 827 -29 676 -29 c
503 -29 371 37 280 169 c
189 302 143 494 143 745 c
143 981 199 1169 311 1309 c
423 1450 573 1520 762 1520 c
813 1520 864 1515 915 1505 c
967 1495 1021 1480 1077 1460 c

ce} d
/seven{1303 0 168 0 1128 1493 sc
168 1493 m
1128 1493 l
1128 1407 l
586 0 l
375 0 l
885 1323 l
168 1323 l
168 1493 l

ce} d
/eight{1303 0 139 -29 1163 1520 sc
651 709 m
555 709 479 683 424 632 c
369 581 342 510 342 420 c
342 330 369 259 424 208 c
479 157 555 131 651 131 c
747 131 823 157 878 208 c
933 260 961 331 961 420 c
961 510 933 581 878 632 c
823 683 748 709 651 709 c

449 795 m
362 816 295 857 246 916 c
198 975 174 1048 174 1133 c
174 1252 216 1347 301 1416 c
386 1485 503 1520 651 1520 c
800 1520 916 1485 1001 1416 c
1086 1347 1128 1252 1128 1133 c
1128 1048 1104 975 1055 916 c
1007 857 940 816 854 795 c
951 772 1027 728 1081 662 c
1136 596 1163 515 1163 420 c
1163 275 1119 164 1030 87 c
942 10 816 -29 651 -29 c
486 -29 360 10 271 87 c
183 164 139 275 139 420 c
139 515 166 596 221 662 c
276 728 352 772 449 795 c

375 1114 m
375 1037 399 976 447 933 c
496 890 564 868 651 868 c
738 868 805 890 854 933 c
903 976 928 1037 928 1114 c
928 1191 903 1252 854 1295 c
805 1338 738 1360 651 1360 c
564 1360 496 1338 447 1295 c
399 1252 375 1191 375 1114 c

ce} d
end readonly def

/BuildGlyph {
 exch begin
 CharStrings exch
 2 copy known not {pop /.notdef} if
 true 3 1 roll get exec
 end
} d

/BuildChar {
 1 index /Encoding get exch get
 1 index /BuildGlyph get exec
} d

FontName currentdict end definefont pop
end
%%EndProlog
mpldict begin
75.6 223.2 translate
460.8 345.6 0 0 clipbox
gsave
0 0 m
460.8 0 l
460.8 345.6 l
0 345.6 l
cl
1.000 setgray
fill
grestore
gsave
103.104 38.016 m
369.216 38.016 l
369.216 304.128 l
103.104 304.128 l
cl
1.000 setgray
fill
grestore
1.000 setlinewidth
0 setlinejoin
0 setlinecap
[] 0 setdash
0.950 setgray
gsave
358.998845 106.821169 m
267.751017 125.468003 l
267.960157 243.850775 l
359.98304 237.458383 l
gsave
fill
grestore
stroke
grestore
0.900 setgray
gsave
125.406994 114.947609 m
267.751017 125.468003 l
267.960157 243.850775 l
124.502229 240.24546 l
gsave
fill
grestore
stroke
grestore
0.925 setgray
gsave
206.837556 93.921077 m
358.998845 106.821169 l
267.751017 125.468003 l
125.406994 114.947609 l
gsave
fill
grestore
stroke
grestore
0.800 setlinewidth
1 setlinejoin
2 setlinecap
0.000 setgray
gsave
358.998845 106.821169 m
206.837556 93.921077 l
stroke
grestore
0 setlinecap
0.690 setgray
gsave
227.852824 95.702732 m
144.962981 116.392958 l
144.218702 240.740965 l
stroke
grestore
gsave
249.063767 97.500976 m
164.73451 117.854236 l
164.150073 241.241871 l
stroke
grestore
gsave
269.913057 99.268559 m
184.201766 119.293027 l
183.772339 241.735008 l
stroke
grestore
gsave
290.409863 101.006259 m
203.371718 120.709844 l
203.092637 242.220556 l
stroke
grestore
gsave
310.563051 102.714828 m
222.251127 122.105187 l
222.117882 242.69869 l
stroke
grestore
gsave
330.381189 104.394991 m
240.846546 123.479542 l
240.854784 243.169576 l
stroke
grestore
gsave
349.872564 106.047451 m
259.164337 124.833377 l
259.309847 243.63338 l
stroke
grestore
2 setlinecap
0.000 setgray
gsave
227.117544 95.886266 m
229.327265 95.334695 l
stroke
grestore
/DejaVuSans 10.000 selectfont
gsave

226.019679 74.745386 translate
0.000000 rotate
0.000000 0 m /one glyphshow
6.362305 0 m /zero glyphshow
12.724609 0 m /zero glyphshow
grestore
gsave
248.31635 97.681369 m
250.562514 97.139246 l
stroke
grestore
gsave

247.341771 76.674588 translate
0.000000 rotate
0.000000 0 m /two glyphshow
6.362305 0 m /zero glyphshow
12.724609 0 m /zero glyphshow
grestore
gsave
269.15402 99.445891 m
271.435068 98.912976 l
stroke
grestore
gsave

268.297291 78.570623 translate
0.000000 rotate
0.000000 0 m /three glyphshow
6.362305 0 m /zero glyphshow
12.724609 0 m /zero glyphshow
grestore
gsave
289.639706 101.180607 m
291.954141 100.656668 l
stroke
grestore
gsave

288.895610 80.434339 translate
0.000000 rotate
0.000000 0 m /four glyphshow
6.362305 0 m /zero glyphshow
12.724609 0 m /zero glyphshow
grestore
gsave
309.78225 102.886266 m
312.128637 102.371077 l
stroke
grestore
gsave

309.145785 82.266556 translate
0.000000 rotate
0.000000 0 m /five glyphshow
6.362305 0 m /zero glyphshow
12.724609 0 m /zero glyphshow
grestore
gsave
329.590203 104.563592 m
331.967163 104.056936 l
stroke
grestore
gsave

329.056567 84.068064 translate
0.000000 rotate
0.000000 0 m /six glyphshow
6.362305 0 m /zero glyphshow
12.724609 0 m /zero glyphshow
grestore
gsave
349.071834 106.213285 m
351.478043 105.714952 l
stroke
grestore
gsave

348.636419 85.839630 translate
0.000000 rotate
0.000000 0 m /seven glyphshow
6.362305 0 m /zero glyphshow
12.724609 0 m /zero glyphshow
grestore
gsave
125.406994 114.947609 m
206.837556 93.921077 l
stroke
grestore
0 setlinecap
0.690 setgray
gsave
356.064241 237.730603 m
355.115941 107.614655 l
203.352062 94.821082 l
stroke
grestore
gsave
343.652467 238.59279 m
342.81616 110.128161 l
192.323147 97.668905 l
stroke
grestore
gsave
331.555577 239.433104 m
330.825942 112.578407 l
181.589334 100.440528 l
stroke
grestore
gsave
319.761739 240.252366 m
319.133746 114.967751 l
171.138935 103.13897 l
stroke
grestore
gsave
308.259706 241.051357 m
307.728597 117.298435 l
160.960872 105.767091 l
stroke
grestore
gsave
297.03878 241.830822 m
296.600053 119.572595 l
151.044636 108.327605 l
stroke
grestore
gsave
286.088781 242.591466 m
285.738171 121.792261 l
141.380253 110.823086 l
stroke
grestore
gsave
275.400013 243.333964 m
275.13348 123.959369 l
131.958247 113.255983 l
stroke
grestore
2 setlinecap
0.000 setgray
gsave
204.64426 94.930013 m
200.763639 94.602879 l
stroke
grestore
gsave

183.547150 74.644868 translate
0.000000 rotate
0.000000 0 m /four glyphshow
6.362305 0 m /five glyphshow
grestore
gsave
193.603475 97.774902 m
189.758555 97.456583 l
stroke
grestore
gsave

172.650445 77.677254 translate
0.000000 rotate
0.000000 0 m /five glyphshow
6.362305 0 m /zero glyphshow
grestore
gsave
182.85796 100.54371 m
179.048234 100.233853 l
stroke
grestore
gsave

162.046634 80.628133 translate
0.000000 rotate
0.000000 0 m /five glyphshow
6.362305 0 m /five glyphshow
grestore
gsave
172.396027 103.239446 m
168.620989 102.937718 l
stroke
grestore
gsave

151.724063 83.500746 translate
0.000000 rotate
0.000000 0 m /six glyphshow
6.362305 0 m /zero glyphshow
grestore
gsave
162.206596 105.864966 m
158.465744 105.571052 l
stroke
grestore
gsave

141.671692 86.298167 translate
0.000000 rotate
0.000000 0 m /six glyphshow
6.362305 0 m /five glyphshow
grestore
gsave
152.279158 108.422979 m
148.571993 108.136579 l
stroke
grestore
gsave

131.879047 89.023311 translate
0.000000 rotate
0.000000 0 m /seven glyphshow
6.362305 0 m /zero glyphshow
grestore
gsave
142.603736 110.916054 m
138.929764 110.636884 l
stroke
grestore
gsave

122.336191 91.678941 translate
0.000000 rotate
0.000000 0 m /seven glyphshow
6.362305 0 m /five glyphshow
grestore
gsave
133.170853 113.346634 m
129.529587 113.074423 l
stroke
grestore
gsave

113.033687 94.267686 translate
0.000000 rotate
0.000000 0 m /eight glyphshow
6.362305 0 m /zero glyphshow
grestore
gsave
125.406994 114.947609 m
124.502229 240.24546 l
stroke
grestore
0 setlinecap
0.690 setgray
gsave
125.349841 122.86247 m
267.764233 132.94912 l
359.060995 115.07069 l
stroke
grestore
gsave
125.192787 144.612467 m
267.800548 153.50506 l
359.231797 137.742152 l
stroke
grestore
gsave
125.0353 166.422263 m
267.836958 174.114375 l
359.403089 160.478623 l
stroke
grestore
gsave
124.87738 188.292105 m
267.873462 194.777272 l
359.574873 183.280381 l
stroke
grestore
gsave
124.719024 210.222239 m
267.910061 215.493961 l
359.747151 206.147709 l
stroke
grestore
gsave
124.560231 232.212916 m
267.946755 236.264653 l
359.919925 229.080891 l
stroke
grestore
2 setlinecap
0.000 setgray
gsave
126.555447 122.947858 m
122.935231 122.691452 l
stroke
grestore
gsave

98.864448 115.886573 translate
0.000000 rotate
0.000000 0 m /zero glyphshow
6.362305 0 m /period glyphshow
9.541016 0 m /zero glyphshow
grestore
gsave
126.40012 144.687753 m
122.774711 144.461683 l
stroke
grestore
gsave

98.682573 137.563469 translate
0.000000 rotate
0.000000 0 m /zero glyphshow
6.362305 0 m /period glyphshow
9.541016 0 m /two glyphshow
grestore
gsave
126.244367 166.487391 m
122.613748 166.291825 l
stroke
grestore
gsave

98.500200 159.299758 translate
0.000000 rotate
0.000000 0 m /zero glyphshow
6.362305 0 m /period glyphshow
9.541016 0 m /four glyphshow
grestore
gsave
126.088184 188.347017 m
122.452343 188.182124 l
stroke
grestore
gsave

98.317326 181.095686 translate
0.000000 rotate
0.000000 0 m /zero glyphshow
6.362305 0 m /period glyphshow
9.541016 0 m /six glyphshow
grestore
gsave
125.931572 210.26688 m
122.290491 210.13283 l
stroke
grestore
gsave

98.133949 202.951499 translate
0.000000 rotate
0.000000 0 m /zero glyphshow
6.362305 0 m /period glyphshow
9.541016 0 m /eight glyphshow
grestore
gsave
125.774527 232.247229 m
122.128193 232.144193 l
stroke
grestore
gsave

97.950068 224.867443 translate
0.000000 rotate
0.000000 0 m /one glyphshow
6.362305 0 m /period glyphshow
9.541016 0 m /zero glyphshow
grestore
/p0_0 {
newpath
translate
0 -2.236068 m
0.593012 -2.236068 1.161816 -2.000462 1.581139 -1.581139 c
2.000462 -1.161816 2.236068 -0.593012 2.236068 0 c
2.236068 0.593012 2.000462 1.161816 1.581139 1.581139 c
1.161816 2.000462 0.593012 2.236068 0 2.236068 c
-0.593012 2.236068 -1.161816 2.000462 -1.581139 1.581139 c
-2.000462 1.161816 -2.236068 0.593012 -2.236068 0 c
-2.236068 -0.593012 -2.000462 -1.161816 -1.581139 -1.581139 c
-1.161816 -2.000462 -0.593012 -2.236068 0 -2.236068 c
cl

} bind def
1.000 setlinewidth
0 setlinecap
0.122 0.467 0.706 setrgbcolor
gsave
266.112 266.112 103.104 38.016 clipbox
264.581 225.528 p0_0
gsave
fill
grestore
stroke
grestore
gsave
266.112 266.112 103.104 38.016 clipbox
266.675 226.6 p0_0
gsave
fill
grestore
stroke
grestore
gsave
266.112 266.112 103.104 38.016 clipbox
255.351 213.132 p0_0
gsave
fill
grestore
stroke
grestore
gsave
266.112 266.112 103.104 38.016 clipbox
268.782 229.258 p0_0
gsave
fill
grestore
stroke
grestore
gsave
266.112 266.112 103.104 38.016 clipbox
246.061 192.555 p0_0
gsave
fill
grestore
stroke
grestore
gsave
266.112 266.112 103.104 38.016 clipbox
257.43 216.284 p0_0
gsave
fill
grestore
stroke
grestore
gsave
266.112 266.112 103.104 38.016 clipbox
270.892 228.02 p0_0
gsave
fill
grestore
stroke
grestore
gsave
266.112 266.112 103.104 38.016 clipbox
236.725 165.975 p0_0
gsave
fill
grestore
stroke
grestore
gsave
266.112 266.112 103.104 38.016 clipbox
248.121 194.5 p0_0
gsave
fill
grestore
stroke
grestore
gsave
266.112 266.112 103.104 38.016 clipbox
259.52 219.135 p0_0
gsave
fill
grestore
stroke
grestore
gsave
266.112 266.112 103.104 38.016 clipbox
273.017 228.894 p0_0
gsave
fill
grestore
stroke
grestore
gsave
266.112 266.112 103.104 38.016 clipbox
227.347 141.281 p0_0
gsave
fill
grestore
stroke
grestore
gsave
266.112 266.112 103.104 38.016 clipbox
238.766 168.596 p0_0
gsave
fill
grestore
stroke
grestore
gsave
266.112 266.112 103.104 38.016 clipbox
261.616 218.081 p0_0
gsave
fill
grestore
stroke
grestore
gsave
266.112 266.112 103.104 38.016 clipbox
250.194 200.37 p0_0
gsave
fill
grestore
stroke
grestore
gsave
266.112 266.112 103.104 38.016 clipbox
275.153 230.409 p0_0
gsave
fill
grestore
stroke
grestore
gsave
266.112 266.112 103.104 38.016 clipbox
229.368 143.421 p0_0
gsave
fill
grestore
stroke
grestore
gsave
266.112 266.112 103.104 38.016 clipbox
240.817 174.618 p0_0
gsave
fill
grestore
stroke
grestore
gsave
266.112 266.112 103.104 38.016 clipbox
263.726 220.208 p0_0
gsave
fill
grestore
stroke
grestore
gsave
266.112 266.112 103.104 38.016 clipbox
217.907 130.192 p0_0
gsave
fill
grestore
stroke
grestore
gsave
266.112 266.112 103.104 38.016 clipbox
252.274 200.33 p0_0
gsave
fill
grestore
stroke
grestore
gsave
266.112 266.112 103.104 38.016 clipbox
277.3 231.507 p0_0
gsave
fill
grestore
stroke
grestore
gsave
266.112 266.112 103.104 38.016 clipbox
231.4 146.102 p0_0
gsave
fill
grestore
stroke
grestore
gsave
266.112 266.112 103.104 38.016 clipbox
242.879 173.453 p0_0
gsave
fill
grestore
stroke
grestore
gsave
266.112 266.112 103.104 38.016 clipbox
219.913 130.192 p0_0
gsave
fill
grestore
stroke
grestore
gsave
266.112 266.112 103.104 38.016 clipbox
265.847 222.239 p0_0
gsave
fill
grestore
stroke
grestore
gsave
266.112 266.112 103.104 38.016 clipbox
254.367 203.693 p0_0
gsave
fill
grestore
stroke
grestore
gsave
266.112 266.112 103.104 38.016 clipbox
208.391 127.401 p0_0
gsave
fill
grestore
stroke
grestore
gsave
266.112 266.112 103.104 38.016 clipbox
279.451 230.155 p0_0
gsave
fill
grestore
stroke
grestore
gsave
266.112 266.112 103.104 38.016 clipbox
233.443 145.61 p0_0
gsave
fill
grestore
stroke
grestore
gsave
266.112 266.112 103.104 38.016 clipbox
221.927 131.466 p0_0
gsave
fill
grestore
stroke
grestore
gsave
266.112 266.112 103.104 38.016 clipbox
267.976 222.465 p0_0
gsave
fill
grestore
stroke
grestore
gsave
266.112 266.112 103.104 38.016 clipbox
244.952 177.711 p0_0
gsave
fill
grestore
stroke
grestore
gsave
266.112 266.112 103.104 38.016 clipbox
256.471 206.541 p0_0
gsave
fill
grestore
stroke
grestore
gsave
266.112 266.112 103.104 38.016 clipbox
210.381 127.075 p0_0
gsave
fill
grestore
stroke
grestore
gsave
266.112 266.112 103.104 38.016 clipbox
281.616 230.615 p0_0
gsave
fill
grestore
stroke
grestore
gsave
266.112 266.112 103.104 38.016 clipbox
235.495 148.949 p0_0
gsave
fill
grestore
stroke
grestore
gsave
266.112 266.112 103.104 38.016 clipbox
223.954 130.831 p0_0
gsave
fill
grestore
stroke
grestore
gsave
266.112 266.112 103.104 38.016 clipbox
270.117 223.656 p0_0
gsave
fill
grestore
stroke
grestore
gsave
266.112 266.112 103.104 38.016 clipbox
198.798 126.61 p0_0
gsave
fill
grestore
stroke
grestore
gsave
266.112 266.112 103.104 38.016 clipbox
247.036 181.564 p0_0
gsave
fill
grestore
stroke
grestore
gsave
266.112 266.112 103.104 38.016 clipbox
258.585 208.548 p0_0
gsave
fill
grestore
stroke
grestore
gsave
266.112 266.112 103.104 38.016 clipbox
212.381 126.855 p0_0
gsave
fill
grestore
stroke
grestore
gsave
266.112 266.112 103.104 38.016 clipbox
283.791 230.434 p0_0
gsave
fill
grestore
stroke
grestore
gsave
266.112 266.112 103.104 38.016 clipbox
237.558 152.733 p0_0
gsave
fill
grestore
stroke
grestore
gsave
266.112 266.112 103.104 38.016 clipbox
225.989 131.153 p0_0
gsave
fill
grestore
stroke
grestore
gsave
266.112 266.112 103.104 38.016 clipbox
272.265 223.136 p0_0
gsave
fill
grestore
stroke
grestore
gsave
266.112 266.112 103.104 38.016 clipbox
200.773 126.174 p0_0
gsave
fill
grestore
stroke
grestore
gsave
266.112 266.112 103.104 38.016 clipbox
249.13 183.833 p0_0
gsave
fill
grestore
stroke
grestore
gsave
266.112 266.112 103.104 38.016 clipbox
260.709 210.244 p0_0
gsave
fill
grestore
stroke
grestore
gsave
266.112 266.112 103.104 38.016 clipbox
214.392 126.099 p0_0
gsave
fill
grestore
stroke
grestore
gsave
266.112 266.112 103.104 38.016 clipbox
189.131 125.919 p0_0
gsave
fill
grestore
stroke
grestore
gsave
266.112 266.112 103.104 38.016 clipbox
285.982 231.972 p0_0
gsave
fill
grestore
stroke
grestore
gsave
266.112 266.112 103.104 38.016 clipbox
228.034 131.904 p0_0
gsave
fill
grestore
stroke
grestore
gsave
266.112 266.112 103.104 38.016 clipbox
202.757 125.737 p0_0
gsave
fill
grestore
stroke
grestore
gsave
266.112 266.112 103.104 38.016 clipbox
239.632 156.43 p0_0
gsave
fill
grestore
stroke
grestore
gsave
266.112 266.112 103.104 38.016 clipbox
274.43 225.625 p0_0
gsave
fill
grestore
stroke
grestore
gsave
266.112 266.112 103.104 38.016 clipbox
262.841 209.367 p0_0
gsave
fill
grestore
stroke
grestore
gsave
266.112 266.112 103.104 38.016 clipbox
251.237 187.723 p0_0
gsave
fill
grestore
stroke
grestore
gsave
266.112 266.112 103.104 38.016 clipbox
216.411 125.768 p0_0
gsave
fill
grestore
stroke
grestore
gsave
266.112 266.112 103.104 38.016 clipbox
191.09 125.481 p0_0
gsave
fill
grestore
stroke
grestore
gsave
266.112 266.112 103.104 38.016 clipbox
288.177 231.362 p0_0
gsave
fill
grestore
stroke
grestore
gsave
266.112 266.112 103.104 38.016 clipbox
204.752 125.298 p0_0
gsave
fill
grestore
stroke
grestore
gsave
266.112 266.112 103.104 38.016 clipbox
230.09 132.337 p0_0
gsave
fill
grestore
stroke
grestore
gsave
266.112 266.112 103.104 38.016 clipbox
276.606 227.912 p0_0
gsave
fill
grestore
stroke
grestore
gsave
266.112 266.112 103.104 38.016 clipbox
241.717 159.073 p0_0
gsave
fill
grestore
stroke
grestore
gsave
266.112 266.112 103.104 38.016 clipbox
179.388 125.223 p0_0
gsave
fill
grestore
stroke
grestore
gsave
266.112 266.112 103.104 38.016 clipbox
253.353 188.512 p0_0
gsave
fill
grestore
stroke
grestore
gsave
266.112 266.112 103.104 38.016 clipbox
264.993 215.279 p0_0
gsave
fill
grestore
stroke
grestore
gsave
266.112 266.112 103.104 38.016 clipbox
218.441 125.65 p0_0
gsave
fill
grestore
stroke
grestore
gsave
266.112 266.112 103.104 38.016 clipbox
193.058 125.04 p0_0
gsave
fill
grestore
stroke
grestore
gsave
266.112 266.112 103.104 38.016 clipbox
290.388 232.37 p0_0
gsave
fill
grestore
stroke
grestore
gsave
266.112 266.112 103.104 38.016 clipbox
206.756 124.856 p0_0
gsave
fill
grestore
stroke
grestore
gsave
266.112 266.112 103.104 38.016 clipbox
232.155 134.385 p0_0
gsave
fill
grestore
stroke
grestore
gsave
266.112 266.112 103.104 38.016 clipbox
278.786 226.749 p0_0
gsave
fill
grestore
stroke
grestore
gsave
266.112 266.112 103.104 38.016 clipbox
243.813 158.607 p0_0
gsave
fill
grestore
stroke
grestore
gsave
266.112 266.112 103.104 38.016 clipbox
181.331 124.781 p0_0
gsave
fill
grestore
stroke
grestore
gsave
266.112 266.112 103.104 38.016 clipbox
255.48 190.817 p0_0
gsave
fill
grestore
stroke
grestore
gsave
266.112 266.112 103.104 38.016 clipbox
220.481 125.317 p0_0
gsave
fill
grestore
stroke
grestore
gsave
266.112 266.112 103.104 38.016 clipbox
267.154 218.735 p0_0
gsave
fill
grestore
stroke
grestore
gsave
266.112 266.112 103.104 38.016 clipbox
195.036 124.597 p0_0
gsave
fill
grestore
stroke
grestore
gsave
266.112 266.112 103.104 38.016 clipbox
292.604 231.542 p0_0
gsave
fill
grestore
stroke
grestore
gsave
266.112 266.112 103.104 38.016 clipbox
169.57 124.522 p0_0
gsave
fill
grestore
stroke
grestore
gsave
266.112 266.112 103.104 38.016 clipbox
208.77 124.412 p0_0
gsave
fill
grestore
stroke
grestore
gsave
266.112 266.112 103.104 38.016 clipbox
234.232 134.935 p0_0
gsave
fill
grestore
stroke
grestore
gsave
266.112 266.112 103.104 38.016 clipbox
280.982 228.183 p0_0
gsave
fill
grestore
stroke
grestore
gsave
266.112 266.112 103.104 38.016 clipbox
183.283 124.337 p0_0
gsave
fill
grestore
stroke
grestore
gsave
266.112 266.112 103.104 38.016 clipbox
245.92 161.161 p0_0
gsave
fill
grestore
stroke
grestore
gsave
266.112 266.112 103.104 38.016 clipbox
222.531 125.089 p0_0
gsave
fill
grestore
stroke
grestore
gsave
266.112 266.112 103.104 38.016 clipbox
269.318 217.981 p0_0
gsave
fill
grestore
stroke
grestore
gsave
266.112 266.112 103.104 38.016 clipbox
257.622 195.84 p0_0
gsave
fill
grestore
stroke
grestore
gsave
266.112 266.112 103.104 38.016 clipbox
197.024 124.152 p0_0
gsave
fill
grestore
stroke
grestore
gsave
266.112 266.112 103.104 38.016 clipbox
294.834 231.687 p0_0
gsave
fill
grestore
stroke
grestore
gsave
266.112 266.112 103.104 38.016 clipbox
171.496 124.077 p0_0
gsave
fill
grestore
stroke
grestore
gsave
266.112 266.112 103.104 38.016 clipbox
210.794 123.966 p0_0
gsave
fill
grestore
stroke
grestore
gsave
266.112 266.112 103.104 38.016 clipbox
283.188 228.972 p0_0
gsave
fill
grestore
stroke
grestore
gsave
266.112 266.112 103.104 38.016 clipbox
236.319 137 p0_0
gsave
fill
grestore
stroke
grestore
gsave
266.112 266.112 103.104 38.016 clipbox
185.245 123.891 p0_0
gsave
fill
grestore
stroke
grestore
gsave
266.112 266.112 103.104 38.016 clipbox
248.039 164.92 p0_0
gsave
fill
grestore
stroke
grestore
gsave
266.112 266.112 103.104 38.016 clipbox
159.674 123.816 p0_0
gsave
fill
grestore
stroke
grestore
gsave
266.112 266.112 103.104 38.016 clipbox
224.59 125.185 p0_0
gsave
fill
grestore
stroke
grestore
gsave
266.112 266.112 103.104 38.016 clipbox
259.772 197.416 p0_0
gsave
fill
grestore
stroke
grestore
gsave
266.112 266.112 103.104 38.016 clipbox
271.5 220.919 p0_0
gsave
fill
grestore
stroke
grestore
gsave
266.112 266.112 103.104 38.016 clipbox
199.022 123.705 p0_0
gsave
fill
grestore
stroke
grestore
gsave
266.112 266.112 103.104 38.016 clipbox
297.076 231.941 p0_0
gsave
fill
grestore
stroke
grestore
gsave
266.112 266.112 103.104 38.016 clipbox
173.431 123.629 p0_0
gsave
fill
grestore
stroke
grestore
gsave
266.112 266.112 103.104 38.016 clipbox
212.828 123.518 p0_0
gsave
fill
grestore
stroke
grestore
gsave
266.112 266.112 103.104 38.016 clipbox
187.216 123.442 p0_0
gsave
fill
grestore
stroke
grestore
gsave
266.112 266.112 103.104 38.016 clipbox
238.417 137.126 p0_0
gsave
fill
grestore
stroke
grestore
gsave
266.112 266.112 103.104 38.016 clipbox
285.405 229.982 p0_0
gsave
fill
grestore
stroke
grestore
gsave
266.112 266.112 103.104 38.016 clipbox
161.583 123.367 p0_0
gsave
fill
grestore
stroke
grestore
gsave
266.112 266.112 103.104 38.016 clipbox
250.169 168.7 p0_0
gsave
fill
grestore
stroke
grestore
gsave
266.112 266.112 103.104 38.016 clipbox
226.66 125.281 p0_0
gsave
fill
grestore
stroke
grestore
gsave
266.112 266.112 103.104 38.016 clipbox
273.688 220.929 p0_0
gsave
fill
grestore
stroke
grestore
gsave
266.112 266.112 103.104 38.016 clipbox
201.03 123.255 p0_0
gsave
fill
grestore
stroke
grestore
gsave
266.112 266.112 103.104 38.016 clipbox
261.937 202.159 p0_0
gsave
fill
grestore
stroke
grestore
gsave
266.112 266.112 103.104 38.016 clipbox
299.33 232.524 p0_0
gsave
fill
grestore
stroke
grestore
gsave
266.112 266.112 103.104 38.016 clipbox
175.376 123.179 p0_0
gsave
fill
grestore
stroke
grestore
gsave
266.112 266.112 103.104 38.016 clipbox
149.701 123.104 p0_0
gsave
fill
grestore
stroke
grestore
gsave
266.112 266.112 103.104 38.016 clipbox
214.872 123.176 p0_0
gsave
fill
grestore
stroke
grestore
gsave
266.112 266.112 103.104 38.016 clipbox
287.628 228.813 p0_0
gsave
fill
grestore
stroke
grestore
gsave
266.112 266.112 103.104 38.016 clipbox
189.197 122.992 p0_0
gsave
fill
grestore
stroke
grestore
gsave
266.112 266.112 103.104 38.016 clipbox
240.526 142.142 p0_0
gsave
fill
grestore
stroke
grestore
gsave
266.112 266.112 103.104 38.016 clipbox
163.502 122.916 p0_0
gsave
fill
grestore
stroke
grestore
gsave
266.112 266.112 103.104 38.016 clipbox
228.741 125.051 p0_0
gsave
fill
grestore
stroke
grestore
gsave
266.112 266.112 103.104 38.016 clipbox
252.312 173.372 p0_0
gsave
fill
grestore
stroke
grestore
gsave
266.112 266.112 103.104 38.016 clipbox
203.047 122.803 p0_0
gsave
fill
grestore
stroke
grestore
gsave
266.112 266.112 103.104 38.016 clipbox
275.893 223.562 p0_0
gsave
fill
grestore
stroke
grestore
gsave
266.112 266.112 103.104 38.016 clipbox
301.592 232.235 p0_0
gsave
fill
grestore
stroke
grestore
gsave
266.112 266.112 103.104 38.016 clipbox
264.107 202.449 p0_0
gsave
fill
grestore
stroke
grestore
gsave
266.112 266.112 103.104 38.016 clipbox
177.331 122.727 p0_0
gsave
fill
grestore
stroke
grestore
gsave
266.112 266.112 103.104 38.016 clipbox
151.593 122.651 p0_0
gsave
fill
grestore
stroke
grestore
gsave
266.112 266.112 103.104 38.016 clipbox
216.926 122.723 p0_0
gsave
fill
grestore
stroke
grestore
gsave
266.112 266.112 103.104 38.016 clipbox
191.189 122.538 p0_0
gsave
fill
grestore
stroke
grestore
gsave
266.112 266.112 103.104 38.016 clipbox
289.868 229.938 p0_0
gsave
fill
grestore
stroke
grestore
gsave
266.112 266.112 103.104 38.016 clipbox
165.43 122.462 p0_0
gsave
fill
grestore
stroke
grestore
gsave
266.112 266.112 103.104 38.016 clipbox
242.646 144.461 p0_0
gsave
fill
grestore
stroke
grestore
gsave
266.112 266.112 103.104 38.016 clipbox
139.649 122.386 p0_0
gsave
fill
grestore
stroke
grestore
gsave
266.112 266.112 103.104 38.016 clipbox
230.831 126.128 p0_0
gsave
fill
grestore
stroke
grestore
gsave
266.112 266.112 103.104 38.016 clipbox
205.075 122.349 p0_0
gsave
fill
grestore
stroke
grestore
gsave
266.112 266.112 103.104 38.016 clipbox
254.466 176.431 p0_0
gsave
fill
grestore
stroke
grestore
gsave
266.112 266.112 103.104 38.016 clipbox
278.103 223.469 p0_0
gsave
fill
grestore
stroke
grestore
gsave
266.112 266.112 103.104 38.016 clipbox
303.866 231.944 p0_0
gsave
fill
grestore
stroke
grestore
gsave
266.112 266.112 103.104 38.016 clipbox
179.295 122.273 p0_0
gsave
fill
grestore
stroke
grestore
gsave
266.112 266.112 103.104 38.016 clipbox
266.298 208.546 p0_0
gsave
fill
grestore
stroke
grestore
gsave
266.112 266.112 103.104 38.016 clipbox
153.494 122.196 p0_0
gsave
fill
grestore
stroke
grestore
gsave
266.112 266.112 103.104 38.016 clipbox
218.991 122.16 p0_0
gsave
fill
grestore
stroke
grestore
gsave
266.112 266.112 103.104 38.016 clipbox
292.113 228.872 p0_0
gsave
fill
grestore
stroke
grestore
gsave
266.112 266.112 103.104 38.016 clipbox
193.19 122.083 p0_0
gsave
fill
grestore
stroke
grestore
gsave
266.112 266.112 103.104 38.016 clipbox
167.367 122.006 p0_0
gsave
fill
grestore
stroke
grestore
gsave
266.112 266.112 103.104 38.016 clipbox
244.777 145.044 p0_0
gsave
fill
grestore
stroke
grestore
gsave
266.112 266.112 103.104 38.016 clipbox
141.523 121.93 p0_0
gsave
fill
grestore
stroke
grestore
gsave
266.112 266.112 103.104 38.016 clipbox
232.933 126.555 p0_0
gsave
fill
grestore
stroke
grestore
gsave
266.112 266.112 103.104 38.016 clipbox
207.113 121.893 p0_0
gsave
fill
grestore
stroke
grestore
gsave
266.112 266.112 103.104 38.016 clipbox
280.323 223.156 p0_0
gsave
fill
grestore
stroke
grestore
gsave
266.112 266.112 103.104 38.016 clipbox
306.152 231.871 p0_0
gsave
fill
grestore
stroke
grestore
gsave
266.112 266.112 103.104 38.016 clipbox
256.632 180.713 p0_0
gsave
fill
grestore
stroke
grestore
gsave
266.112 266.112 103.104 38.016 clipbox
181.27 121.816 p0_0
gsave
fill
grestore
stroke
grestore
gsave
266.112 266.112 103.104 38.016 clipbox
268.492 209.184 p0_0
gsave
fill
grestore
stroke
grestore
gsave
266.112 266.112 103.104 38.016 clipbox
155.404 121.739 p0_0
gsave
fill
grestore
stroke
grestore
gsave
266.112 266.112 103.104 38.016 clipbox
221.065 121.812 p0_0
gsave
fill
grestore
stroke
grestore
gsave
266.112 266.112 103.104 38.016 clipbox
195.201 121.626 p0_0
gsave
fill
grestore
stroke
grestore
gsave
266.112 266.112 103.104 38.016 clipbox
294.377 230.223 p0_0
gsave
fill
grestore
stroke
grestore
gsave
266.112 266.112 103.104 38.016 clipbox
169.314 121.548 p0_0
gsave
fill
grestore
stroke
grestore
gsave
266.112 266.112 103.104 38.016 clipbox
143.406 121.471 p0_0
gsave
fill
grestore
stroke
grestore
gsave
266.112 266.112 103.104 38.016 clipbox
235.046 125.67 p0_0
gsave
fill
grestore
stroke
grestore
gsave
266.112 266.112 103.104 38.016 clipbox
209.161 121.434 p0_0
gsave
fill
grestore
stroke
grestore
gsave
266.112 266.112 103.104 38.016 clipbox
246.922 151.987 p0_0
gsave
fill
grestore
stroke
grestore
gsave
266.112 266.112 103.104 38.016 clipbox
308.449 231.688 p0_0
gsave
fill
grestore
stroke
grestore
gsave
266.112 266.112 103.104 38.016 clipbox
282.561 225.154 p0_0
gsave
fill
grestore
stroke
grestore
gsave
266.112 266.112 103.104 38.016 clipbox
183.254 121.357 p0_0
gsave
fill
grestore
stroke
grestore
gsave
266.112 266.112 103.104 38.016 clipbox
258.809 183.809 p0_0
gsave
fill
grestore
stroke
grestore
gsave
266.112 266.112 103.104 38.016 clipbox
270.698 210.375 p0_0
gsave
fill
grestore
stroke
grestore
gsave
266.112 266.112 103.104 38.016 clipbox
157.324 121.28 p0_0
gsave
fill
grestore
stroke
grestore
gsave
266.112 266.112 103.104 38.016 clipbox
223.15 121.572 p0_0
gsave
fill
grestore
stroke
grestore
gsave
266.112 266.112 103.104 38.016 clipbox
197.222 121.166 p0_0
gsave
fill
grestore
stroke
grestore
gsave
266.112 266.112 103.104 38.016 clipbox
296.648 230.146 p0_0
gsave
fill
grestore
stroke
grestore
gsave
266.112 266.112 103.104 38.016 clipbox
171.272 121.088 p0_0
gsave
fill
grestore
stroke
grestore
gsave
266.112 266.112 103.104 38.016 clipbox
145.299 121.011 p0_0
gsave
fill
grestore
stroke
grestore
gsave
266.112 266.112 103.104 38.016 clipbox
237.168 127.524 p0_0
gsave
fill
grestore
stroke
grestore
gsave
266.112 266.112 103.104 38.016 clipbox
211.22 120.974 p0_0
gsave
fill
grestore
stroke
grestore
gsave
266.112 266.112 103.104 38.016 clipbox
249.075 151.273 p0_0
gsave
fill
grestore
stroke
grestore
gsave
266.112 266.112 103.104 38.016 clipbox
310.756 231.394 p0_0
gsave
fill
grestore
stroke
grestore
gsave
266.112 266.112 103.104 38.016 clipbox
284.809 226.611 p0_0
gsave
fill
grestore
stroke
grestore
gsave
266.112 266.112 103.104 38.016 clipbox
185.248 120.896 p0_0
gsave
fill
grestore
stroke
grestore
gsave
266.112 266.112 103.104 38.016 clipbox
261 188.135 p0_0
gsave
fill
grestore
stroke
grestore
gsave
266.112 266.112 103.104 38.016 clipbox
159.254 120.818 p0_0
gsave
fill
grestore
stroke
grestore
gsave
266.112 266.112 103.104 38.016 clipbox
272.92 213.561 p0_0
gsave
fill
grestore
stroke
grestore
gsave
266.112 266.112 103.104 38.016 clipbox
225.246 121.001 p0_0
gsave
fill
grestore
stroke
grestore
gsave
266.112 266.112 103.104 38.016 clipbox
199.253 120.703 p0_0
gsave
fill
grestore
stroke
grestore
gsave
266.112 266.112 103.104 38.016 clipbox
298.934 231.286 p0_0
gsave
fill
grestore
stroke
grestore
gsave
266.112 266.112 103.104 38.016 clipbox
173.238 120.626 p0_0
gsave
fill
grestore
stroke
grestore
gsave
266.112 266.112 103.104 38.016 clipbox
147.201 120.548 p0_0
gsave
fill
grestore
stroke
grestore
gsave
266.112 266.112 103.104 38.016 clipbox
213.288 120.51 p0_0
gsave
fill
grestore
stroke
grestore
gsave
266.112 266.112 103.104 38.016 clipbox
239.302 128.068 p0_0
gsave
fill
grestore
stroke
grestore
gsave
266.112 266.112 103.104 38.016 clipbox
313.078 231.541 p0_0
gsave
fill
grestore
stroke
grestore
gsave
266.112 266.112 103.104 38.016 clipbox
251.242 154.193 p0_0
gsave
fill
grestore
stroke
grestore
gsave
266.112 266.112 103.104 38.016 clipbox
287.068 227.854 p0_0
gsave
fill
grestore
stroke
grestore
gsave
266.112 266.112 103.104 38.016 clipbox
187.252 120.432 p0_0
gsave
fill
grestore
stroke
grestore
gsave
266.112 266.112 103.104 38.016 clipbox
161.194 120.354 p0_0
gsave
fill
grestore
stroke
grestore
gsave
266.112 266.112 103.104 38.016 clipbox
263.2 191.047 p0_0
gsave
fill
grestore
stroke
grestore
gsave
266.112 266.112 103.104 38.016 clipbox
227.352 120.647 p0_0
gsave
fill
grestore
stroke
grestore
gsave
266.112 266.112 103.104 38.016 clipbox
275.153 216.433 p0_0
gsave
fill
grestore
stroke
grestore
gsave
266.112 266.112 103.104 38.016 clipbox
201.295 120.239 p0_0
gsave
fill
grestore
stroke
grestore
gsave
266.112 266.112 103.104 38.016 clipbox
301.225 230.324 p0_0
gsave
fill
grestore
stroke
grestore
gsave
266.112 266.112 103.104 38.016 clipbox
175.215 120.161 p0_0
gsave
fill
grestore
stroke
grestore
gsave
266.112 266.112 103.104 38.016 clipbox
149.113 120.082 p0_0
gsave
fill
grestore
stroke
grestore
gsave
266.112 266.112 103.104 38.016 clipbox
215.368 120.045 p0_0
gsave
fill
grestore
stroke
grestore
gsave
266.112 266.112 103.104 38.016 clipbox
241.448 129.056 p0_0
gsave
fill
grestore
stroke
grestore
gsave
266.112 266.112 103.104 38.016 clipbox
315.41 231.356 p0_0
gsave
fill
grestore
stroke
grestore
gsave
266.112 266.112 103.104 38.016 clipbox
253.419 155.581 p0_0
gsave
fill
grestore
stroke
grestore
gsave
266.112 266.112 103.104 38.016 clipbox
289.335 227.993 p0_0
gsave
fill
grestore
stroke
grestore
gsave
266.112 266.112 103.104 38.016 clipbox
189.266 119.966 p0_0
gsave
fill
grestore
stroke
grestore
gsave
266.112 266.112 103.104 38.016 clipbox
163.143 119.888 p0_0
gsave
fill
grestore
stroke
grestore
gsave
266.112 266.112 103.104 38.016 clipbox
229.469 120.182 p0_0
gsave
fill
grestore
stroke
grestore
gsave
266.112 266.112 103.104 38.016 clipbox
265.413 193.753 p0_0
gsave
fill
grestore
stroke
grestore
gsave
266.112 266.112 103.104 38.016 clipbox
277.396 218.208 p0_0
gsave
fill
grestore
stroke
grestore
gsave
266.112 266.112 103.104 38.016 clipbox
203.347 119.772 p0_0
gsave
fill
grestore
stroke
grestore
gsave
266.112 266.112 103.104 38.016 clipbox
303.532 230.58 p0_0
gsave
fill
grestore
stroke
grestore
gsave
266.112 266.112 103.104 38.016 clipbox
177.202 119.693 p0_0
gsave
fill
grestore
stroke
grestore
gsave
266.112 266.112 103.104 38.016 clipbox
151.035 119.615 p0_0
gsave
fill
grestore
stroke
grestore
gsave
266.112 266.112 103.104 38.016 clipbox
217.457 119.577 p0_0
gsave
fill
grestore
stroke
grestore
gsave
266.112 266.112 103.104 38.016 clipbox
243.604 129.274 p0_0
gsave
fill
grestore
stroke
grestore
gsave
266.112 266.112 103.104 38.016 clipbox
317.754 231.282 p0_0
gsave
fill
grestore
stroke
grestore
gsave
266.112 266.112 103.104 38.016 clipbox
191.291 119.498 p0_0
gsave
fill
grestore
stroke
grestore
gsave
266.112 266.112 103.104 38.016 clipbox
291.614 228.132 p0_0
gsave
fill
grestore
stroke
grestore
gsave
266.112 266.112 103.104 38.016 clipbox
165.102 119.419 p0_0
gsave
fill
grestore
stroke
grestore
gsave
266.112 266.112 103.104 38.016 clipbox
255.614 163.852 p0_0
gsave
fill
grestore
stroke
grestore
gsave
266.112 266.112 103.104 38.016 clipbox
231.597 120.267 p0_0
gsave
fill
grestore
stroke
grestore
gsave
266.112 266.112 103.104 38.016 clipbox
279.647 218.323 p0_0
gsave
fill
grestore
stroke
grestore
gsave
266.112 266.112 103.104 38.016 clipbox
205.409 119.303 p0_0
gsave
fill
grestore
stroke
grestore
gsave
266.112 266.112 103.104 38.016 clipbox
305.85 230.838 p0_0
gsave
fill
grestore
stroke
grestore
gsave
266.112 266.112 103.104 38.016 clipbox
267.645 200.814 p0_0
gsave
fill
grestore
stroke
grestore
gsave
266.112 266.112 103.104 38.016 clipbox
179.199 119.224 p0_0
gsave
fill
grestore
stroke
grestore
gsave
266.112 266.112 103.104 38.016 clipbox
152.966 119.144 p0_0
gsave
fill
grestore
stroke
grestore
gsave
266.112 266.112 103.104 38.016 clipbox
219.558 119.218 p0_0
gsave
fill
grestore
stroke
grestore
gsave
266.112 266.112 103.104 38.016 clipbox
320.109 230.983 p0_0
gsave
fill
grestore
stroke
grestore
gsave
266.112 266.112 103.104 38.016 clipbox
193.326 119.028 p0_0
gsave
fill
grestore
stroke
grestore
gsave
266.112 266.112 103.104 38.016 clipbox
293.906 228.495 p0_0
gsave
fill
grestore
stroke
grestore
gsave
266.112 266.112 103.104 38.016 clipbox
245.774 135.597 p0_0
gsave
fill
grestore
stroke
grestore
gsave
266.112 266.112 103.104 38.016 clipbox
167.071 118.948 p0_0
gsave
fill
grestore
stroke
grestore
gsave
266.112 266.112 103.104 38.016 clipbox
257.817 166.72 p0_0
gsave
fill
grestore
stroke
grestore
gsave
266.112 266.112 103.104 38.016 clipbox
233.736 119.798 p0_0
gsave
fill
grestore
stroke
grestore
gsave
266.112 266.112 103.104 38.016 clipbox
207.482 118.831 p0_0
gsave
fill
grestore
stroke
grestore
gsave
266.112 266.112 103.104 38.016 clipbox
269.87 197.091 p0_0
gsave
fill
grestore
stroke
grestore
gsave
266.112 266.112 103.104 38.016 clipbox
281.917 221.342 p0_0
gsave
fill
grestore
stroke
grestore
gsave
266.112 266.112 103.104 38.016 clipbox
308.178 230.426 p0_0
gsave
fill
grestore
stroke
grestore
gsave
266.112 266.112 103.104 38.016 clipbox
181.206 118.752 p0_0
gsave
fill
grestore
stroke
grestore
gsave
266.112 266.112 103.104 38.016 clipbox
154.908 118.672 p0_0
gsave
fill
grestore
stroke
grestore
gsave
266.112 266.112 103.104 38.016 clipbox
221.669 118.634 p0_0
gsave
fill
grestore
stroke
grestore
gsave
266.112 266.112 103.104 38.016 clipbox
322.477 231.019 p0_0
gsave
fill
grestore
stroke
grestore
gsave
266.112 266.112 103.104 38.016 clipbox
195.371 118.554 p0_0
gsave
fill
grestore
stroke
grestore
gsave
266.112 266.112 103.104 38.016 clipbox
296.21 229.196 p0_0
gsave
fill
grestore
stroke
grestore
gsave
266.112 266.112 103.104 38.016 clipbox
247.954 137.058 p0_0
gsave
fill
grestore
stroke
grestore
gsave
266.112 266.112 103.104 38.016 clipbox
169.051 118.475 p0_0
gsave
fill
grestore
stroke
grestore
gsave
266.112 266.112 103.104 38.016 clipbox
260.027 165.922 p0_0
gsave
fill
grestore
stroke
grestore
gsave
266.112 266.112 103.104 38.016 clipbox
235.885 119.549 p0_0
gsave
fill
grestore
stroke
grestore
gsave
266.112 266.112 103.104 38.016 clipbox
209.566 118.357 p0_0
gsave
fill
grestore
stroke
grestore
gsave
266.112 266.112 103.104 38.016 clipbox
284.195 222.921 p0_0
gsave
fill
grestore
stroke
grestore
gsave
266.112 266.112 103.104 38.016 clipbox
310.52 230.461 p0_0
gsave
fill
grestore
stroke
grestore
gsave
266.112 266.112 103.104 38.016 clipbox
183.224 118.277 p0_0
gsave
fill
grestore
stroke
grestore
gsave
266.112 266.112 103.104 38.016 clipbox
272.13 205.542 p0_0
gsave
fill
grestore
stroke
grestore
gsave
266.112 266.112 103.104 38.016 clipbox
156.859 118.197 p0_0
gsave
fill
grestore
stroke
grestore
gsave
266.112 266.112 103.104 38.016 clipbox
223.791 118.159 p0_0
gsave
fill
grestore
stroke
grestore
gsave
266.112 266.112 103.104 38.016 clipbox
324.857 230.831 p0_0
gsave
fill
grestore
stroke
grestore
gsave
266.112 266.112 103.104 38.016 clipbox
197.427 118.079 p0_0
gsave
fill
grestore
stroke
grestore
gsave
266.112 266.112 103.104 38.016 clipbox
298.524 229.003 p0_0
gsave
fill
grestore
stroke
grestore
gsave
266.112 266.112 103.104 38.016 clipbox
250.144 136.071 p0_0
gsave
fill
grestore
stroke
grestore
gsave
266.112 266.112 103.104 38.016 clipbox
171.04 117.999 p0_0
gsave
fill
grestore
stroke
grestore
gsave
266.112 266.112 103.104 38.016 clipbox
238.046 119.856 p0_0
gsave
fill
grestore
stroke
grestore
gsave
266.112 266.112 103.104 38.016 clipbox
211.66 117.88 p0_0
gsave
fill
grestore
stroke
grestore
gsave
266.112 266.112 103.104 38.016 clipbox
262.262 174.406 p0_0
gsave
fill
grestore
stroke
grestore
gsave
266.112 266.112 103.104 38.016 clipbox
312.874 230.608 p0_0
gsave
fill
grestore
stroke
grestore
gsave
266.112 266.112 103.104 38.016 clipbox
286.484 224.171 p0_0
gsave
fill
grestore
stroke
grestore
gsave
266.112 266.112 103.104 38.016 clipbox
185.251 117.8 p0_0
gsave
fill
grestore
stroke
grestore
gsave
266.112 266.112 103.104 38.016 clipbox
274.393 208.88 p0_0
gsave
fill
grestore
stroke
grestore
gsave
266.112 266.112 103.104 38.016 clipbox
158.82 117.72 p0_0
gsave
fill
grestore
stroke
grestore
gsave
266.112 266.112 103.104 38.016 clipbox
225.923 117.682 p0_0
gsave
fill
grestore
stroke
grestore
gsave
266.112 266.112 103.104 38.016 clipbox
327.248 230.529 p0_0
gsave
fill
grestore
stroke
grestore
gsave
266.112 266.112 103.104 38.016 clipbox
199.493 117.601 p0_0
gsave
fill
grestore
stroke
grestore
gsave
266.112 266.112 103.104 38.016 clipbox
300.844 227.572 p0_0
gsave
fill
grestore
stroke
grestore
gsave
266.112 266.112 103.104 38.016 clipbox
173.039 117.521 p0_0
gsave
fill
grestore
stroke
grestore
gsave
266.112 266.112 103.104 38.016 clipbox
252.351 142.578 p0_0
gsave
fill
grestore
stroke
grestore
gsave
266.112 266.112 103.104 38.016 clipbox
240.217 119.83 p0_0
gsave
fill
grestore
stroke
grestore
gsave
266.112 266.112 103.104 38.016 clipbox
213.765 117.402 p0_0
gsave
fill
grestore
stroke
grestore
gsave
266.112 266.112 103.104 38.016 clipbox
315.238 230.418 p0_0
gsave
fill
grestore
stroke
grestore
gsave
266.112 266.112 103.104 38.016 clipbox
288.784 224.753 p0_0
gsave
fill
grestore
stroke
grestore
gsave
266.112 266.112 103.104 38.016 clipbox
187.289 117.321 p0_0
gsave
fill
grestore
stroke
grestore
gsave
266.112 266.112 103.104 38.016 clipbox
264.509 182.269 p0_0
gsave
fill
grestore
stroke
grestore
gsave
266.112 266.112 103.104 38.016 clipbox
276.663 209.647 p0_0
gsave
fill
grestore
stroke
grestore
gsave
266.112 266.112 103.104 38.016 clipbox
160.791 117.24 p0_0
gsave
fill
grestore
stroke
grestore
gsave
266.112 266.112 103.104 38.016 clipbox
228.067 117.202 p0_0
gsave
fill
grestore
stroke
grestore
gsave
266.112 266.112 103.104 38.016 clipbox
329.652 230.451 p0_0
gsave
fill
grestore
stroke
grestore
gsave
266.112 266.112 103.104 38.016 clipbox
201.569 117.121 p0_0
gsave
fill
grestore
stroke
grestore
gsave
266.112 266.112 103.104 38.016 clipbox
303.188 229.291 p0_0
gsave
fill
grestore
stroke
grestore
gsave
266.112 266.112 103.104 38.016 clipbox
175.049 117.04 p0_0
gsave
fill
grestore
stroke
grestore
gsave
266.112 266.112 103.104 38.016 clipbox
242.4 120.364 p0_0
gsave
fill
grestore
stroke
grestore
gsave
266.112 266.112 103.104 38.016 clipbox
254.567 144.743 p0_0
gsave
fill
grestore
stroke
grestore
gsave
266.112 266.112 103.104 38.016 clipbox
215.88 116.92 p0_0
gsave
fill
grestore
stroke
grestore
gsave
266.112 266.112 103.104 38.016 clipbox
317.614 230.001 p0_0
gsave
fill
grestore
stroke
grestore
gsave
266.112 266.112 103.104 38.016 clipbox
291.09 223.757 p0_0
gsave
fill
grestore
stroke
grestore
gsave
266.112 266.112 103.104 38.016 clipbox
189.338 116.839 p0_0
gsave
fill
grestore
stroke
grestore
gsave
266.112 266.112 103.104 38.016 clipbox
266.757 182.067 p0_0
gsave
fill
grestore
stroke
grestore
gsave
266.112 266.112 103.104 38.016 clipbox
162.772 116.758 p0_0
gsave
fill
grestore
stroke
grestore
gsave
266.112 266.112 103.104 38.016 clipbox
278.944 210.531 p0_0
gsave
fill
grestore
stroke
grestore
gsave
266.112 266.112 103.104 38.016 clipbox
230.222 116.831 p0_0
gsave
fill
grestore
stroke
grestore
gsave
266.112 266.112 103.104 38.016 clipbox
332.069 230.26 p0_0
gsave
fill
grestore
stroke
grestore
gsave
266.112 266.112 103.104 38.016 clipbox
203.657 116.638 p0_0
gsave
fill
grestore
stroke
grestore
gsave
266.112 266.112 103.104 38.016 clipbox
305.54 229.662 p0_0
gsave
fill
grestore
stroke
grestore
gsave
266.112 266.112 103.104 38.016 clipbox
177.069 116.557 p0_0
gsave
fill
grestore
stroke
grestore
gsave
266.112 266.112 103.104 38.016 clipbox
244.595 120.001 p0_0
gsave
fill
grestore
stroke
grestore
gsave
266.112 266.112 103.104 38.016 clipbox
218.007 116.436 p0_0
gsave
fill
grestore
stroke
grestore
gsave
266.112 266.112 103.104 38.016 clipbox
256.796 147.596 p0_0
gsave
fill
grestore
stroke
grestore
gsave
266.112 266.112 103.104 38.016 clipbox
320.004 230.034 p0_0
gsave
fill
grestore
stroke
grestore
gsave
266.112 266.112 103.104 38.016 clipbox
293.417 225.472 p0_0
gsave
fill
grestore
stroke
grestore
gsave
266.112 266.112 103.104 38.016 clipbox
191.397 116.355 p0_0
gsave
fill
grestore
stroke
grestore
gsave
266.112 266.112 103.104 38.016 clipbox
269.018 183.219 p0_0
gsave
fill
grestore
stroke
grestore
gsave
266.112 266.112 103.104 38.016 clipbox
164.764 116.273 p0_0
gsave
fill
grestore
stroke
grestore
gsave
266.112 266.112 103.104 38.016 clipbox
232.387 116.459 p0_0
gsave
fill
grestore
stroke
grestore
gsave
266.112 266.112 103.104 38.016 clipbox
281.244 213.684 p0_0
gsave
fill
grestore
stroke
grestore
gsave
266.112 266.112 103.104 38.016 clipbox
334.498 230.067 p0_0
gsave
fill
grestore
stroke
grestore
gsave
266.112 266.112 103.104 38.016 clipbox
205.755 116.153 p0_0
gsave
fill
grestore
stroke
grestore
gsave
266.112 266.112 103.104 38.016 clipbox
307.9 229.241 p0_0
gsave
fill
grestore
stroke
grestore
gsave
266.112 266.112 103.104 38.016 clipbox
179.1 116.071 p0_0
gsave
fill
grestore
stroke
grestore
gsave
266.112 266.112 103.104 38.016 clipbox
246.802 122.003 p0_0
gsave
fill
grestore
stroke
grestore
gsave
266.112 266.112 103.104 38.016 clipbox
220.144 115.95 p0_0
gsave
fill
grestore
stroke
grestore
gsave
266.112 266.112 103.104 38.016 clipbox
322.405 229.841 p0_0
gsave
fill
grestore
stroke
grestore
gsave
266.112 266.112 103.104 38.016 clipbox
259.038 150.465 p0_0
gsave
fill
grestore
stroke
grestore
gsave
266.112 266.112 103.104 38.016 clipbox
193.466 115.868 p0_0
gsave
fill
grestore
stroke
grestore
gsave
266.112 266.112 103.104 38.016 clipbox
295.757 227.311 p0_0
gsave
fill
grestore
stroke
grestore
gsave
266.112 266.112 103.104 38.016 clipbox
166.766 115.786 p0_0
gsave
fill
grestore
stroke
grestore
gsave
266.112 266.112 103.104 38.016 clipbox
234.564 115.972 p0_0
gsave
fill
grestore
stroke
grestore
gsave
266.112 266.112 103.104 38.016 clipbox
271.301 188.795 p0_0
gsave
fill
grestore
stroke
grestore
gsave
266.112 266.112 103.104 38.016 clipbox
336.939 229.874 p0_0
gsave
fill
grestore
stroke
grestore
gsave
266.112 266.112 103.104 38.016 clipbox
283.555 216.059 p0_0
gsave
fill
grestore
stroke
grestore
gsave
266.112 266.112 103.104 38.016 clipbox
207.864 115.665 p0_0
gsave
fill
grestore
stroke
grestore
gsave
266.112 266.112 103.104 38.016 clipbox
310.277 229.728 p0_0
gsave
fill
grestore
stroke
grestore
gsave
266.112 266.112 103.104 38.016 clipbox
181.141 115.583 p0_0
gsave
fill
grestore
stroke
grestore
gsave
266.112 266.112 103.104 38.016 clipbox
222.293 115.461 p0_0
gsave
fill
grestore
stroke
grestore
gsave
266.112 266.112 103.104 38.016 clipbox
249.02 123.564 p0_0
gsave
fill
grestore
stroke
grestore
gsave
266.112 266.112 103.104 38.016 clipbox
324.818 229.533 p0_0
gsave
fill
grestore
stroke
grestore
gsave
266.112 266.112 103.104 38.016 clipbox
195.547 115.379 p0_0
gsave
fill
grestore
stroke
grestore
gsave
266.112 266.112 103.104 38.016 clipbox
298.102 226.882 p0_0
gsave
fill
grestore
stroke
grestore
gsave
266.112 266.112 103.104 38.016 clipbox
261.294 154.936 p0_0
gsave
fill
grestore
stroke
grestore
gsave
266.112 266.112 103.104 38.016 clipbox
168.778 115.296 p0_0
gsave
fill
grestore
stroke
grestore
gsave
266.112 266.112 103.104 38.016 clipbox
236.752 115.709 p0_0
gsave
fill
grestore
stroke
grestore
gsave
266.112 266.112 103.104 38.016 clipbox
339.393 229.68 p0_0
gsave
fill
grestore
stroke
grestore
gsave
266.112 266.112 103.104 38.016 clipbox
209.984 115.174 p0_0
gsave
fill
grestore
stroke
grestore
gsave
266.112 266.112 103.104 38.016 clipbox
285.882 219.7 p0_0
gsave
fill
grestore
stroke
grestore
gsave
266.112 266.112 103.104 38.016 clipbox
273.6 195.769 p0_0
gsave
fill
grestore
stroke
grestore
gsave
266.112 266.112 103.104 38.016 clipbox
312.661 229.077 p0_0
gsave
fill
grestore
stroke
grestore
gsave
266.112 266.112 103.104 38.016 clipbox
183.192 115.092 p0_0
gsave
fill
grestore
stroke
grestore
gsave
266.112 266.112 103.104 38.016 clipbox
224.453 114.97 p0_0
gsave
fill
grestore
stroke
grestore
gsave
266.112 266.112 103.104 38.016 clipbox
327.245 229.452 p0_0
gsave
fill
grestore
stroke
grestore
gsave
266.112 266.112 103.104 38.016 clipbox
251.251 125.474 p0_0
gsave
fill
grestore
stroke
grestore
gsave
266.112 266.112 103.104 38.016 clipbox
197.638 114.887 p0_0
gsave
fill
grestore
stroke
grestore
gsave
266.112 266.112 103.104 38.016 clipbox
300.466 228.506 p0_0
gsave
fill
grestore
stroke
grestore
gsave
266.112 266.112 103.104 38.016 clipbox
170.8 114.804 p0_0
gsave
fill
grestore
stroke
grestore
gsave
266.112 266.112 103.104 38.016 clipbox
263.565 160.115 p0_0
gsave
fill
grestore
stroke
grestore
gsave
266.112 266.112 103.104 38.016 clipbox
238.952 115.218 p0_0
gsave
fill
grestore
stroke
grestore
gsave
266.112 266.112 103.104 38.016 clipbox
341.86 229.485 p0_0
gsave
fill
grestore
stroke
grestore
gsave
266.112 266.112 103.104 38.016 clipbox
288.208 218.908 p0_0
gsave
fill
grestore
stroke
grestore
gsave
266.112 266.112 103.104 38.016 clipbox
212.115 114.681 p0_0
gsave
fill
grestore
stroke
grestore
gsave
266.112 266.112 103.104 38.016 clipbox
315.061 229.223 p0_0
gsave
fill
grestore
stroke
grestore
gsave
266.112 266.112 103.104 38.016 clipbox
275.905 199.135 p0_0
gsave
fill
grestore
stroke
grestore
gsave
266.112 266.112 103.104 38.016 clipbox
185.255 114.598 p0_0
gsave
fill
grestore
stroke
grestore
gsave
266.112 266.112 103.104 38.016 clipbox
226.623 114.476 p0_0
gsave
fill
grestore
stroke
grestore
gsave
266.112 266.112 103.104 38.016 clipbox
329.685 229.37 p0_0
gsave
fill
grestore
stroke
grestore
gsave
266.112 266.112 103.104 38.016 clipbox
253.494 127.508 p0_0
gsave
fill
grestore
stroke
grestore
gsave
266.112 266.112 103.104 38.016 clipbox
199.74 114.392 p0_0
gsave
fill
grestore
stroke
grestore
gsave
266.112 266.112 103.104 38.016 clipbox
302.831 226.82 p0_0
gsave
fill
grestore
stroke
grestore
gsave
266.112 266.112 103.104 38.016 clipbox
172.833 114.309 p0_0
gsave
fill
grestore
stroke
grestore
gsave
266.112 266.112 103.104 38.016 clipbox
241.163 114.61 p0_0
gsave
fill
grestore
stroke
grestore
gsave
266.112 266.112 103.104 38.016 clipbox
344.339 229.288 p0_0
gsave
fill
grestore
stroke
grestore
gsave
266.112 266.112 103.104 38.016 clipbox
265.852 167.492 p0_0
gsave
fill
grestore
stroke
grestore
gsave
266.112 266.112 103.104 38.016 clipbox
214.257 114.186 p0_0
gsave
fill
grestore
stroke
grestore
gsave
266.112 266.112 103.104 38.016 clipbox
317.471 229.026 p0_0
gsave
fill
grestore
stroke
grestore
gsave
266.112 266.112 103.104 38.016 clipbox
290.561 222.691 p0_0
gsave
fill
grestore
stroke
grestore
gsave
266.112 266.112 103.104 38.016 clipbox
187.328 114.103 p0_0
gsave
fill
grestore
stroke
grestore
gsave
266.112 266.112 103.104 38.016 clipbox
278.221 201.947 p0_0
gsave
fill
grestore
stroke
grestore
gsave
266.112 266.112 103.104 38.016 clipbox
228.806 113.979 p0_0
gsave
fill
grestore
stroke
grestore
gsave
266.112 266.112 103.104 38.016 clipbox
332.136 229.058 p0_0
gsave
fill
grestore
stroke
grestore
gsave
266.112 266.112 103.104 38.016 clipbox
201.853 113.895 p0_0
gsave
fill
grestore
stroke
grestore
gsave
266.112 266.112 103.104 38.016 clipbox
305.217 227.648 p0_0
gsave
fill
grestore
stroke
grestore
gsave
266.112 266.112 103.104 38.016 clipbox
255.752 131.834 p0_0
gsave
fill
grestore
stroke
grestore
gsave
266.112 266.112 103.104 38.016 clipbox
174.877 113.812 p0_0
gsave
fill
grestore
stroke
grestore
gsave
266.112 266.112 103.104 38.016 clipbox
243.386 114.797 p0_0
gsave
fill
grestore
stroke
grestore
gsave
266.112 266.112 103.104 38.016 clipbox
216.411 113.688 p0_0
gsave
fill
grestore
stroke
grestore
gsave
266.112 266.112 103.104 38.016 clipbox
268.145 170.108 p0_0
gsave
fill
grestore
stroke
grestore
gsave
266.112 266.112 103.104 38.016 clipbox
292.912 221.788 p0_0
gsave
fill
grestore
stroke
grestore
gsave
266.112 266.112 103.104 38.016 clipbox
319.895 228.828 p0_0
gsave
fill
grestore
stroke
grestore
gsave
266.112 266.112 103.104 38.016 clipbox
189.411 113.604 p0_0
gsave
fill
grestore
stroke
grestore
gsave
266.112 266.112 103.104 38.016 clipbox
280.559 208.104 p0_0
gsave
fill
grestore
stroke
grestore
gsave
266.112 266.112 103.104 38.016 clipbox
230.999 113.48 p0_0
gsave
fill
grestore
stroke
grestore
gsave
266.112 266.112 103.104 38.016 clipbox
334.599 228.745 p0_0
gsave
fill
grestore
stroke
grestore
gsave
266.112 266.112 103.104 38.016 clipbox
203.977 113.396 p0_0
gsave
fill
grestore
stroke
grestore
gsave
266.112 266.112 103.104 38.016 clipbox
307.612 227.446 p0_0
gsave
fill
grestore
stroke
grestore
gsave
266.112 266.112 103.104 38.016 clipbox
258.02 132.524 p0_0
gsave
fill
grestore
stroke
grestore
gsave
266.112 266.112 103.104 38.016 clipbox
176.932 113.312 p0_0
gsave
fill
grestore
stroke
grestore
gsave
266.112 266.112 103.104 38.016 clipbox
245.621 114.414 p0_0
gsave
fill
grestore
stroke
grestore
gsave
266.112 266.112 103.104 38.016 clipbox
218.575 113.187 p0_0
gsave
fill
grestore
stroke
grestore
gsave
266.112 266.112 103.104 38.016 clipbox
322.331 228.629 p0_0
gsave
fill
grestore
stroke
grestore
gsave
266.112 266.112 103.104 38.016 clipbox
295.278 221.685 p0_0
gsave
fill
grestore
stroke
grestore
gsave
266.112 266.112 103.104 38.016 clipbox
191.506 113.103 p0_0
gsave
fill
grestore
stroke
grestore
gsave
266.112 266.112 103.104 38.016 clipbox
270.46 177.1 p0_0
gsave
fill
grestore
stroke
grestore
gsave
266.112 266.112 103.104 38.016 clipbox
282.901 210.498 p0_0
gsave
fill
grestore
stroke
grestore
gsave
266.112 266.112 103.104 38.016 clipbox
233.205 112.978 p0_0
gsave
fill
grestore
stroke
grestore
gsave
266.112 266.112 103.104 38.016 clipbox
206.113 112.894 p0_0
gsave
fill
grestore
stroke
grestore
gsave
266.112 266.112 103.104 38.016 clipbox
310.024 228.166 p0_0
gsave
fill
grestore
stroke
grestore
gsave
266.112 266.112 103.104 38.016 clipbox
260.299 133.563 p0_0
gsave
fill
grestore
stroke
grestore
gsave
266.112 266.112 103.104 38.016 clipbox
178.997 112.809 p0_0
gsave
fill
grestore
stroke
grestore
gsave
266.112 266.112 103.104 38.016 clipbox
247.867 114.258 p0_0
gsave
fill
grestore
stroke
grestore
gsave
266.112 266.112 103.104 38.016 clipbox
220.751 112.684 p0_0
gsave
fill
grestore
stroke
grestore
gsave
266.112 266.112 103.104 38.016 clipbox
324.779 228.313 p0_0
gsave
fill
grestore
stroke
grestore
gsave
266.112 266.112 103.104 38.016 clipbox
297.665 223.891 p0_0
gsave
fill
grestore
stroke
grestore
gsave
266.112 266.112 103.104 38.016 clipbox
193.612 112.599 p0_0
gsave
fill
grestore
stroke
grestore
gsave
266.112 266.112 103.104 38.016 clipbox
272.781 180.795 p0_0
gsave
fill
grestore
stroke
grestore
gsave
266.112 266.112 103.104 38.016 clipbox
285.246 209.442 p0_0
gsave
fill
grestore
stroke
grestore
gsave
266.112 266.112 103.104 38.016 clipbox
235.421 112.474 p0_0
gsave
fill
grestore
stroke
grestore
gsave
266.112 266.112 103.104 38.016 clipbox
208.259 112.389 p0_0
gsave
fill
grestore
stroke
grestore
gsave
266.112 266.112 103.104 38.016 clipbox
312.442 227.617 p0_0
gsave
fill
grestore
stroke
grestore
gsave
266.112 266.112 103.104 38.016 clipbox
181.073 112.304 p0_0
gsave
fill
grestore
stroke
grestore
gsave
266.112 266.112 103.104 38.016 clipbox
262.596 137.713 p0_0
gsave
fill
grestore
stroke
grestore
gsave
266.112 266.112 103.104 38.016 clipbox
250.125 114.216 p0_0
gsave
fill
grestore
stroke
grestore
gsave
266.112 266.112 103.104 38.016 clipbox
222.938 112.178 p0_0
gsave
fill
grestore
stroke
grestore
gsave
266.112 266.112 103.104 38.016 clipbox
195.729 112.093 p0_0
gsave
fill
grestore
stroke
grestore
gsave
266.112 266.112 103.104 38.016 clipbox
300.063 225.53 p0_0
gsave
fill
grestore
stroke
grestore
gsave
266.112 266.112 103.104 38.016 clipbox
275.107 180.006 p0_0
gsave
fill
grestore
stroke
grestore
gsave
266.112 266.112 103.104 38.016 clipbox
237.65 111.967 p0_0
gsave
fill
grestore
stroke
grestore
gsave
266.112 266.112 103.104 38.016 clipbox
287.622 214.747 p0_0
gsave
fill
grestore
stroke
grestore
gsave
266.112 266.112 103.104 38.016 clipbox
210.417 111.881 p0_0
gsave
fill
grestore
stroke
grestore
gsave
266.112 266.112 103.104 38.016 clipbox
314.877 227.762 p0_0
gsave
fill
grestore
stroke
grestore
gsave
266.112 266.112 103.104 38.016 clipbox
183.16 111.796 p0_0
gsave
fill
grestore
stroke
grestore
gsave
266.112 266.112 103.104 38.016 clipbox
252.396 115.095 p0_0
gsave
fill
grestore
stroke
grestore
gsave
266.112 266.112 103.104 38.016 clipbox
264.905 141.079 p0_0
gsave
fill
grestore
stroke
grestore
gsave
266.112 266.112 103.104 38.016 clipbox
225.137 111.669 p0_0
gsave
fill
grestore
stroke
grestore
gsave
266.112 266.112 103.104 38.016 clipbox
302.464 224.624 p0_0
gsave
fill
grestore
stroke
grestore
gsave
266.112 266.112 103.104 38.016 clipbox
197.857 111.584 p0_0
gsave
fill
grestore
stroke
grestore
gsave
266.112 266.112 103.104 38.016 clipbox
239.89 111.572 p0_0
gsave
fill
grestore
stroke
grestore
gsave
266.112 266.112 103.104 38.016 clipbox
277.47 190.219 p0_0
gsave
fill
grestore
stroke
grestore
gsave
266.112 266.112 103.104 38.016 clipbox
289.999 215.902 p0_0
gsave
fill
grestore
stroke
grestore
gsave
266.112 266.112 103.104 38.016 clipbox
212.586 111.371 p0_0
gsave
fill
grestore
stroke
grestore
gsave
266.112 266.112 103.104 38.016 clipbox
185.258 111.285 p0_0
gsave
fill
grestore
stroke
grestore
gsave
266.112 266.112 103.104 38.016 clipbox
254.679 115.517 p0_0
gsave
fill
grestore
stroke
grestore
gsave
266.112 266.112 103.104 38.016 clipbox
227.348 111.158 p0_0
gsave
fill
grestore
stroke
grestore
gsave
266.112 266.112 103.104 38.016 clipbox
267.236 149.559 p0_0
gsave
fill
grestore
stroke
grestore
gsave
266.112 266.112 103.104 38.016 clipbox
199.996 111.072 p0_0
gsave
fill
grestore
stroke
grestore
gsave
266.112 266.112 103.104 38.016 clipbox
304.886 225.925 p0_0
gsave
fill
grestore
stroke
grestore
gsave
266.112 266.112 103.104 38.016 clipbox
242.142 110.945 p0_0
gsave
fill
grestore
stroke
grestore
gsave
266.112 266.112 103.104 38.016 clipbox
292.388 216.598 p0_0
gsave
fill
grestore
stroke
grestore
gsave
266.112 266.112 103.104 38.016 clipbox
214.767 110.858 p0_0
gsave
fill
grestore
stroke
grestore
gsave
266.112 266.112 103.104 38.016 clipbox
279.834 194.45 p0_0
gsave
fill
grestore
stroke
grestore
gsave
266.112 266.112 103.104 38.016 clipbox
187.367 110.772 p0_0
gsave
fill
grestore
stroke
grestore
gsave
266.112 266.112 103.104 38.016 clipbox
256.975 116.52 p0_0
gsave
fill
grestore
stroke
grestore
gsave
266.112 266.112 103.104 38.016 clipbox
229.57 110.644 p0_0
gsave
fill
grestore
stroke
grestore
gsave
266.112 266.112 103.104 38.016 clipbox
202.147 110.557 p0_0
gsave
fill
grestore
stroke
grestore
gsave
266.112 266.112 103.104 38.016 clipbox
269.571 152.748 p0_0
gsave
fill
grestore
stroke
grestore
gsave
266.112 266.112 103.104 38.016 clipbox
244.406 110.777 p0_0
gsave
fill
grestore
stroke
grestore
gsave
266.112 266.112 103.104 38.016 clipbox
216.959 110.343 p0_0
gsave
fill
grestore
stroke
grestore
gsave
266.112 266.112 103.104 38.016 clipbox
294.8 220.101 p0_0
gsave
fill
grestore
stroke
grestore
gsave
266.112 266.112 103.104 38.016 clipbox
282.203 195.439 p0_0
gsave
fill
grestore
stroke
grestore
gsave
266.112 266.112 103.104 38.016 clipbox
189.488 110.256 p0_0
gsave
fill
grestore
stroke
grestore
gsave
266.112 266.112 103.104 38.016 clipbox
231.804 110.127 p0_0
gsave
fill
grestore
stroke
grestore
gsave
266.112 266.112 103.104 38.016 clipbox
259.286 118.691 p0_0
gsave
fill
grestore
stroke
grestore
gsave
266.112 266.112 103.104 38.016 clipbox
204.309 110.04 p0_0
gsave
fill
grestore
stroke
grestore
gsave
266.112 266.112 103.104 38.016 clipbox
271.924 157.353 p0_0
gsave
fill
grestore
stroke
grestore
gsave
266.112 266.112 103.104 38.016 clipbox
246.682 109.911 p0_0
gsave
fill
grestore
stroke
grestore
gsave
266.112 266.112 103.104 38.016 clipbox
219.163 109.824 p0_0
gsave
fill
grestore
stroke
grestore
gsave
266.112 266.112 103.104 38.016 clipbox
191.62 109.737 p0_0
gsave
fill
grestore
stroke
grestore
gsave
266.112 266.112 103.104 38.016 clipbox
284.601 202.284 p0_0
gsave
fill
grestore
stroke
grestore
gsave
266.112 266.112 103.104 38.016 clipbox
234.051 109.608 p0_0
gsave
fill
grestore
stroke
grestore
gsave
266.112 266.112 103.104 38.016 clipbox
261.609 120.874 p0_0
gsave
fill
grestore
stroke
grestore
gsave
266.112 266.112 103.104 38.016 clipbox
206.483 109.52 p0_0
gsave
fill
grestore
stroke
grestore
gsave
266.112 266.112 103.104 38.016 clipbox
248.971 109.507 p0_0
gsave
fill
grestore
stroke
grestore
gsave
266.112 266.112 103.104 38.016 clipbox
274.296 164.794 p0_0
gsave
fill
grestore
stroke
grestore
gsave
266.112 266.112 103.104 38.016 clipbox
221.379 109.303 p0_0
gsave
fill
grestore
stroke
grestore
gsave
266.112 266.112 103.104 38.016 clipbox
193.763 109.215 p0_0
gsave
fill
grestore
stroke
grestore
gsave
266.112 266.112 103.104 38.016 clipbox
236.309 109.085 p0_0
gsave
fill
grestore
stroke
grestore
gsave
266.112 266.112 103.104 38.016 clipbox
208.668 108.997 p0_0
gsave
fill
grestore
stroke
grestore
gsave
266.112 266.112 103.104 38.016 clipbox
263.947 124.004 p0_0
gsave
fill
grestore
stroke
grestore
gsave
266.112 266.112 103.104 38.016 clipbox
251.272 109.218 p0_0
gsave
fill
grestore
stroke
grestore
gsave
266.112 266.112 103.104 38.016 clipbox
223.607 108.779 p0_0
gsave
fill
grestore
stroke
grestore
gsave
266.112 266.112 103.104 38.016 clipbox
195.917 108.691 p0_0
gsave
fill
grestore
stroke
grestore
gsave
266.112 266.112 103.104 38.016 clipbox
238.579 108.56 p0_0
gsave
fill
grestore
stroke
grestore
gsave
266.112 266.112 103.104 38.016 clipbox
210.865 108.472 p0_0
gsave
fill
grestore
stroke
grestore
gsave
266.112 266.112 103.104 38.016 clipbox
253.585 108.927 p0_0
gsave
fill
grestore
stroke
grestore
gsave
266.112 266.112 103.104 38.016 clipbox
225.846 108.252 p0_0
gsave
fill
grestore
stroke
grestore
gsave
266.112 266.112 103.104 38.016 clipbox
198.084 108.164 p0_0
gsave
fill
grestore
stroke
grestore
gsave
266.112 266.112 103.104 38.016 clipbox
240.861 108.032 p0_0
gsave
fill
grestore
stroke
grestore
gsave
266.112 266.112 103.104 38.016 clipbox
213.074 107.943 p0_0
gsave
fill
grestore
stroke
grestore
gsave
266.112 266.112 103.104 38.016 clipbox
228.098 107.723 p0_0
gsave
fill
grestore
stroke
grestore
gsave
266.112 266.112 103.104 38.016 clipbox
200.262 107.633 p0_0
gsave
fill
grestore
stroke
grestore
gsave
266.112 266.112 103.104 38.016 clipbox
243.156 107.502 p0_0
gsave
fill
grestore
stroke
grestore
gsave
266.112 266.112 103.104 38.016 clipbox
215.295 107.412 p0_0
gsave
fill
grestore
stroke
grestore
gsave
266.112 266.112 103.104 38.016 clipbox
230.362 107.19 p0_0
gsave
fill
grestore
stroke
grestore
gsave
266.112 266.112 103.104 38.016 clipbox
202.451 107.101 p0_0
gsave
fill
grestore
stroke
grestore
gsave
266.112 266.112 103.104 38.016 clipbox
217.528 106.878 p0_0
gsave
fill
grestore
stroke
grestore
gsave
266.112 266.112 103.104 38.016 clipbox
232.638 106.655 p0_0
gsave
fill
grestore
stroke
grestore
gsave
266.112 266.112 103.104 38.016 clipbox
204.653 106.565 p0_0
gsave
fill
grestore
stroke
grestore
gsave
266.112 266.112 103.104 38.016 clipbox
219.773 106.341 p0_0
gsave
fill
grestore
stroke
grestore
gsave
266.112 266.112 103.104 38.016 clipbox
206.866 106.026 p0_0
gsave
fill
grestore
stroke
grestore
gsave
266.112 266.112 103.104 38.016 clipbox
222.03 105.801 p0_0
gsave
fill
grestore
stroke
grestore
gsave
266.112 266.112 103.104 38.016 clipbox
209.092 105.484 p0_0
gsave
fill
grestore
stroke
grestore
gsave
266.112 266.112 103.104 38.016 clipbox
211.33 104.94 p0_0
gsave
fill
grestore
stroke
grestore

end
showpage
