%!PS-Adobe-3.0 EPSF-3.0
%%Title: n=2000_alg=exh_p=2.eps
%%Creator: Matplotlib v3.4.1, https://matplotlib.org/
%%CreationDate: Wed Jul 28 11:52:26 2021
%%Orientation: portrait
%%BoundingBox: 75 223 537 569
%%HiResBoundingBox: 75.600000 223.200000 536.400000 568.800000
%%EndComments
%%BeginProlog
/mpldict 11 dict def
mpldict begin
/d { bind def } bind def
/m { moveto } d
/l { lineto } d
/r { rlineto } d
/c { curveto } d
/cl { closepath } d
/ce { closepath eofill } d
/box {
      m
      1 index 0 r
      0 exch r
      neg 0 r
      cl
    } d
/clipbox {
      box
      clip
      newpath
    } d
/sc { setcachedevice } d
%!PS-Adobe-3.0 Resource-Font
%%Creator: Converted from TrueType to Type 3 by Matplotlib.
10 dict begin
/FontName /DejaVuSans def
/PaintType 0 def
/FontMatrix [0.00048828125 0 0 0.00048828125 0 0] def
/FontBBox [-2090 -948 3673 2524] def
/FontType 3 def
/Encoding [/period /zero /one /two /three /four /five /six /seven /eight] def
/CharStrings 11 dict dup begin
/.notdef 0 def
/period{651 0 219 0 430 254 sc
219 254 m
430 254 l
430 0 l
219 0 l
219 254 l

ce} d
/zero{1303 0 135 -29 1167 1520 sc
651 1360 m
547 1360 469 1309 416 1206 c
364 1104 338 950 338 745 c
338 540 364 387 416 284 c
469 182 547 131 651 131 c
756 131 834 182 886 284 c
939 387 965 540 965 745 c
965 950 939 1104 886 1206 c
834 1309 756 1360 651 1360 c

651 1520 m
818 1520 946 1454 1034 1321 c
1123 1189 1167 997 1167 745 c
1167 494 1123 302 1034 169 c
946 37 818 -29 651 -29 c
484 -29 356 37 267 169 c
179 302 135 494 135 745 c
135 997 179 1189 267 1321 c
356 1454 484 1520 651 1520 c

ce} d
/one{1303 0 225 0 1114 1493 sc
254 170 m
584 170 l
584 1309 l
225 1237 l
225 1421 l
582 1493 l
784 1493 l
784 170 l
1114 170 l
1114 0 l
254 0 l
254 170 l

ce} d
/two{1303 0 150 0 1098 1520 sc
393 170 m
1098 170 l
1098 0 l
150 0 l
150 170 l
227 249 331 356 463 489 c
596 623 679 709 713 748 c
778 821 823 882 848 932 c
874 983 887 1032 887 1081 c
887 1160 859 1225 803 1275 c
748 1325 675 1350 586 1350 c
523 1350 456 1339 385 1317 c
315 1295 240 1262 160 1217 c
160 1421 l
241 1454 317 1478 388 1495 c
459 1512 523 1520 582 1520 c
737 1520 860 1481 952 1404 c
1044 1327 1090 1223 1090 1094 c
1090 1033 1078 974 1055 919 c
1032 864 991 800 930 725 c
913 706 860 650 771 557 c
682 465 556 336 393 170 c

ce} d
/three{1303 0 156 -29 1139 1520 sc
831 805 m
928 784 1003 741 1057 676 c
1112 611 1139 530 1139 434 c
1139 287 1088 173 987 92 c
886 11 742 -29 555 -29 c
492 -29 428 -23 361 -10 c
295 2 227 20 156 45 c
156 240 l
212 207 273 183 340 166 c
407 149 476 141 549 141 c
676 141 772 166 838 216 c
905 266 938 339 938 434 c
938 522 907 591 845 640 c
784 690 698 715 588 715 c
414 715 l
414 881 l
596 881 l
695 881 771 901 824 940 c
877 980 903 1037 903 1112 c
903 1189 876 1247 821 1288 c
767 1329 689 1350 588 1350 c
533 1350 473 1344 410 1332 c
347 1320 277 1301 201 1276 c
201 1456 l
278 1477 349 1493 416 1504 c
483 1515 547 1520 606 1520 c
759 1520 881 1485 970 1415 c
1059 1346 1104 1252 1104 1133 c
1104 1050 1080 980 1033 923 c
986 866 918 827 831 805 c

ce} d
/four{1303 0 100 0 1188 1493 sc
774 1317 m
264 520 l
774 520 l
774 1317 l

721 1493 m
975 1493 l
975 520 l
1188 520 l
1188 352 l
975 352 l
975 0 l
774 0 l
774 352 l
100 352 l
100 547 l
721 1493 l

ce} d
/five{1303 0 158 -29 1124 1493 sc
221 1493 m
1014 1493 l
1014 1323 l
406 1323 l
406 957 l
435 967 465 974 494 979 c
523 984 553 987 582 987 c
749 987 881 941 978 850 c
1075 759 1124 635 1124 479 c
1124 318 1074 193 974 104 c
874 15 733 -29 551 -29 c
488 -29 424 -24 359 -13 c
294 -2 227 14 158 35 c
158 238 l
218 205 280 181 344 165 c
408 149 476 141 547 141 c
662 141 754 171 821 232 c
888 293 922 375 922 479 c
922 583 888 665 821 726 c
754 787 662 817 547 817 c
493 817 439 811 385 799 c
332 787 277 768 221 743 c
221 1493 l

ce} d
/six{1303 0 143 -29 1174 1520 sc
676 827 m
585 827 513 796 460 734 c
407 672 381 587 381 479 c
381 372 407 287 460 224 c
513 162 585 131 676 131 c
767 131 838 162 891 224 c
944 287 971 372 971 479 c
971 587 944 672 891 734 c
838 796 767 827 676 827 c

1077 1460 m
1077 1276 l
1026 1300 975 1318 923 1331 c
872 1344 821 1350 770 1350 c
637 1350 535 1305 464 1215 c
394 1125 354 989 344 807 c
383 865 433 909 492 940 c
551 971 617 987 688 987 c
838 987 956 941 1043 850 c
1130 759 1174 636 1174 479 c
1174 326 1129 203 1038 110 c
947 17 827 -29 676 -29 c
503 -29 371 37 280 169 c
189 302 143 494 143 745 c
143 981 199 1169 311 1309 c
423 1450 573 1520 762 1520 c
813 1520 864 1515 915 1505 c
967 1495 1021 1480 1077 1460 c

ce} d
/seven{1303 0 168 0 1128 1493 sc
168 1493 m
1128 1493 l
1128 1407 l
586 0 l
375 0 l
885 1323 l
168 1323 l
168 1493 l

ce} d
/eight{1303 0 139 -29 1163 1520 sc
651 709 m
555 709 479 683 424 632 c
369 581 342 510 342 420 c
342 330 369 259 424 208 c
479 157 555 131 651 131 c
747 131 823 157 878 208 c
933 260 961 331 961 420 c
961 510 933 581 878 632 c
823 683 748 709 651 709 c

449 795 m
362 816 295 857 246 916 c
198 975 174 1048 174 1133 c
174 1252 216 1347 301 1416 c
386 1485 503 1520 651 1520 c
800 1520 916 1485 1001 1416 c
1086 1347 1128 1252 1128 1133 c
1128 1048 1104 975 1055 916 c
1007 857 940 816 854 795 c
951 772 1027 728 1081 662 c
1136 596 1163 515 1163 420 c
1163 275 1119 164 1030 87 c
942 10 816 -29 651 -29 c
486 -29 360 10 271 87 c
183 164 139 275 139 420 c
139 515 166 596 221 662 c
276 728 352 772 449 795 c

375 1114 m
375 1037 399 976 447 933 c
496 890 564 868 651 868 c
738 868 805 890 854 933 c
903 976 928 1037 928 1114 c
928 1191 903 1252 854 1295 c
805 1338 738 1360 651 1360 c
564 1360 496 1338 447 1295 c
399 1252 375 1191 375 1114 c

ce} d
end readonly def

/BuildGlyph {
 exch begin
 CharStrings exch
 2 copy known not {pop /.notdef} if
 true 3 1 roll get exec
 end
} d

/BuildChar {
 1 index /Encoding get exch get
 1 index /BuildGlyph get exec
} d

FontName currentdict end definefont pop
end
%%EndProlog
mpldict begin
75.6 223.2 translate
460.8 345.6 0 0 clipbox
gsave
0 0 m
460.8 0 l
460.8 345.6 l
0 345.6 l
cl
1.000 setgray
fill
grestore
gsave
103.104 38.016 m
369.216 38.016 l
369.216 304.128 l
103.104 304.128 l
cl
1.000 setgray
fill
grestore
1.000 setlinewidth
0 setlinejoin
0 setlinecap
[] 0 setdash
0.950 setgray
gsave
351.310558 104.085844 m
291.23241 122.543459 l
291.545726 241.783846 l
352.069679 237.273013 l
gsave
fill
grestore
stroke
grestore
0.900 setgray
gsave
136.440876 117.078983 m
291.23241 122.543459 l
291.545726 241.783846 l
135.790076 240.44906 l
gsave
fill
grestore
stroke
grestore
0.925 setgray
gsave
180.006935 97.237342 m
351.310558 104.085844 l
291.23241 122.543459 l
136.440876 117.078983 l
gsave
fill
grestore
stroke
grestore
0.800 setlinewidth
1 setlinejoin
2 setlinecap
0.000 setgray
gsave
351.310558 104.085844 m
180.006935 97.237342 l
stroke
grestore
0 setlinecap
0.690 setgray
gsave
203.162371 98.163067 m
157.290692 117.815027 l
156.77359 240.628884 l
stroke
grestore
gsave
226.694142 99.103837 m
178.502887 118.563863 l
178.120581 240.811822 l
stroke
grestore
gsave
249.983681 100.034923 m
199.520109 119.305816 l
199.270142 240.993068 l
stroke
grestore
gsave
273.03471 100.956474 m
220.345033 120.040981 l
220.224996 241.172646 l
stroke
grestore
gsave
295.850873 101.868636 m
240.980287 120.76945 l
240.987822 241.350578 l
stroke
grestore
gsave
318.435741 102.77155 m
261.428449 121.491315 l
261.561247 241.526887 l
stroke
grestore
gsave
340.792815 103.665358 m
281.692053 122.206664 l
281.94785 241.701594 l
stroke
grestore
2 setlinecap
0.000 setgray
gsave
202.751331 98.339161 m
203.986845 97.809852 l
stroke
grestore
/DejaVuSans 10.000 selectfont
gsave

197.952798 77.272908 translate
0.000000 rotate
0.000000 0 m /one glyphshow
6.362305 0 m /zero glyphshow
12.724609 0 m /zero glyphshow
grestore
gsave
226.262557 99.278115 m
227.559815 98.754271 l
stroke
grestore
gsave

221.685848 78.292073 translate
0.000000 rotate
0.000000 0 m /two glyphshow
6.362305 0 m /zero glyphshow
12.724609 0 m /zero glyphshow
grestore
gsave
249.531994 100.207413 m
250.889661 99.68895 l
stroke
grestore
gsave

245.172281 79.300648 translate
0.000000 rotate
0.000000 0 m /three glyphshow
6.362305 0 m /zero glyphshow
12.724609 0 m /zero glyphshow
grestore
gsave
272.563353 101.127202 m
273.980127 100.614039 l
stroke
grestore
gsave

268.415923 80.298797 translate
0.000000 rotate
0.000000 0 m /four glyphshow
6.362305 0 m /zero glyphshow
12.724609 0 m /zero glyphshow
grestore
gsave
295.36027 102.037629 m
296.834878 101.529683 l
stroke
grestore
gsave

291.420518 81.286680 translate
0.000000 rotate
0.000000 0 m /five glyphshow
6.362305 0 m /zero glyphshow
12.724609 0 m /zero glyphshow
grestore
gsave
317.926306 102.938836 m
319.457505 102.436029 l
stroke
grestore
gsave

314.189736 82.264456 translate
0.000000 rotate
0.000000 0 m /six glyphshow
6.362305 0 m /zero glyphshow
12.724609 0 m /zero glyphshow
grestore
gsave
340.26495 103.830961 m
341.851526 103.333215 l
stroke
grestore
gsave

336.727169 83.232278 translate
0.000000 rotate
0.000000 0 m /seven glyphshow
6.362305 0 m /zero glyphshow
12.724609 0 m /zero glyphshow
grestore
gsave
136.440876 117.078983 m
180.006935 97.237342 l
stroke
grestore
0 setlinecap
0.690 setgray
gsave
349.462792 237.467303 m
348.72464 104.880307 l
178.124411 98.094714 l
stroke
grestore
gsave
341.22363 238.081366 m
340.550704 107.391559 l
172.178214 100.802839 l
stroke
grestore
gsave
333.218955 238.677952 m
332.607878 109.831808 l
166.406463 103.431514 l
stroke
grestore
gsave
325.438897 239.257797 m
324.886497 112.204023 l
160.801592 105.984186 l
stroke
grestore
gsave
317.874133 239.821597 m
317.377428 114.51101 l
155.356467 108.464103 l
stroke
grestore
gsave
310.515849 240.370008 m
310.072032 116.755423 l
150.064354 110.874333 l
stroke
grestore
gsave
303.355704 240.903651 m
302.962134 118.939774 l
144.918894 113.217771 l
stroke
grestore
gsave
296.385801 241.423116 m
296.03999 121.066442 l
139.914073 115.497157 l
stroke
grestore
2 setlinecap
0.000 setgray
gsave
179.541656 98.151085 m
175.287285 97.981868 l
stroke
grestore
gsave

157.058413 78.538086 translate
0.000000 rotate
0.000000 0 m /four glyphshow
6.362305 0 m /five glyphshow
grestore
gsave
173.576182 100.857544 m
169.379716 100.693329 l
stroke
grestore
gsave

151.316249 81.431815 translate
0.000000 rotate
0.000000 0 m /five glyphshow
6.362305 0 m /zero glyphshow
grestore
gsave
167.785666 103.484626 m
163.645565 103.325194 l
stroke
grestore
gsave

145.742977 84.240431 translate
0.000000 rotate
0.000000 0 m /five glyphshow
6.362305 0 m /five glyphshow
grestore
gsave
162.162524 106.035774 m
158.077305 105.880918 l
stroke
grestore
gsave

140.331254 86.967636 translate
0.000000 rotate
0.000000 0 m /six glyphshow
6.362305 0 m /zero glyphshow
grestore
gsave
156.699602 108.514231 m
152.66784 108.363759 l
stroke
grestore
gsave

135.074156 89.616918 translate
0.000000 rotate
0.000000 0 m /six glyphshow
6.362305 0 m /five glyphshow
grestore
gsave
151.390148 110.923062 m
147.410473 110.776789 l
stroke
grestore
gsave

129.965150 92.191571 translate
0.000000 rotate
0.000000 0 m /seven glyphshow
6.362305 0 m /zero glyphshow
grestore
gsave
146.227785 113.26516 m
142.298879 113.122913 l
stroke
grestore
gsave

124.998064 94.694703 translate
0.000000 rotate
0.000000 0 m /seven glyphshow
6.362305 0 m /five glyphshow
grestore
gsave
141.206483 115.54326 m
137.327076 115.404874 l
stroke
grestore
gsave

120.167067 97.129255 translate
0.000000 rotate
0.000000 0 m /eight glyphshow
6.362305 0 m /zero glyphshow
grestore
gsave
136.440876 117.078983 m
135.790076 240.44906 l
stroke
grestore
0 setlinecap
0.690 setgray
gsave
136.399704 124.883771 m
291.252235 130.088482 l
351.35856 112.507728 l
stroke
grestore
gsave
136.285579 146.518077 m
291.307187 151.001685 l
351.491634 135.855376 l
stroke
grestore
gsave
136.171202 168.200212 m
291.362256 171.959568 l
351.625025 159.258771 l
stroke
grestore
gsave
136.056572 189.930335 m
291.417443 192.962275 l
351.758735 182.71811 l
stroke
grestore
gsave
135.941687 211.708606 m
291.472747 214.009951 l
351.892765 206.233596 l
stroke
grestore
gsave
135.826548 233.535186 m
291.528171 235.102738 l
352.027116 229.80543 l
stroke
grestore
2 setlinecap
0.000 setgray
gsave
137.681177 124.926842 m
133.834622 124.797557 l
stroke
grestore
gsave

112.029374 118.235226 translate
0.000000 rotate
0.000000 0 m /zero glyphshow
6.362305 0 m /period glyphshow
9.541016 0 m /zero glyphshow
grestore
gsave
137.568498 146.555182 m
133.7176 146.443804 l
stroke
grestore
gsave

111.897928 139.738600 translate
0.000000 rotate
0.000000 0 m /zero glyphshow
6.362305 0 m /period glyphshow
9.541016 0 m /two glyphshow
grestore
gsave
137.455571 168.231324 m
133.600319 168.137935 l
stroke
grestore
gsave

111.766194 161.289223 translate
0.000000 rotate
0.000000 0 m /zero glyphshow
6.362305 0 m /period glyphshow
9.541016 0 m /four glyphshow
grestore
gsave
137.342393 189.955429 m
133.482778 189.880106 l
stroke
grestore
gsave

111.634169 182.887253 translate
0.000000 rotate
0.000000 0 m /zero glyphshow
6.362305 0 m /period glyphshow
9.541016 0 m /six glyphshow
grestore
gsave
137.228965 211.727654 m
133.364976 211.67048 l
stroke
grestore
gsave

111.501854 204.532844 translate
0.000000 rotate
0.000000 0 m /zero glyphshow
6.362305 0 m /period glyphshow
9.541016 0 m /eight glyphshow
grestore
gsave
137.115285 233.54816 m
133.246913 233.509215 l
stroke
grestore
gsave

111.369247 226.226155 translate
0.000000 rotate
0.000000 0 m /one glyphshow
6.362305 0 m /period glyphshow
9.541016 0 m /zero glyphshow
grestore
/p0_0 {
newpath
translate
0 -2.236068 m
0.593012 -2.236068 1.161816 -2.000462 1.581139 -1.581139 c
2.000462 -1.161816 2.236068 -0.593012 2.236068 0 c
2.236068 0.593012 2.000462 1.161816 1.581139 1.581139 c
1.161816 2.000462 0.593012 2.236068 0 2.236068 c
-0.593012 2.236068 -1.161816 2.000462 -1.581139 1.581139 c
-2.000462 1.161816 -2.236068 0.593012 -2.236068 0 c
-2.236068 -0.593012 -2.000462 -1.161816 -1.581139 -1.581139 c
-1.161816 -2.000462 -0.593012 -2.236068 0 -2.236068 c
cl

} bind def
1.000 setlinewidth
0 setlinecap
0.122 0.467 0.706 setrgbcolor
gsave
266.112 266.112 103.104 38.016 clipbox
285.258 197.808 p0_0
gsave
fill
grestore
stroke
grestore
gsave
266.112 266.112 103.104 38.016 clipbox
275.035 190.178 p0_0
gsave
fill
grestore
stroke
grestore
gsave
266.112 266.112 103.104 38.016 clipbox
286.613 201.528 p0_0
gsave
fill
grestore
stroke
grestore
gsave
266.112 266.112 103.104 38.016 clipbox
264.774 182.199 p0_0
gsave
fill
grestore
stroke
grestore
gsave
266.112 266.112 103.104 38.016 clipbox
276.353 188.021 p0_0
gsave
fill
grestore
stroke
grestore
gsave
266.112 266.112 103.104 38.016 clipbox
254.469 169.181 p0_0
gsave
fill
grestore
stroke
grestore
gsave
266.112 266.112 103.104 38.016 clipbox
287.966 201.319 p0_0
gsave
fill
grestore
stroke
grestore
gsave
266.112 266.112 103.104 38.016 clipbox
266.07 181.725 p0_0
gsave
fill
grestore
stroke
grestore
gsave
266.112 266.112 103.104 38.016 clipbox
244.13 152.602 p0_0
gsave
fill
grestore
stroke
grestore
gsave
266.112 266.112 103.104 38.016 clipbox
277.69 192.584 p0_0
gsave
fill
grestore
stroke
grestore
gsave
266.112 266.112 103.104 38.016 clipbox
255.74 169.206 p0_0
gsave
fill
grestore
stroke
grestore
gsave
266.112 266.112 103.104 38.016 clipbox
289.33 202.5 p0_0
gsave
fill
grestore
stroke
grestore
gsave
266.112 266.112 103.104 38.016 clipbox
233.761 134.16 p0_0
gsave
fill
grestore
stroke
grestore
gsave
266.112 266.112 103.104 38.016 clipbox
267.372 180.927 p0_0
gsave
fill
grestore
stroke
grestore
gsave
266.112 266.112 103.104 38.016 clipbox
245.375 152.261 p0_0
gsave
fill
grestore
stroke
grestore
gsave
266.112 266.112 103.104 38.016 clipbox
279.026 192.564 p0_0
gsave
fill
grestore
stroke
grestore
gsave
266.112 266.112 103.104 38.016 clipbox
223.354 127.305 p0_0
gsave
fill
grestore
stroke
grestore
gsave
266.112 266.112 103.104 38.016 clipbox
234.98 133.983 p0_0
gsave
fill
grestore
stroke
grestore
gsave
266.112 266.112 103.104 38.016 clipbox
257.022 173.302 p0_0
gsave
fill
grestore
stroke
grestore
gsave
266.112 266.112 103.104 38.016 clipbox
290.703 204.331 p0_0
gsave
fill
grestore
stroke
grestore
gsave
266.112 266.112 103.104 38.016 clipbox
268.685 182.378 p0_0
gsave
fill
grestore
stroke
grestore
gsave
266.112 266.112 103.104 38.016 clipbox
246.628 155.134 p0_0
gsave
fill
grestore
stroke
grestore
gsave
266.112 266.112 103.104 38.016 clipbox
212.898 126.417 p0_0
gsave
fill
grestore
stroke
grestore
gsave
266.112 266.112 103.104 38.016 clipbox
280.373 194.264 p0_0
gsave
fill
grestore
stroke
grestore
gsave
266.112 266.112 103.104 38.016 clipbox
224.548 126.574 p0_0
gsave
fill
grestore
stroke
grestore
gsave
266.112 266.112 103.104 38.016 clipbox
258.304 170.007 p0_0
gsave
fill
grestore
stroke
grestore
gsave
266.112 266.112 103.104 38.016 clipbox
236.206 134.342 p0_0
gsave
fill
grestore
stroke
grestore
gsave
266.112 266.112 103.104 38.016 clipbox
292.083 205.742 p0_0
gsave
fill
grestore
stroke
grestore
gsave
266.112 266.112 103.104 38.016 clipbox
270.005 184.052 p0_0
gsave
fill
grestore
stroke
grestore
gsave
266.112 266.112 103.104 38.016 clipbox
202.392 125.955 p0_0
gsave
fill
grestore
stroke
grestore
gsave
266.112 266.112 103.104 38.016 clipbox
247.887 154.046 p0_0
gsave
fill
grestore
stroke
grestore
gsave
266.112 266.112 103.104 38.016 clipbox
214.066 125.897 p0_0
gsave
fill
grestore
stroke
grestore
gsave
266.112 266.112 103.104 38.016 clipbox
281.725 195.003 p0_0
gsave
fill
grestore
stroke
grestore
gsave
266.112 266.112 103.104 38.016 clipbox
225.748 126.591 p0_0
gsave
fill
grestore
stroke
grestore
gsave
266.112 266.112 103.104 38.016 clipbox
259.599 172.511 p0_0
gsave
fill
grestore
stroke
grestore
gsave
266.112 266.112 103.104 38.016 clipbox
293.464 204.895 p0_0
gsave
fill
grestore
stroke
grestore
gsave
266.112 266.112 103.104 38.016 clipbox
237.438 136.208 p0_0
gsave
fill
grestore
stroke
grestore
gsave
266.112 266.112 103.104 38.016 clipbox
191.838 125.597 p0_0
gsave
fill
grestore
stroke
grestore
gsave
266.112 266.112 103.104 38.016 clipbox
271.329 183.362 p0_0
gsave
fill
grestore
stroke
grestore
gsave
266.112 266.112 103.104 38.016 clipbox
203.535 125.539 p0_0
gsave
fill
grestore
stroke
grestore
gsave
266.112 266.112 103.104 38.016 clipbox
249.153 156.401 p0_0
gsave
fill
grestore
stroke
grestore
gsave
266.112 266.112 103.104 38.016 clipbox
215.24 125.481 p0_0
gsave
fill
grestore
stroke
grestore
gsave
266.112 266.112 103.104 38.016 clipbox
283.084 195.314 p0_0
gsave
fill
grestore
stroke
grestore
gsave
266.112 266.112 103.104 38.016 clipbox
226.954 126.931 p0_0
gsave
fill
grestore
stroke
grestore
gsave
266.112 266.112 103.104 38.016 clipbox
238.677 136.79 p0_0
gsave
fill
grestore
stroke
grestore
gsave
266.112 266.112 103.104 38.016 clipbox
260.901 175.462 p0_0
gsave
fill
grestore
stroke
grestore
gsave
266.112 266.112 103.104 38.016 clipbox
294.861 206.964 p0_0
gsave
fill
grestore
stroke
grestore
gsave
266.112 266.112 103.104 38.016 clipbox
181.235 125.238 p0_0
gsave
fill
grestore
stroke
grestore
gsave
266.112 266.112 103.104 38.016 clipbox
192.955 125.18 p0_0
gsave
fill
grestore
stroke
grestore
gsave
266.112 266.112 103.104 38.016 clipbox
272.664 185.157 p0_0
gsave
fill
grestore
stroke
grestore
gsave
266.112 266.112 103.104 38.016 clipbox
204.684 125.122 p0_0
gsave
fill
grestore
stroke
grestore
gsave
266.112 266.112 103.104 38.016 clipbox
216.421 125.063 p0_0
gsave
fill
grestore
stroke
grestore
gsave
266.112 266.112 103.104 38.016 clipbox
250.428 159.959 p0_0
gsave
fill
grestore
stroke
grestore
gsave
266.112 266.112 103.104 38.016 clipbox
228.167 126.192 p0_0
gsave
fill
grestore
stroke
grestore
gsave
266.112 266.112 103.104 38.016 clipbox
284.454 197.577 p0_0
gsave
fill
grestore
stroke
grestore
gsave
266.112 266.112 103.104 38.016 clipbox
170.583 124.877 p0_0
gsave
fill
grestore
stroke
grestore
gsave
266.112 266.112 103.104 38.016 clipbox
296.266 209.263 p0_0
gsave
fill
grestore
stroke
grestore
gsave
266.112 266.112 103.104 38.016 clipbox
262.211 178.864 p0_0
gsave
fill
grestore
stroke
grestore
gsave
266.112 266.112 103.104 38.016 clipbox
239.923 140.404 p0_0
gsave
fill
grestore
stroke
grestore
gsave
266.112 266.112 103.104 38.016 clipbox
182.326 124.819 p0_0
gsave
fill
grestore
stroke
grestore
gsave
266.112 266.112 103.104 38.016 clipbox
194.078 124.76 p0_0
gsave
fill
grestore
stroke
grestore
gsave
266.112 266.112 103.104 38.016 clipbox
274.006 186.093 p0_0
gsave
fill
grestore
stroke
grestore
gsave
266.112 266.112 103.104 38.016 clipbox
205.839 124.702 p0_0
gsave
fill
grestore
stroke
grestore
gsave
266.112 266.112 103.104 38.016 clipbox
217.608 124.751 p0_0
gsave
fill
grestore
stroke
grestore
gsave
266.112 266.112 103.104 38.016 clipbox
251.708 159.742 p0_0
gsave
fill
grestore
stroke
grestore
gsave
266.112 266.112 103.104 38.016 clipbox
229.386 127.291 p0_0
gsave
fill
grestore
stroke
grestore
gsave
266.112 266.112 103.104 38.016 clipbox
285.826 197.136 p0_0
gsave
fill
grestore
stroke
grestore
gsave
266.112 266.112 103.104 38.016 clipbox
159.88 124.515 p0_0
gsave
fill
grestore
stroke
grestore
gsave
266.112 266.112 103.104 38.016 clipbox
171.647 124.456 p0_0
gsave
fill
grestore
stroke
grestore
gsave
266.112 266.112 103.104 38.016 clipbox
263.524 177.937 p0_0
gsave
fill
grestore
stroke
grestore
gsave
266.112 266.112 103.104 38.016 clipbox
183.422 124.397 p0_0
gsave
fill
grestore
stroke
grestore
gsave
266.112 266.112 103.104 38.016 clipbox
297.678 210.921 p0_0
gsave
fill
grestore
stroke
grestore
gsave
266.112 266.112 103.104 38.016 clipbox
241.176 143.496 p0_0
gsave
fill
grestore
stroke
grestore
gsave
266.112 266.112 103.104 38.016 clipbox
195.207 124.338 p0_0
gsave
fill
grestore
stroke
grestore
gsave
266.112 266.112 103.104 38.016 clipbox
207 124.279 p0_0
gsave
fill
grestore
stroke
grestore
gsave
266.112 266.112 103.104 38.016 clipbox
275.355 187.688 p0_0
gsave
fill
grestore
stroke
grestore
gsave
266.112 266.112 103.104 38.016 clipbox
218.802 124.22 p0_0
gsave
fill
grestore
stroke
grestore
gsave
266.112 266.112 103.104 38.016 clipbox
252.995 160.502 p0_0
gsave
fill
grestore
stroke
grestore
gsave
266.112 266.112 103.104 38.016 clipbox
149.128 124.151 p0_0
gsave
fill
grestore
stroke
grestore
gsave
266.112 266.112 103.104 38.016 clipbox
230.612 126.55 p0_0
gsave
fill
grestore
stroke
grestore
gsave
266.112 266.112 103.104 38.016 clipbox
287.208 197.782 p0_0
gsave
fill
grestore
stroke
grestore
gsave
266.112 266.112 103.104 38.016 clipbox
160.918 124.092 p0_0
gsave
fill
grestore
stroke
grestore
gsave
266.112 266.112 103.104 38.016 clipbox
172.717 124.033 p0_0
gsave
fill
grestore
stroke
grestore
gsave
266.112 266.112 103.104 38.016 clipbox
264.845 178.095 p0_0
gsave
fill
grestore
stroke
grestore
gsave
266.112 266.112 103.104 38.016 clipbox
184.525 123.973 p0_0
gsave
fill
grestore
stroke
grestore
gsave
266.112 266.112 103.104 38.016 clipbox
242.436 143.124 p0_0
gsave
fill
grestore
stroke
grestore
gsave
266.112 266.112 103.104 38.016 clipbox
299.099 213.463 p0_0
gsave
fill
grestore
stroke
grestore
gsave
266.112 266.112 103.104 38.016 clipbox
196.342 123.914 p0_0
gsave
fill
grestore
stroke
grestore
gsave
266.112 266.112 103.104 38.016 clipbox
208.167 123.855 p0_0
gsave
fill
grestore
stroke
grestore
gsave
266.112 266.112 103.104 38.016 clipbox
276.709 187.545 p0_0
gsave
fill
grestore
stroke
grestore
gsave
266.112 266.112 103.104 38.016 clipbox
220.002 123.904 p0_0
gsave
fill
grestore
stroke
grestore
gsave
266.112 266.112 103.104 38.016 clipbox
254.291 162.357 p0_0
gsave
fill
grestore
stroke
grestore
gsave
266.112 266.112 103.104 38.016 clipbox
150.139 123.726 p0_0
gsave
fill
grestore
stroke
grestore
gsave
266.112 266.112 103.104 38.016 clipbox
231.845 127.22 p0_0
gsave
fill
grestore
stroke
grestore
gsave
266.112 266.112 103.104 38.016 clipbox
288.598 198.214 p0_0
gsave
fill
grestore
stroke
grestore
gsave
266.112 266.112 103.104 38.016 clipbox
161.961 123.666 p0_0
gsave
fill
grestore
stroke
grestore
gsave
266.112 266.112 103.104 38.016 clipbox
173.793 123.607 p0_0
gsave
fill
grestore
stroke
grestore
gsave
266.112 266.112 103.104 38.016 clipbox
266.169 175.085 p0_0
gsave
fill
grestore
stroke
grestore
gsave
266.112 266.112 103.104 38.016 clipbox
185.633 123.547 p0_0
gsave
fill
grestore
stroke
grestore
gsave
266.112 266.112 103.104 38.016 clipbox
243.703 142.641 p0_0
gsave
fill
grestore
stroke
grestore
gsave
266.112 266.112 103.104 38.016 clipbox
300.523 213.828 p0_0
gsave
fill
grestore
stroke
grestore
gsave
266.112 266.112 103.104 38.016 clipbox
197.483 123.488 p0_0
gsave
fill
grestore
stroke
grestore
gsave
266.112 266.112 103.104 38.016 clipbox
209.341 123.428 p0_0
gsave
fill
grestore
stroke
grestore
gsave
266.112 266.112 103.104 38.016 clipbox
278.076 190.028 p0_0
gsave
fill
grestore
stroke
grestore
gsave
266.112 266.112 103.104 38.016 clipbox
221.209 123.368 p0_0
gsave
fill
grestore
stroke
grestore
gsave
266.112 266.112 103.104 38.016 clipbox
151.155 123.298 p0_0
gsave
fill
grestore
stroke
grestore
gsave
266.112 266.112 103.104 38.016 clipbox
255.595 165.754 p0_0
gsave
fill
grestore
stroke
grestore
gsave
266.112 266.112 103.104 38.016 clipbox
233.084 127.348 p0_0
gsave
fill
grestore
stroke
grestore
gsave
266.112 266.112 103.104 38.016 clipbox
290.003 202.045 p0_0
gsave
fill
grestore
stroke
grestore
gsave
266.112 266.112 103.104 38.016 clipbox
163.01 123.238 p0_0
gsave
fill
grestore
stroke
grestore
gsave
266.112 266.112 103.104 38.016 clipbox
174.874 123.179 p0_0
gsave
fill
grestore
stroke
grestore
gsave
266.112 266.112 103.104 38.016 clipbox
186.748 123.119 p0_0
gsave
fill
grestore
stroke
grestore
gsave
266.112 266.112 103.104 38.016 clipbox
267.512 180.386 p0_0
gsave
fill
grestore
stroke
grestore
gsave
266.112 266.112 103.104 38.016 clipbox
301.95 212.988 p0_0
gsave
fill
grestore
stroke
grestore
gsave
266.112 266.112 103.104 38.016 clipbox
198.63 123.059 p0_0
gsave
fill
grestore
stroke
grestore
gsave
266.112 266.112 103.104 38.016 clipbox
244.978 148.174 p0_0
gsave
fill
grestore
stroke
grestore
gsave
266.112 266.112 103.104 38.016 clipbox
210.522 122.999 p0_0
gsave
fill
grestore
stroke
grestore
gsave
266.112 266.112 103.104 38.016 clipbox
279.449 191.538 p0_0
gsave
fill
grestore
stroke
grestore
gsave
266.112 266.112 103.104 38.016 clipbox
222.422 123.158 p0_0
gsave
fill
grestore
stroke
grestore
gsave
266.112 266.112 103.104 38.016 clipbox
152.177 122.868 p0_0
gsave
fill
grestore
stroke
grestore
gsave
266.112 266.112 103.104 38.016 clipbox
234.331 127.695 p0_0
gsave
fill
grestore
stroke
grestore
gsave
266.112 266.112 103.104 38.016 clipbox
256.904 167.086 p0_0
gsave
fill
grestore
stroke
grestore
gsave
266.112 266.112 103.104 38.016 clipbox
164.065 122.808 p0_0
gsave
fill
grestore
stroke
grestore
gsave
266.112 266.112 103.104 38.016 clipbox
291.416 205.57 p0_0
gsave
fill
grestore
stroke
grestore
gsave
266.112 266.112 103.104 38.016 clipbox
175.962 122.748 p0_0
gsave
fill
grestore
stroke
grestore
gsave
266.112 266.112 103.104 38.016 clipbox
187.868 122.688 p0_0
gsave
fill
grestore
stroke
grestore
gsave
266.112 266.112 103.104 38.016 clipbox
268.86 183.739 p0_0
gsave
fill
grestore
stroke
grestore
gsave
266.112 266.112 103.104 38.016 clipbox
199.784 122.628 p0_0
gsave
fill
grestore
stroke
grestore
gsave
266.112 266.112 103.104 38.016 clipbox
303.404 217.87 p0_0
gsave
fill
grestore
stroke
grestore
gsave
266.112 266.112 103.104 38.016 clipbox
246.26 149.678 p0_0
gsave
fill
grestore
stroke
grestore
gsave
266.112 266.112 103.104 38.016 clipbox
211.709 122.567 p0_0
gsave
fill
grestore
stroke
grestore
gsave
266.112 266.112 103.104 38.016 clipbox
280.831 193.716 p0_0
gsave
fill
grestore
stroke
grestore
gsave
266.112 266.112 103.104 38.016 clipbox
223.642 123.056 p0_0
gsave
fill
grestore
stroke
grestore
gsave
266.112 266.112 103.104 38.016 clipbox
153.204 122.436 p0_0
gsave
fill
grestore
stroke
grestore
gsave
266.112 266.112 103.104 38.016 clipbox
235.584 128.813 p0_0
gsave
fill
grestore
stroke
grestore
gsave
266.112 266.112 103.104 38.016 clipbox
165.125 122.376 p0_0
gsave
fill
grestore
stroke
grestore
gsave
266.112 266.112 103.104 38.016 clipbox
258.224 170.956 p0_0
gsave
fill
grestore
stroke
grestore
gsave
266.112 266.112 103.104 38.016 clipbox
292.828 205.806 p0_0
gsave
fill
grestore
stroke
grestore
gsave
266.112 266.112 103.104 38.016 clipbox
177.056 122.315 p0_0
gsave
fill
grestore
stroke
grestore
gsave
266.112 266.112 103.104 38.016 clipbox
188.995 122.255 p0_0
gsave
fill
grestore
stroke
grestore
gsave
266.112 266.112 103.104 38.016 clipbox
270.208 181.931 p0_0
gsave
fill
grestore
stroke
grestore
gsave
266.112 266.112 103.104 38.016 clipbox
200.944 122.194 p0_0
gsave
fill
grestore
stroke
grestore
gsave
266.112 266.112 103.104 38.016 clipbox
304.851 218.03 p0_0
gsave
fill
grestore
stroke
grestore
gsave
266.112 266.112 103.104 38.016 clipbox
247.548 148.768 p0_0
gsave
fill
grestore
stroke
grestore
gsave
266.112 266.112 103.104 38.016 clipbox
212.902 122.133 p0_0
gsave
fill
grestore
stroke
grestore
gsave
266.112 266.112 103.104 38.016 clipbox
224.869 122.403 p0_0
gsave
fill
grestore
stroke
grestore
gsave
266.112 266.112 103.104 38.016 clipbox
282.215 193.699 p0_0
gsave
fill
grestore
stroke
grestore
gsave
266.112 266.112 103.104 38.016 clipbox
154.237 122.001 p0_0
gsave
fill
grestore
stroke
grestore
gsave
266.112 266.112 103.104 38.016 clipbox
166.191 121.941 p0_0
gsave
fill
grestore
stroke
grestore
gsave
266.112 266.112 103.104 38.016 clipbox
259.547 170.214 p0_0
gsave
fill
grestore
stroke
grestore
gsave
266.112 266.112 103.104 38.016 clipbox
236.844 132.031 p0_0
gsave
fill
grestore
stroke
grestore
gsave
266.112 266.112 103.104 38.016 clipbox
294.254 207.923 p0_0
gsave
fill
grestore
stroke
grestore
gsave
266.112 266.112 103.104 38.016 clipbox
178.155 121.88 p0_0
gsave
fill
grestore
stroke
grestore
gsave
266.112 266.112 103.104 38.016 clipbox
190.128 121.819 p0_0
gsave
fill
grestore
stroke
grestore
gsave
266.112 266.112 103.104 38.016 clipbox
271.57 184.534 p0_0
gsave
fill
grestore
stroke
grestore
gsave
266.112 266.112 103.104 38.016 clipbox
202.11 121.758 p0_0
gsave
fill
grestore
stroke
grestore
gsave
266.112 266.112 103.104 38.016 clipbox
306.309 219.299 p0_0
gsave
fill
grestore
stroke
grestore
gsave
266.112 266.112 103.104 38.016 clipbox
248.845 153.153 p0_0
gsave
fill
grestore
stroke
grestore
gsave
266.112 266.112 103.104 38.016 clipbox
214.102 121.697 p0_0
gsave
fill
grestore
stroke
grestore
gsave
266.112 266.112 103.104 38.016 clipbox
226.102 121.967 p0_0
gsave
fill
grestore
stroke
grestore
gsave
266.112 266.112 103.104 38.016 clipbox
283.619 198.776 p0_0
gsave
fill
grestore
stroke
grestore
gsave
266.112 266.112 103.104 38.016 clipbox
155.276 121.564 p0_0
gsave
fill
grestore
stroke
grestore
gsave
266.112 266.112 103.104 38.016 clipbox
167.264 121.503 p0_0
gsave
fill
grestore
stroke
grestore
gsave
266.112 266.112 103.104 38.016 clipbox
238.112 132.394 p0_0
gsave
fill
grestore
stroke
grestore
gsave
266.112 266.112 103.104 38.016 clipbox
260.88 172.234 p0_0
gsave
fill
grestore
stroke
grestore
gsave
266.112 266.112 103.104 38.016 clipbox
179.261 121.442 p0_0
gsave
fill
grestore
stroke
grestore
gsave
266.112 266.112 103.104 38.016 clipbox
295.69 211.052 p0_0
gsave
fill
grestore
stroke
grestore
gsave
266.112 266.112 103.104 38.016 clipbox
191.268 121.381 p0_0
gsave
fill
grestore
stroke
grestore
gsave
266.112 266.112 103.104 38.016 clipbox
203.283 121.32 p0_0
gsave
fill
grestore
stroke
grestore
gsave
266.112 266.112 103.104 38.016 clipbox
307.767 218.02 p0_0
gsave
fill
grestore
stroke
grestore
gsave
266.112 266.112 103.104 38.016 clipbox
272.94 187.375 p0_0
gsave
fill
grestore
stroke
grestore
gsave
266.112 266.112 103.104 38.016 clipbox
215.309 121.258 p0_0
gsave
fill
grestore
stroke
grestore
gsave
266.112 266.112 103.104 38.016 clipbox
250.15 156.235 p0_0
gsave
fill
grestore
stroke
grestore
gsave
266.112 266.112 103.104 38.016 clipbox
227.342 122.193 p0_0
gsave
fill
grestore
stroke
grestore
gsave
266.112 266.112 103.104 38.016 clipbox
285.02 198.662 p0_0
gsave
fill
grestore
stroke
grestore
gsave
266.112 266.112 103.104 38.016 clipbox
156.32 121.125 p0_0
gsave
fill
grestore
stroke
grestore
gsave
266.112 266.112 103.104 38.016 clipbox
168.342 121.063 p0_0
gsave
fill
grestore
stroke
grestore
gsave
266.112 266.112 103.104 38.016 clipbox
239.387 132.538 p0_0
gsave
fill
grestore
stroke
grestore
gsave
266.112 266.112 103.104 38.016 clipbox
262.22 173.933 p0_0
gsave
fill
grestore
stroke
grestore
gsave
266.112 266.112 103.104 38.016 clipbox
297.119 208.524 p0_0
gsave
fill
grestore
stroke
grestore
gsave
266.112 266.112 103.104 38.016 clipbox
180.373 121.002 p0_0
gsave
fill
grestore
stroke
grestore
gsave
266.112 266.112 103.104 38.016 clipbox
192.413 120.94 p0_0
gsave
fill
grestore
stroke
grestore
gsave
266.112 266.112 103.104 38.016 clipbox
274.309 184.671 p0_0
gsave
fill
grestore
stroke
grestore
gsave
266.112 266.112 103.104 38.016 clipbox
204.463 120.879 p0_0
gsave
fill
grestore
stroke
grestore
gsave
266.112 266.112 103.104 38.016 clipbox
309.243 219.63 p0_0
gsave
fill
grestore
stroke
grestore
gsave
266.112 266.112 103.104 38.016 clipbox
216.522 120.817 p0_0
gsave
fill
grestore
stroke
grestore
gsave
266.112 266.112 103.104 38.016 clipbox
251.46 155.002 p0_0
gsave
fill
grestore
stroke
grestore
gsave
266.112 266.112 103.104 38.016 clipbox
228.59 121.643 p0_0
gsave
fill
grestore
stroke
grestore
gsave
266.112 266.112 103.104 38.016 clipbox
286.425 197.322 p0_0
gsave
fill
grestore
stroke
grestore
gsave
266.112 266.112 103.104 38.016 clipbox
157.37 120.683 p0_0
gsave
fill
grestore
stroke
grestore
gsave
266.112 266.112 103.104 38.016 clipbox
169.426 120.621 p0_0
gsave
fill
grestore
stroke
grestore
gsave
266.112 266.112 103.104 38.016 clipbox
240.669 135.572 p0_0
gsave
fill
grestore
stroke
grestore
gsave
266.112 266.112 103.104 38.016 clipbox
263.569 175.865 p0_0
gsave
fill
grestore
stroke
grestore
gsave
266.112 266.112 103.104 38.016 clipbox
181.491 120.559 p0_0
gsave
fill
grestore
stroke
grestore
gsave
266.112 266.112 103.104 38.016 clipbox
298.571 211.337 p0_0
gsave
fill
grestore
stroke
grestore
gsave
266.112 266.112 103.104 38.016 clipbox
193.565 120.497 p0_0
gsave
fill
grestore
stroke
grestore
gsave
266.112 266.112 103.104 38.016 clipbox
205.649 120.436 p0_0
gsave
fill
grestore
stroke
grestore
gsave
266.112 266.112 103.104 38.016 clipbox
275.697 188.531 p0_0
gsave
fill
grestore
stroke
grestore
gsave
266.112 266.112 103.104 38.016 clipbox
310.725 220.579 p0_0
gsave
fill
grestore
stroke
grestore
gsave
266.112 266.112 103.104 38.016 clipbox
217.742 120.374 p0_0
gsave
fill
grestore
stroke
grestore
gsave
266.112 266.112 103.104 38.016 clipbox
229.844 121.646 p0_0
gsave
fill
grestore
stroke
grestore
gsave
266.112 266.112 103.104 38.016 clipbox
252.782 161.896 p0_0
gsave
fill
grestore
stroke
grestore
gsave
266.112 266.112 103.104 38.016 clipbox
287.846 199.101 p0_0
gsave
fill
grestore
stroke
grestore
gsave
266.112 266.112 103.104 38.016 clipbox
158.427 120.239 p0_0
gsave
fill
grestore
stroke
grestore
gsave
266.112 266.112 103.104 38.016 clipbox
170.516 120.176 p0_0
gsave
fill
grestore
stroke
grestore
gsave
266.112 266.112 103.104 38.016 clipbox
241.958 136.729 p0_0
gsave
fill
grestore
stroke
grestore
gsave
266.112 266.112 103.104 38.016 clipbox
182.615 120.114 p0_0
gsave
fill
grestore
stroke
grestore
gsave
266.112 266.112 103.104 38.016 clipbox
264.925 177.919 p0_0
gsave
fill
grestore
stroke
grestore
gsave
266.112 266.112 103.104 38.016 clipbox
300.029 213.607 p0_0
gsave
fill
grestore
stroke
grestore
gsave
266.112 266.112 103.104 38.016 clipbox
194.724 120.052 p0_0
gsave
fill
grestore
stroke
grestore
gsave
266.112 266.112 103.104 38.016 clipbox
206.842 119.99 p0_0
gsave
fill
grestore
stroke
grestore
gsave
266.112 266.112 103.104 38.016 clipbox
277.089 189.842 p0_0
gsave
fill
grestore
stroke
grestore
gsave
266.112 266.112 103.104 38.016 clipbox
312.222 223.102 p0_0
gsave
fill
grestore
stroke
grestore
gsave
266.112 266.112 103.104 38.016 clipbox
218.969 119.927 p0_0
gsave
fill
grestore
stroke
grestore
gsave
266.112 266.112 103.104 38.016 clipbox
254.107 160.672 p0_0
gsave
fill
grestore
stroke
grestore
gsave
266.112 266.112 103.104 38.016 clipbox
231.105 121.203 p0_0
gsave
fill
grestore
stroke
grestore
gsave
266.112 266.112 103.104 38.016 clipbox
159.489 119.792 p0_0
gsave
fill
grestore
stroke
grestore
gsave
266.112 266.112 103.104 38.016 clipbox
289.279 202.572 p0_0
gsave
fill
grestore
stroke
grestore
gsave
266.112 266.112 103.104 38.016 clipbox
171.613 119.729 p0_0
gsave
fill
grestore
stroke
grestore
gsave
266.112 266.112 103.104 38.016 clipbox
183.746 119.667 p0_0
gsave
fill
grestore
stroke
grestore
gsave
266.112 266.112 103.104 38.016 clipbox
266.287 178.082 p0_0
gsave
fill
grestore
stroke
grestore
gsave
266.112 266.112 103.104 38.016 clipbox
243.256 141.582 p0_0
gsave
fill
grestore
stroke
grestore
gsave
266.112 266.112 103.104 38.016 clipbox
195.889 119.604 p0_0
gsave
fill
grestore
stroke
grestore
gsave
266.112 266.112 103.104 38.016 clipbox
301.502 217.462 p0_0
gsave
fill
grestore
stroke
grestore
gsave
266.112 266.112 103.104 38.016 clipbox
208.041 119.542 p0_0
gsave
fill
grestore
stroke
grestore
gsave
266.112 266.112 103.104 38.016 clipbox
278.484 188.804 p0_0
gsave
fill
grestore
stroke
grestore
gsave
266.112 266.112 103.104 38.016 clipbox
313.716 222.717 p0_0
gsave
fill
grestore
stroke
grestore
gsave
266.112 266.112 103.104 38.016 clipbox
220.203 119.479 p0_0
gsave
fill
grestore
stroke
grestore
gsave
266.112 266.112 103.104 38.016 clipbox
255.44 160.001 p0_0
gsave
fill
grestore
stroke
grestore
gsave
266.112 266.112 103.104 38.016 clipbox
232.373 121.094 p0_0
gsave
fill
grestore
stroke
grestore
gsave
266.112 266.112 103.104 38.016 clipbox
160.557 119.342 p0_0
gsave
fill
grestore
stroke
grestore
gsave
266.112 266.112 103.104 38.016 clipbox
290.716 204.041 p0_0
gsave
fill
grestore
stroke
grestore
gsave
266.112 266.112 103.104 38.016 clipbox
172.715 119.28 p0_0
gsave
fill
grestore
stroke
grestore
gsave
266.112 266.112 103.104 38.016 clipbox
184.883 119.217 p0_0
gsave
fill
grestore
stroke
grestore
gsave
266.112 266.112 103.104 38.016 clipbox
267.657 178.806 p0_0
gsave
fill
grestore
stroke
grestore
gsave
266.112 266.112 103.104 38.016 clipbox
244.56 141.081 p0_0
gsave
fill
grestore
stroke
grestore
gsave
266.112 266.112 103.104 38.016 clipbox
302.962 214.81 p0_0
gsave
fill
grestore
stroke
grestore
gsave
266.112 266.112 103.104 38.016 clipbox
197.06 119.154 p0_0
gsave
fill
grestore
stroke
grestore
gsave
266.112 266.112 103.104 38.016 clipbox
209.247 119.091 p0_0
gsave
fill
grestore
stroke
grestore
gsave
266.112 266.112 103.104 38.016 clipbox
221.444 119.028 p0_0
gsave
fill
grestore
stroke
grestore
gsave
266.112 266.112 103.104 38.016 clipbox
315.231 225.487 p0_0
gsave
fill
grestore
stroke
grestore
gsave
266.112 266.112 103.104 38.016 clipbox
279.9 194.398 p0_0
gsave
fill
grestore
stroke
grestore
gsave
266.112 266.112 103.104 38.016 clipbox
233.649 121.432 p0_0
gsave
fill
grestore
stroke
grestore
gsave
266.112 266.112 103.104 38.016 clipbox
256.783 162.698 p0_0
gsave
fill
grestore
stroke
grestore
gsave
266.112 266.112 103.104 38.016 clipbox
161.631 118.89 p0_0
gsave
fill
grestore
stroke
grestore
gsave
266.112 266.112 103.104 38.016 clipbox
292.157 204.278 p0_0
gsave
fill
grestore
stroke
grestore
gsave
266.112 266.112 103.104 38.016 clipbox
173.824 118.827 p0_0
gsave
fill
grestore
stroke
grestore
gsave
266.112 266.112 103.104 38.016 clipbox
186.026 118.764 p0_0
gsave
fill
grestore
stroke
grestore
gsave
266.112 266.112 103.104 38.016 clipbox
269.035 179.535 p0_0
gsave
fill
grestore
stroke
grestore
gsave
266.112 266.112 103.104 38.016 clipbox
245.872 142.039 p0_0
gsave
fill
grestore
stroke
grestore
gsave
266.112 266.112 103.104 38.016 clipbox
198.238 118.701 p0_0
gsave
fill
grestore
stroke
grestore
gsave
266.112 266.112 103.104 38.016 clipbox
304.453 219.255 p0_0
gsave
fill
grestore
stroke
grestore
gsave
266.112 266.112 103.104 38.016 clipbox
210.46 118.637 p0_0
gsave
fill
grestore
stroke
grestore
gsave
266.112 266.112 103.104 38.016 clipbox
281.305 190.433 p0_0
gsave
fill
grestore
stroke
grestore
gsave
266.112 266.112 103.104 38.016 clipbox
222.691 118.574 p0_0
gsave
fill
grestore
stroke
grestore
gsave
266.112 266.112 103.104 38.016 clipbox
316.74 224.655 p0_0
gsave
fill
grestore
stroke
grestore
gsave
266.112 266.112 103.104 38.016 clipbox
234.931 124.81 p0_0
gsave
fill
grestore
stroke
grestore
gsave
266.112 266.112 103.104 38.016 clipbox
162.711 118.436 p0_0
gsave
fill
grestore
stroke
grestore
gsave
266.112 266.112 103.104 38.016 clipbox
258.136 168.231 p0_0
gsave
fill
grestore
stroke
grestore
gsave
266.112 266.112 103.104 38.016 clipbox
174.939 118.372 p0_0
gsave
fill
grestore
stroke
grestore
gsave
266.112 266.112 103.104 38.016 clipbox
293.617 208.247 p0_0
gsave
fill
grestore
stroke
grestore
gsave
266.112 266.112 103.104 38.016 clipbox
187.176 118.309 p0_0
gsave
fill
grestore
stroke
grestore
gsave
266.112 266.112 103.104 38.016 clipbox
270.42 179.816 p0_0
gsave
fill
grestore
stroke
grestore
gsave
266.112 266.112 103.104 38.016 clipbox
199.423 118.245 p0_0
gsave
fill
grestore
stroke
grestore
gsave
266.112 266.112 103.104 38.016 clipbox
247.192 143.454 p0_0
gsave
fill
grestore
stroke
grestore
gsave
266.112 266.112 103.104 38.016 clipbox
305.935 218.064 p0_0
gsave
fill
grestore
stroke
grestore
gsave
266.112 266.112 103.104 38.016 clipbox
211.68 118.182 p0_0
gsave
fill
grestore
stroke
grestore
gsave
266.112 266.112 103.104 38.016 clipbox
223.946 118.456 p0_0
gsave
fill
grestore
stroke
grestore
gsave
266.112 266.112 103.104 38.016 clipbox
318.269 226.425 p0_0
gsave
fill
grestore
stroke
grestore
gsave
266.112 266.112 103.104 38.016 clipbox
282.739 196.518 p0_0
gsave
fill
grestore
stroke
grestore
gsave
266.112 266.112 103.104 38.016 clipbox
236.221 125.387 p0_0
gsave
fill
grestore
stroke
grestore
gsave
266.112 266.112 103.104 38.016 clipbox
259.491 166.558 p0_0
gsave
fill
grestore
stroke
grestore
gsave
266.112 266.112 103.104 38.016 clipbox
163.797 117.979 p0_0
gsave
fill
grestore
stroke
grestore
gsave
266.112 266.112 103.104 38.016 clipbox
176.06 117.915 p0_0
gsave
fill
grestore
stroke
grestore
gsave
266.112 266.112 103.104 38.016 clipbox
295.081 210.425 p0_0
gsave
fill
grestore
stroke
grestore
gsave
266.112 266.112 103.104 38.016 clipbox
188.332 117.851 p0_0
gsave
fill
grestore
stroke
grestore
gsave
266.112 266.112 103.104 38.016 clipbox
200.614 117.787 p0_0
gsave
fill
grestore
stroke
grestore
gsave
266.112 266.112 103.104 38.016 clipbox
271.82 184.179 p0_0
gsave
fill
grestore
stroke
grestore
gsave
266.112 266.112 103.104 38.016 clipbox
307.436 220.046 p0_0
gsave
fill
grestore
stroke
grestore
gsave
266.112 266.112 103.104 38.016 clipbox
248.521 147.366 p0_0
gsave
fill
grestore
stroke
grestore
gsave
266.112 266.112 103.104 38.016 clipbox
212.906 117.723 p0_0
gsave
fill
grestore
stroke
grestore
gsave
266.112 266.112 103.104 38.016 clipbox
225.208 117.659 p0_0
gsave
fill
grestore
stroke
grestore
gsave
266.112 266.112 103.104 38.016 clipbox
319.798 226.16 p0_0
gsave
fill
grestore
stroke
grestore
gsave
266.112 266.112 103.104 38.016 clipbox
284.17 197.076 p0_0
gsave
fill
grestore
stroke
grestore
gsave
266.112 266.112 103.104 38.016 clipbox
237.519 123.364 p0_0
gsave
fill
grestore
stroke
grestore
gsave
266.112 266.112 103.104 38.016 clipbox
164.889 117.519 p0_0
gsave
fill
grestore
stroke
grestore
gsave
266.112 266.112 103.104 38.016 clipbox
260.858 168.618 p0_0
gsave
fill
grestore
stroke
grestore
gsave
266.112 266.112 103.104 38.016 clipbox
177.187 117.455 p0_0
gsave
fill
grestore
stroke
grestore
gsave
266.112 266.112 103.104 38.016 clipbox
296.551 211.706 p0_0
gsave
fill
grestore
stroke
grestore
gsave
266.112 266.112 103.104 38.016 clipbox
189.495 117.391 p0_0
gsave
fill
grestore
stroke
grestore
gsave
266.112 266.112 103.104 38.016 clipbox
273.217 181.974 p0_0
gsave
fill
grestore
stroke
grestore
gsave
266.112 266.112 103.104 38.016 clipbox
201.813 117.326 p0_0
gsave
fill
grestore
stroke
grestore
gsave
266.112 266.112 103.104 38.016 clipbox
308.938 219.99 p0_0
gsave
fill
grestore
stroke
grestore
gsave
266.112 266.112 103.104 38.016 clipbox
214.14 117.262 p0_0
gsave
fill
grestore
stroke
grestore
gsave
266.112 266.112 103.104 38.016 clipbox
249.858 152.097 p0_0
gsave
fill
grestore
stroke
grestore
gsave
266.112 266.112 103.104 38.016 clipbox
226.477 117.311 p0_0
gsave
fill
grestore
stroke
grestore
gsave
266.112 266.112 103.104 38.016 clipbox
321.337 226.235 p0_0
gsave
fill
grestore
stroke
grestore
gsave
266.112 266.112 103.104 38.016 clipbox
285.614 199.687 p0_0
gsave
fill
grestore
stroke
grestore
gsave
266.112 266.112 103.104 38.016 clipbox
165.988 117.057 p0_0
gsave
fill
grestore
stroke
grestore
gsave
266.112 266.112 103.104 38.016 clipbox
238.823 127.118 p0_0
gsave
fill
grestore
stroke
grestore
gsave
266.112 266.112 103.104 38.016 clipbox
262.232 170.69 p0_0
gsave
fill
grestore
stroke
grestore
gsave
266.112 266.112 103.104 38.016 clipbox
178.321 116.993 p0_0
gsave
fill
grestore
stroke
grestore
gsave
266.112 266.112 103.104 38.016 clipbox
298.021 210.257 p0_0
gsave
fill
grestore
stroke
grestore
gsave
266.112 266.112 103.104 38.016 clipbox
190.665 116.928 p0_0
gsave
fill
grestore
stroke
grestore
gsave
266.112 266.112 103.104 38.016 clipbox
203.018 116.863 p0_0
gsave
fill
grestore
stroke
grestore
gsave
266.112 266.112 103.104 38.016 clipbox
274.633 185.571 p0_0
gsave
fill
grestore
stroke
grestore
gsave
266.112 266.112 103.104 38.016 clipbox
310.451 220.618 p0_0
gsave
fill
grestore
stroke
grestore
gsave
266.112 266.112 103.104 38.016 clipbox
215.381 116.798 p0_0
gsave
fill
grestore
stroke
grestore
gsave
266.112 266.112 103.104 38.016 clipbox
251.202 154.351 p0_0
gsave
fill
grestore
stroke
grestore
gsave
266.112 266.112 103.104 38.016 clipbox
227.753 117.416 p0_0
gsave
fill
grestore
stroke
grestore
gsave
266.112 266.112 103.104 38.016 clipbox
322.886 226.653 p0_0
gsave
fill
grestore
stroke
grestore
gsave
266.112 266.112 103.104 38.016 clipbox
287.059 199.344 p0_0
gsave
fill
grestore
stroke
grestore
gsave
266.112 266.112 103.104 38.016 clipbox
167.093 116.592 p0_0
gsave
fill
grestore
stroke
grestore
gsave
266.112 266.112 103.104 38.016 clipbox
240.136 129.756 p0_0
gsave
fill
grestore
stroke
grestore
gsave
266.112 266.112 103.104 38.016 clipbox
179.462 116.527 p0_0
gsave
fill
grestore
stroke
grestore
gsave
266.112 266.112 103.104 38.016 clipbox
263.618 175.286 p0_0
gsave
fill
grestore
stroke
grestore
gsave
266.112 266.112 103.104 38.016 clipbox
299.515 213.719 p0_0
gsave
fill
grestore
stroke
grestore
gsave
266.112 266.112 103.104 38.016 clipbox
191.841 116.462 p0_0
gsave
fill
grestore
stroke
grestore
gsave
266.112 266.112 103.104 38.016 clipbox
204.23 116.397 p0_0
gsave
fill
grestore
stroke
grestore
gsave
266.112 266.112 103.104 38.016 clipbox
276.048 184.844 p0_0
gsave
fill
grestore
stroke
grestore
gsave
266.112 266.112 103.104 38.016 clipbox
216.628 116.332 p0_0
gsave
fill
grestore
stroke
grestore
gsave
266.112 266.112 103.104 38.016 clipbox
311.981 223.313 p0_0
gsave
fill
grestore
stroke
grestore
gsave
266.112 266.112 103.104 38.016 clipbox
252.554 156.162 p0_0
gsave
fill
grestore
stroke
grestore
gsave
266.112 266.112 103.104 38.016 clipbox
229.037 116.723 p0_0
gsave
fill
grestore
stroke
grestore
gsave
266.112 266.112 103.104 38.016 clipbox
324.445 227.303 p0_0
gsave
fill
grestore
stroke
grestore
gsave
266.112 266.112 103.104 38.016 clipbox
288.519 201.404 p0_0
gsave
fill
grestore
stroke
grestore
gsave
266.112 266.112 103.104 38.016 clipbox
168.204 116.125 p0_0
gsave
fill
grestore
stroke
grestore
gsave
266.112 266.112 103.104 38.016 clipbox
241.457 131.61 p0_0
gsave
fill
grestore
stroke
grestore
gsave
266.112 266.112 103.104 38.016 clipbox
265.004 173.384 p0_0
gsave
fill
grestore
stroke
grestore
gsave
266.112 266.112 103.104 38.016 clipbox
180.609 116.059 p0_0
gsave
fill
grestore
stroke
grestore
gsave
266.112 266.112 103.104 38.016 clipbox
301.009 214.447 p0_0
gsave
fill
grestore
stroke
grestore
gsave
266.112 266.112 103.104 38.016 clipbox
193.024 115.994 p0_0
gsave
fill
grestore
stroke
grestore
gsave
266.112 266.112 103.104 38.016 clipbox
205.449 115.929 p0_0
gsave
fill
grestore
stroke
grestore
gsave
266.112 266.112 103.104 38.016 clipbox
277.478 186.979 p0_0
gsave
fill
grestore
stroke
grestore
gsave
266.112 266.112 103.104 38.016 clipbox
217.883 115.863 p0_0
gsave
fill
grestore
stroke
grestore
gsave
266.112 266.112 103.104 38.016 clipbox
313.514 224.53 p0_0
gsave
fill
grestore
stroke
grestore
gsave
266.112 266.112 103.104 38.016 clipbox
253.913 157.182 p0_0
gsave
fill
grestore
stroke
grestore
gsave
266.112 266.112 103.104 38.016 clipbox
230.327 117.055 p0_0
gsave
fill
grestore
stroke
grestore
gsave
266.112 266.112 103.104 38.016 clipbox
326.007 226.462 p0_0
gsave
fill
grestore
stroke
grestore
gsave
266.112 266.112 103.104 38.016 clipbox
289.989 204.281 p0_0
gsave
fill
grestore
stroke
grestore
gsave
266.112 266.112 103.104 38.016 clipbox
169.322 115.655 p0_0
gsave
fill
grestore
stroke
grestore
gsave
266.112 266.112 103.104 38.016 clipbox
242.785 132.674 p0_0
gsave
fill
grestore
stroke
grestore
gsave
266.112 266.112 103.104 38.016 clipbox
181.763 115.589 p0_0
gsave
fill
grestore
stroke
grestore
gsave
266.112 266.112 103.104 38.016 clipbox
266.402 175.03 p0_0
gsave
fill
grestore
stroke
grestore
gsave
266.112 266.112 103.104 38.016 clipbox
194.214 115.523 p0_0
gsave
fill
grestore
stroke
grestore
gsave
266.112 266.112 103.104 38.016 clipbox
302.517 216.791 p0_0
gsave
fill
grestore
stroke
grestore
gsave
266.112 266.112 103.104 38.016 clipbox
206.674 115.457 p0_0
gsave
fill
grestore
stroke
grestore
gsave
266.112 266.112 103.104 38.016 clipbox
219.145 115.391 p0_0
gsave
fill
grestore
stroke
grestore
gsave
266.112 266.112 103.104 38.016 clipbox
315.047 223.218 p0_0
gsave
fill
grestore
stroke
grestore
gsave
266.112 266.112 103.104 38.016 clipbox
278.922 192.234 p0_0
gsave
fill
grestore
stroke
grestore
gsave
266.112 266.112 103.104 38.016 clipbox
231.626 116.472 p0_0
gsave
fill
grestore
stroke
grestore
gsave
266.112 266.112 103.104 38.016 clipbox
255.283 160.736 p0_0
gsave
fill
grestore
stroke
grestore
gsave
266.112 266.112 103.104 38.016 clipbox
327.591 228.5 p0_0
gsave
fill
grestore
stroke
grestore
gsave
266.112 266.112 103.104 38.016 clipbox
170.446 115.182 p0_0
gsave
fill
grestore
stroke
grestore
gsave
266.112 266.112 103.104 38.016 clipbox
291.469 207.637 p0_0
gsave
fill
grestore
stroke
grestore
gsave
266.112 266.112 103.104 38.016 clipbox
182.923 115.116 p0_0
gsave
fill
grestore
stroke
grestore
gsave
266.112 266.112 103.104 38.016 clipbox
244.122 136.272 p0_0
gsave
fill
grestore
stroke
grestore
gsave
266.112 266.112 103.104 38.016 clipbox
267.811 178.528 p0_0
gsave
fill
grestore
stroke
grestore
gsave
266.112 266.112 103.104 38.016 clipbox
195.41 115.049 p0_0
gsave
fill
grestore
stroke
grestore
gsave
266.112 266.112 103.104 38.016 clipbox
304.026 216.84 p0_0
gsave
fill
grestore
stroke
grestore
gsave
266.112 266.112 103.104 38.016 clipbox
207.907 114.983 p0_0
gsave
fill
grestore
stroke
grestore
gsave
266.112 266.112 103.104 38.016 clipbox
220.415 114.917 p0_0
gsave
fill
grestore
stroke
grestore
gsave
266.112 266.112 103.104 38.016 clipbox
316.604 225.828 p0_0
gsave
fill
grestore
stroke
grestore
gsave
266.112 266.112 103.104 38.016 clipbox
280.369 194.289 p0_0
gsave
fill
grestore
stroke
grestore
gsave
266.112 266.112 103.104 38.016 clipbox
232.931 117.726 p0_0
gsave
fill
grestore
stroke
grestore
gsave
266.112 266.112 103.104 38.016 clipbox
329.176 228.93 p0_0
gsave
fill
grestore
stroke
grestore
gsave
266.112 266.112 103.104 38.016 clipbox
256.659 162.813 p0_0
gsave
fill
grestore
stroke
grestore
gsave
266.112 266.112 103.104 38.016 clipbox
292.945 205.809 p0_0
gsave
fill
grestore
stroke
grestore
gsave
266.112 266.112 103.104 38.016 clipbox
171.576 114.706 p0_0
gsave
fill
grestore
stroke
grestore
gsave
266.112 266.112 103.104 38.016 clipbox
184.09 114.64 p0_0
gsave
fill
grestore
stroke
grestore
gsave
266.112 266.112 103.104 38.016 clipbox
245.466 137.932 p0_0
gsave
fill
grestore
stroke
grestore
gsave
266.112 266.112 103.104 38.016 clipbox
269.227 180.431 p0_0
gsave
fill
grestore
stroke
grestore
gsave
266.112 266.112 103.104 38.016 clipbox
196.614 114.573 p0_0
gsave
fill
grestore
stroke
grestore
gsave
266.112 266.112 103.104 38.016 clipbox
305.559 221.406 p0_0
gsave
fill
grestore
stroke
grestore
gsave
266.112 266.112 103.104 38.016 clipbox
209.147 114.506 p0_0
gsave
fill
grestore
stroke
grestore
gsave
266.112 266.112 103.104 38.016 clipbox
221.691 114.44 p0_0
gsave
fill
grestore
stroke
grestore
gsave
266.112 266.112 103.104 38.016 clipbox
318.157 225.324 p0_0
gsave
fill
grestore
stroke
grestore
gsave
266.112 266.112 103.104 38.016 clipbox
281.821 194.852 p0_0
gsave
fill
grestore
stroke
grestore
gsave
266.112 266.112 103.104 38.016 clipbox
234.245 118.064 p0_0
gsave
fill
grestore
stroke
grestore
gsave
266.112 266.112 103.104 38.016 clipbox
330.768 228.55 p0_0
gsave
fill
grestore
stroke
grestore
gsave
266.112 266.112 103.104 38.016 clipbox
258.044 165.481 p0_0
gsave
fill
grestore
stroke
grestore
gsave
266.112 266.112 103.104 38.016 clipbox
172.713 114.228 p0_0
gsave
fill
grestore
stroke
grestore
gsave
266.112 266.112 103.104 38.016 clipbox
294.447 210.698 p0_0
gsave
fill
grestore
stroke
grestore
gsave
266.112 266.112 103.104 38.016 clipbox
185.263 114.161 p0_0
gsave
fill
grestore
stroke
grestore
gsave
266.112 266.112 103.104 38.016 clipbox
270.647 179.447 p0_0
gsave
fill
grestore
stroke
grestore
gsave
266.112 266.112 103.104 38.016 clipbox
197.824 114.094 p0_0
gsave
fill
grestore
stroke
grestore
gsave
266.112 266.112 103.104 38.016 clipbox
246.82 142.957 p0_0
gsave
fill
grestore
stroke
grestore
gsave
266.112 266.112 103.104 38.016 clipbox
307.08 219.494 p0_0
gsave
fill
grestore
stroke
grestore
gsave
266.112 266.112 103.104 38.016 clipbox
210.395 114.027 p0_0
gsave
fill
grestore
stroke
grestore
gsave
266.112 266.112 103.104 38.016 clipbox
222.976 114.075 p0_0
gsave
fill
grestore
stroke
grestore
gsave
266.112 266.112 103.104 38.016 clipbox
319.723 225.63 p0_0
gsave
fill
grestore
stroke
grestore
gsave
266.112 266.112 103.104 38.016 clipbox
283.282 195.766 p0_0
gsave
fill
grestore
stroke
grestore
gsave
266.112 266.112 103.104 38.016 clipbox
235.566 118.867 p0_0
gsave
fill
grestore
stroke
grestore
gsave
266.112 266.112 103.104 38.016 clipbox
332.37 228.633 p0_0
gsave
fill
grestore
stroke
grestore
gsave
266.112 266.112 103.104 38.016 clipbox
259.435 164.569 p0_0
gsave
fill
grestore
stroke
grestore
gsave
266.112 266.112 103.104 38.016 clipbox
173.857 113.746 p0_0
gsave
fill
grestore
stroke
grestore
gsave
266.112 266.112 103.104 38.016 clipbox
295.95 212.358 p0_0
gsave
fill
grestore
stroke
grestore
gsave
266.112 266.112 103.104 38.016 clipbox
186.444 113.679 p0_0
gsave
fill
grestore
stroke
grestore
gsave
266.112 266.112 103.104 38.016 clipbox
199.041 113.612 p0_0
gsave
fill
grestore
stroke
grestore
gsave
266.112 266.112 103.104 38.016 clipbox
272.079 180.898 p0_0
gsave
fill
grestore
stroke
grestore
gsave
266.112 266.112 103.104 38.016 clipbox
248.18 142.443 p0_0
gsave
fill
grestore
stroke
grestore
gsave
266.112 266.112 103.104 38.016 clipbox
308.618 220.017 p0_0
gsave
fill
grestore
stroke
grestore
gsave
266.112 266.112 103.104 38.016 clipbox
211.649 113.544 p0_0
gsave
fill
grestore
stroke
grestore
gsave
266.112 266.112 103.104 38.016 clipbox
224.267 113.593 p0_0
gsave
fill
grestore
stroke
grestore
gsave
266.112 266.112 103.104 38.016 clipbox
321.303 227.105 p0_0
gsave
fill
grestore
stroke
grestore
gsave
266.112 266.112 103.104 38.016 clipbox
284.757 198.666 p0_0
gsave
fill
grestore
stroke
grestore
gsave
266.112 266.112 103.104 38.016 clipbox
236.895 119.442 p0_0
gsave
fill
grestore
stroke
grestore
gsave
266.112 266.112 103.104 38.016 clipbox
333.982 228.717 p0_0
gsave
fill
grestore
stroke
grestore
gsave
266.112 266.112 103.104 38.016 clipbox
260.836 166.793 p0_0
gsave
fill
grestore
stroke
grestore
gsave
266.112 266.112 103.104 38.016 clipbox
175.007 113.262 p0_0
gsave
fill
grestore
stroke
grestore
gsave
266.112 266.112 103.104 38.016 clipbox
297.455 211.811 p0_0
gsave
fill
grestore
stroke
grestore
gsave
266.112 266.112 103.104 38.016 clipbox
187.631 113.195 p0_0
gsave
fill
grestore
stroke
grestore
gsave
266.112 266.112 103.104 38.016 clipbox
200.266 113.127 p0_0
gsave
fill
grestore
stroke
grestore
gsave
266.112 266.112 103.104 38.016 clipbox
273.52 182.941 p0_0
gsave
fill
grestore
stroke
grestore
gsave
266.112 266.112 103.104 38.016 clipbox
212.911 113.059 p0_0
gsave
fill
grestore
stroke
grestore
gsave
266.112 266.112 103.104 38.016 clipbox
249.55 146.581 p0_0
gsave
fill
grestore
stroke
grestore
gsave
266.112 266.112 103.104 38.016 clipbox
310.173 222.998 p0_0
gsave
fill
grestore
stroke
grestore
gsave
266.112 266.112 103.104 38.016 clipbox
225.566 112.991 p0_0
gsave
fill
grestore
stroke
grestore
gsave
266.112 266.112 103.104 38.016 clipbox
322.887 227.302 p0_0
gsave
fill
grestore
stroke
grestore
gsave
266.112 266.112 103.104 38.016 clipbox
286.233 198.429 p0_0
gsave
fill
grestore
stroke
grestore
gsave
266.112 266.112 103.104 38.016 clipbox
335.602 228.568 p0_0
gsave
fill
grestore
stroke
grestore
gsave
266.112 266.112 103.104 38.016 clipbox
238.231 120.603 p0_0
gsave
fill
grestore
stroke
grestore
gsave
266.112 266.112 103.104 38.016 clipbox
262.247 169.497 p0_0
gsave
fill
grestore
stroke
grestore
gsave
266.112 266.112 103.104 38.016 clipbox
176.164 112.776 p0_0
gsave
fill
grestore
stroke
grestore
gsave
266.112 266.112 103.104 38.016 clipbox
188.826 112.708 p0_0
gsave
fill
grestore
stroke
grestore
gsave
266.112 266.112 103.104 38.016 clipbox
298.984 216.295 p0_0
gsave
fill
grestore
stroke
grestore
gsave
266.112 266.112 103.104 38.016 clipbox
201.498 112.64 p0_0
gsave
fill
grestore
stroke
grestore
gsave
266.112 266.112 103.104 38.016 clipbox
274.969 184.529 p0_0
gsave
fill
grestore
stroke
grestore
gsave
266.112 266.112 103.104 38.016 clipbox
214.18 112.571 p0_0
gsave
fill
grestore
stroke
grestore
gsave
266.112 266.112 103.104 38.016 clipbox
311.729 223.3 p0_0
gsave
fill
grestore
stroke
grestore
gsave
266.112 266.112 103.104 38.016 clipbox
250.93 151.096 p0_0
gsave
fill
grestore
stroke
grestore
gsave
266.112 266.112 103.104 38.016 clipbox
226.873 112.62 p0_0
gsave
fill
grestore
stroke
grestore
gsave
266.112 266.112 103.104 38.016 clipbox
324.477 226.678 p0_0
gsave
fill
grestore
stroke
grestore
gsave
266.112 266.112 103.104 38.016 clipbox
337.235 229.004 p0_0
gsave
fill
grestore
stroke
grestore
gsave
266.112 266.112 103.104 38.016 clipbox
287.734 204.637 p0_0
gsave
fill
grestore
stroke
grestore
gsave
266.112 266.112 103.104 38.016 clipbox
239.576 121.888 p0_0
gsave
fill
grestore
stroke
grestore
gsave
266.112 266.112 103.104 38.016 clipbox
263.665 171.047 p0_0
gsave
fill
grestore
stroke
grestore
gsave
266.112 266.112 103.104 38.016 clipbox
177.328 112.286 p0_0
gsave
fill
grestore
stroke
grestore
gsave
266.112 266.112 103.104 38.016 clipbox
190.027 112.218 p0_0
gsave
fill
grestore
stroke
grestore
gsave
266.112 266.112 103.104 38.016 clipbox
300.508 215.991 p0_0
gsave
fill
grestore
stroke
grestore
gsave
266.112 266.112 103.104 38.016 clipbox
202.737 112.149 p0_0
gsave
fill
grestore
stroke
grestore
gsave
266.112 266.112 103.104 38.016 clipbox
276.428 186.713 p0_0
gsave
fill
grestore
stroke
grestore
gsave
266.112 266.112 103.104 38.016 clipbox
215.457 112.08 p0_0
gsave
fill
grestore
stroke
grestore
gsave
266.112 266.112 103.104 38.016 clipbox
313.29 222.898 p0_0
gsave
fill
grestore
stroke
grestore
gsave
266.112 266.112 103.104 38.016 clipbox
252.314 150.366 p0_0
gsave
fill
grestore
stroke
grestore
gsave
266.112 266.112 103.104 38.016 clipbox
228.187 112.597 p0_0
gsave
fill
grestore
stroke
grestore
gsave
266.112 266.112 103.104 38.016 clipbox
326.083 227.698 p0_0
gsave
fill
grestore
stroke
grestore
gsave
266.112 266.112 103.104 38.016 clipbox
289.222 202.181 p0_0
gsave
fill
grestore
stroke
grestore
gsave
266.112 266.112 103.104 38.016 clipbox
240.929 123.298 p0_0
gsave
fill
grestore
stroke
grestore
gsave
266.112 266.112 103.104 38.016 clipbox
178.498 111.794 p0_0
gsave
fill
grestore
stroke
grestore
gsave
266.112 266.112 103.104 38.016 clipbox
265.091 172.489 p0_0
gsave
fill
grestore
stroke
grestore
gsave
266.112 266.112 103.104 38.016 clipbox
191.235 111.725 p0_0
gsave
fill
grestore
stroke
grestore
gsave
266.112 266.112 103.104 38.016 clipbox
302.046 217.452 p0_0
gsave
fill
grestore
stroke
grestore
gsave
266.112 266.112 103.104 38.016 clipbox
203.983 111.656 p0_0
gsave
fill
grestore
stroke
grestore
gsave
266.112 266.112 103.104 38.016 clipbox
277.893 186.909 p0_0
gsave
fill
grestore
stroke
grestore
gsave
266.112 266.112 103.104 38.016 clipbox
216.741 111.587 p0_0
gsave
fill
grestore
stroke
grestore
gsave
266.112 266.112 103.104 38.016 clipbox
314.869 224.381 p0_0
gsave
fill
grestore
stroke
grestore
gsave
266.112 266.112 103.104 38.016 clipbox
229.509 112.104 p0_0
gsave
fill
grestore
stroke
grestore
gsave
266.112 266.112 103.104 38.016 clipbox
253.712 156.685 p0_0
gsave
fill
grestore
stroke
grestore
gsave
266.112 266.112 103.104 38.016 clipbox
290.743 209.03 p0_0
gsave
fill
grestore
stroke
grestore
gsave
266.112 266.112 103.104 38.016 clipbox
242.291 126.831 p0_0
gsave
fill
grestore
stroke
grestore
gsave
266.112 266.112 103.104 38.016 clipbox
179.676 111.298 p0_0
gsave
fill
grestore
stroke
grestore
gsave
266.112 266.112 103.104 38.016 clipbox
266.528 175.236 p0_0
gsave
fill
grestore
stroke
grestore
gsave
266.112 266.112 103.104 38.016 clipbox
192.451 111.229 p0_0
gsave
fill
grestore
stroke
grestore
gsave
266.112 266.112 103.104 38.016 clipbox
303.591 218.094 p0_0
gsave
fill
grestore
stroke
grestore
gsave
266.112 266.112 103.104 38.016 clipbox
205.237 111.159 p0_0
gsave
fill
grestore
stroke
grestore
gsave
266.112 266.112 103.104 38.016 clipbox
218.033 111.09 p0_0
gsave
fill
grestore
stroke
grestore
gsave
266.112 266.112 103.104 38.016 clipbox
279.375 191.593 p0_0
gsave
fill
grestore
stroke
grestore
gsave
266.112 266.112 103.104 38.016 clipbox
230.839 111.256 p0_0
gsave
fill
grestore
stroke
grestore
gsave
266.112 266.112 103.104 38.016 clipbox
255.117 161.864 p0_0
gsave
fill
grestore
stroke
grestore
gsave
266.112 266.112 103.104 38.016 clipbox
292.258 209.53 p0_0
gsave
fill
grestore
stroke
grestore
gsave
266.112 266.112 103.104 38.016 clipbox
180.86 110.8 p0_0
gsave
fill
grestore
stroke
grestore
gsave
266.112 266.112 103.104 38.016 clipbox
243.661 130.504 p0_0
gsave
fill
grestore
stroke
grestore
gsave
266.112 266.112 103.104 38.016 clipbox
267.969 175.044 p0_0
gsave
fill
grestore
stroke
grestore
gsave
266.112 266.112 103.104 38.016 clipbox
193.674 110.73 p0_0
gsave
fill
grestore
stroke
grestore
gsave
266.112 266.112 103.104 38.016 clipbox
206.498 110.66 p0_0
gsave
fill
grestore
stroke
grestore
gsave
266.112 266.112 103.104 38.016 clipbox
219.332 110.591 p0_0
gsave
fill
grestore
stroke
grestore
gsave
266.112 266.112 103.104 38.016 clipbox
280.863 194.648 p0_0
gsave
fill
grestore
stroke
grestore
gsave
266.112 266.112 103.104 38.016 clipbox
232.177 111.464 p0_0
gsave
fill
grestore
stroke
grestore
gsave
266.112 266.112 103.104 38.016 clipbox
256.526 159.858 p0_0
gsave
fill
grestore
stroke
grestore
gsave
266.112 266.112 103.104 38.016 clipbox
182.052 110.298 p0_0
gsave
fill
grestore
stroke
grestore
gsave
266.112 266.112 103.104 38.016 clipbox
245.039 132.545 p0_0
gsave
fill
grestore
stroke
grestore
gsave
266.112 266.112 103.104 38.016 clipbox
194.903 110.228 p0_0
gsave
fill
grestore
stroke
grestore
gsave
266.112 266.112 103.104 38.016 clipbox
269.429 181.374 p0_0
gsave
fill
grestore
stroke
grestore
gsave
266.112 266.112 103.104 38.016 clipbox
207.766 110.158 p0_0
gsave
fill
grestore
stroke
grestore
gsave
266.112 266.112 103.104 38.016 clipbox
220.639 110.088 p0_0
gsave
fill
grestore
stroke
grestore
gsave
266.112 266.112 103.104 38.016 clipbox
233.522 111.911 p0_0
gsave
fill
grestore
stroke
grestore
gsave
266.112 266.112 103.104 38.016 clipbox
257.952 166.742 p0_0
gsave
fill
grestore
stroke
grestore
gsave
266.112 266.112 103.104 38.016 clipbox
183.25 109.794 p0_0
gsave
fill
grestore
stroke
grestore
gsave
266.112 266.112 103.104 38.016 clipbox
196.141 109.724 p0_0
gsave
fill
grestore
stroke
grestore
gsave
266.112 266.112 103.104 38.016 clipbox
246.428 140.296 p0_0
gsave
fill
grestore
stroke
grestore
gsave
266.112 266.112 103.104 38.016 clipbox
209.042 109.653 p0_0
gsave
fill
grestore
stroke
grestore
gsave
266.112 266.112 103.104 38.016 clipbox
221.954 109.582 p0_0
gsave
fill
grestore
stroke
grestore
gsave
266.112 266.112 103.104 38.016 clipbox
234.876 112.004 p0_0
gsave
fill
grestore
stroke
grestore
gsave
266.112 266.112 103.104 38.016 clipbox
184.456 109.287 p0_0
gsave
fill
grestore
stroke
grestore
gsave
266.112 266.112 103.104 38.016 clipbox
197.385 109.216 p0_0
gsave
fill
grestore
stroke
grestore
gsave
266.112 266.112 103.104 38.016 clipbox
210.326 109.145 p0_0
gsave
fill
grestore
stroke
grestore
gsave
266.112 266.112 103.104 38.016 clipbox
223.277 109.074 p0_0
gsave
fill
grestore
stroke
grestore
gsave
266.112 266.112 103.104 38.016 clipbox
185.669 108.777 p0_0
gsave
fill
grestore
stroke
grestore
gsave
266.112 266.112 103.104 38.016 clipbox
198.637 108.705 p0_0
gsave
fill
grestore
stroke
grestore
gsave
266.112 266.112 103.104 38.016 clipbox
211.617 108.634 p0_0
gsave
fill
grestore
stroke
grestore
gsave
266.112 266.112 103.104 38.016 clipbox
186.889 108.263 p0_0
gsave
fill
grestore
stroke
grestore
gsave
266.112 266.112 103.104 38.016 clipbox
199.897 108.191 p0_0
gsave
fill
grestore
stroke
grestore
gsave
266.112 266.112 103.104 38.016 clipbox
188.116 107.747 p0_0
gsave
fill
grestore
stroke
grestore

end
showpage
