%!PS-Adobe-3.0 EPSF-3.0
%%Title: n=2000_alg=exh_p=3.eps
%%Creator: Matplotlib v3.4.1, https://matplotlib.org/
%%CreationDate: Wed Jul 28 11:52:58 2021
%%Orientation: portrait
%%BoundingBox: 75 223 537 569
%%HiResBoundingBox: 75.600000 223.200000 536.400000 568.800000
%%EndComments
%%BeginProlog
/mpldict 11 dict def
mpldict begin
/d { bind def } bind def
/m { moveto } d
/l { lineto } d
/r { rlineto } d
/c { curveto } d
/cl { closepath } d
/ce { closepath eofill } d
/box {
      m
      1 index 0 r
      0 exch r
      neg 0 r
      cl
    } d
/clipbox {
      box
      clip
      newpath
    } d
/sc { setcachedevice } d
%!PS-Adobe-3.0 Resource-Font
%%Creator: Converted from TrueType to Type 3 by Matplotlib.
10 dict begin
/FontName /DejaVuSans def
/PaintType 0 def
/FontMatrix [0.00048828125 0 0 0.00048828125 0 0] def
/FontBBox [-2090 -948 3673 2524] def
/FontType 3 def
/Encoding [/period /zero /one /two /three /four /five /six /seven /eight] def
/CharStrings 11 dict dup begin
/.notdef 0 def
/period{651 0 219 0 430 254 sc
219 254 m
430 254 l
430 0 l
219 0 l
219 254 l

ce} d
/zero{1303 0 135 -29 1167 1520 sc
651 1360 m
547 1360 469 1309 416 1206 c
364 1104 338 950 338 745 c
338 540 364 387 416 284 c
469 182 547 131 651 131 c
756 131 834 182 886 284 c
939 387 965 540 965 745 c
965 950 939 1104 886 1206 c
834 1309 756 1360 651 1360 c

651 1520 m
818 1520 946 1454 1034 1321 c
1123 1189 1167 997 1167 745 c
1167 494 1123 302 1034 169 c
946 37 818 -29 651 -29 c
484 -29 356 37 267 169 c
179 302 135 494 135 745 c
135 997 179 1189 267 1321 c
356 1454 484 1520 651 1520 c

ce} d
/one{1303 0 225 0 1114 1493 sc
254 170 m
584 170 l
584 1309 l
225 1237 l
225 1421 l
582 1493 l
784 1493 l
784 170 l
1114 170 l
1114 0 l
254 0 l
254 170 l

ce} d
/two{1303 0 150 0 1098 1520 sc
393 170 m
1098 170 l
1098 0 l
150 0 l
150 170 l
227 249 331 356 463 489 c
596 623 679 709 713 748 c
778 821 823 882 848 932 c
874 983 887 1032 887 1081 c
887 1160 859 1225 803 1275 c
748 1325 675 1350 586 1350 c
523 1350 456 1339 385 1317 c
315 1295 240 1262 160 1217 c
160 1421 l
241 1454 317 1478 388 1495 c
459 1512 523 1520 582 1520 c
737 1520 860 1481 952 1404 c
1044 1327 1090 1223 1090 1094 c
1090 1033 1078 974 1055 919 c
1032 864 991 800 930 725 c
913 706 860 650 771 557 c
682 465 556 336 393 170 c

ce} d
/three{1303 0 156 -29 1139 1520 sc
831 805 m
928 784 1003 741 1057 676 c
1112 611 1139 530 1139 434 c
1139 287 1088 173 987 92 c
886 11 742 -29 555 -29 c
492 -29 428 -23 361 -10 c
295 2 227 20 156 45 c
156 240 l
212 207 273 183 340 166 c
407 149 476 141 549 141 c
676 141 772 166 838 216 c
905 266 938 339 938 434 c
938 522 907 591 845 640 c
784 690 698 715 588 715 c
414 715 l
414 881 l
596 881 l
695 881 771 901 824 940 c
877 980 903 1037 903 1112 c
903 1189 876 1247 821 1288 c
767 1329 689 1350 588 1350 c
533 1350 473 1344 410 1332 c
347 1320 277 1301 201 1276 c
201 1456 l
278 1477 349 1493 416 1504 c
483 1515 547 1520 606 1520 c
759 1520 881 1485 970 1415 c
1059 1346 1104 1252 1104 1133 c
1104 1050 1080 980 1033 923 c
986 866 918 827 831 805 c

ce} d
/four{1303 0 100 0 1188 1493 sc
774 1317 m
264 520 l
774 520 l
774 1317 l

721 1493 m
975 1493 l
975 520 l
1188 520 l
1188 352 l
975 352 l
975 0 l
774 0 l
774 352 l
100 352 l
100 547 l
721 1493 l

ce} d
/five{1303 0 158 -29 1124 1493 sc
221 1493 m
1014 1493 l
1014 1323 l
406 1323 l
406 957 l
435 967 465 974 494 979 c
523 984 553 987 582 987 c
749 987 881 941 978 850 c
1075 759 1124 635 1124 479 c
1124 318 1074 193 974 104 c
874 15 733 -29 551 -29 c
488 -29 424 -24 359 -13 c
294 -2 227 14 158 35 c
158 238 l
218 205 280 181 344 165 c
408 149 476 141 547 141 c
662 141 754 171 821 232 c
888 293 922 375 922 479 c
922 583 888 665 821 726 c
754 787 662 817 547 817 c
493 817 439 811 385 799 c
332 787 277 768 221 743 c
221 1493 l

ce} d
/six{1303 0 143 -29 1174 1520 sc
676 827 m
585 827 513 796 460 734 c
407 672 381 587 381 479 c
381 372 407 287 460 224 c
513 162 585 131 676 131 c
767 131 838 162 891 224 c
944 287 971 372 971 479 c
971 587 944 672 891 734 c
838 796 767 827 676 827 c

1077 1460 m
1077 1276 l
1026 1300 975 1318 923 1331 c
872 1344 821 1350 770 1350 c
637 1350 535 1305 464 1215 c
394 1125 354 989 344 807 c
383 865 433 909 492 940 c
551 971 617 987 688 987 c
838 987 956 941 1043 850 c
1130 759 1174 636 1174 479 c
1174 326 1129 203 1038 110 c
947 17 827 -29 676 -29 c
503 -29 371 37 280 169 c
189 302 143 494 143 745 c
143 981 199 1169 311 1309 c
423 1450 573 1520 762 1520 c
813 1520 864 1515 915 1505 c
967 1495 1021 1480 1077 1460 c

ce} d
/seven{1303 0 168 0 1128 1493 sc
168 1493 m
1128 1493 l
1128 1407 l
586 0 l
375 0 l
885 1323 l
168 1323 l
168 1493 l

ce} d
/eight{1303 0 139 -29 1163 1520 sc
651 709 m
555 709 479 683 424 632 c
369 581 342 510 342 420 c
342 330 369 259 424 208 c
479 157 555 131 651 131 c
747 131 823 157 878 208 c
933 260 961 331 961 420 c
961 510 933 581 878 632 c
823 683 748 709 651 709 c

449 795 m
362 816 295 857 246 916 c
198 975 174 1048 174 1133 c
174 1252 216 1347 301 1416 c
386 1485 503 1520 651 1520 c
800 1520 916 1485 1001 1416 c
1086 1347 1128 1252 1128 1133 c
1128 1048 1104 975 1055 916 c
1007 857 940 816 854 795 c
951 772 1027 728 1081 662 c
1136 596 1163 515 1163 420 c
1163 275 1119 164 1030 87 c
942 10 816 -29 651 -29 c
486 -29 360 10 271 87 c
183 164 139 275 139 420 c
139 515 166 596 221 662 c
276 728 352 772 449 795 c

375 1114 m
375 1037 399 976 447 933 c
496 890 564 868 651 868 c
738 868 805 890 854 933 c
903 976 928 1037 928 1114 c
928 1191 903 1252 854 1295 c
805 1338 738 1360 651 1360 c
564 1360 496 1338 447 1295 c
399 1252 375 1191 375 1114 c

ce} d
end readonly def

/BuildGlyph {
 exch begin
 CharStrings exch
 2 copy known not {pop /.notdef} if
 true 3 1 roll get exec
 end
} d

/BuildChar {
 1 index /Encoding get exch get
 1 index /BuildGlyph get exec
} d

FontName currentdict end definefont pop
end
%%EndProlog
mpldict begin
75.6 223.2 translate
460.8 345.6 0 0 clipbox
gsave
0 0 m
460.8 0 l
460.8 345.6 l
0 345.6 l
cl
1.000 setgray
fill
grestore
gsave
103.104 38.016 m
369.216 38.016 l
369.216 304.128 l
103.104 304.128 l
cl
1.000 setgray
fill
grestore
1.000 setlinewidth
0 setlinejoin
0 setlinecap
[] 0 setdash
0.950 setgray
gsave
335.638909 92.759965 m
313.79663 132.123962 l
314.99418 251.055341 l
337.382586 225.764445 l
gsave
fill
grestore
stroke
grestore
0.900 setgray
gsave
153.638443 129.595323 m
313.79663 132.123962 l
314.99418 251.055341 l
152.234448 249.433724 l
gsave
fill
grestore
stroke
grestore
0.925 setgray
gsave
155.941085 89.572924 m
335.638909 92.759965 l
313.79663 132.123962 l
153.638443 129.595323 l
gsave
fill
grestore
stroke
grestore
0.800 setlinewidth
1 setlinejoin
2 setlinecap
0.000 setgray
gsave
335.638909 92.759965 m
155.941085 89.572924 l
stroke
grestore
0 setlinecap
0.690 setgray
gsave
179.619812 89.992879 m
174.72488 129.928244 l
173.665767 249.64725 l
stroke
grestore
gsave
203.875015 90.423059 m
196.330203 130.269357 l
195.623715 249.866022 l
stroke
grestore
gsave
228.073025 90.852224 m
217.890153 130.609754 l
217.5348 250.084328 l
stroke
grestore
gsave
252.214045 91.280378 m
239.404873 130.949437 l
239.399171 250.302168 l
stroke
grestore
gsave
276.298277 91.707526 m
260.874505 131.288407 l
261.216979 250.519545 l
stroke
grestore
gsave
300.32592 92.133669 m
282.299189 131.626668 l
282.988371 250.736459 l
stroke
grestore
gsave
324.297173 92.558813 m
303.679068 131.964222 l
304.713495 250.952912 l
stroke
grestore
2 setlinecap
0.000 setgray
gsave
179.575877 90.351325 m
179.707943 89.273865 l
stroke
grestore
/DejaVuSans 10.000 selectfont
gsave

170.631478 67.631673 translate
0.000000 rotate
0.000000 0 m /one glyphshow
6.362305 0 m /zero glyphshow
12.724609 0 m /zero glyphshow
grestore
gsave
203.807304 90.78066 m
204.010837 89.705743 l
stroke
grestore
gsave

195.099074 68.083215 translate
0.000000 rotate
0.000000 0 m /two glyphshow
6.362305 0 m /zero glyphshow
12.724609 0 m /zero glyphshow
grestore
gsave
227.98165 91.208983 m
228.256314 90.1366 l
stroke
grestore
gsave

219.508472 68.533683 translate
0.000000 rotate
0.000000 0 m /three glyphshow
6.362305 0 m /zero glyphshow
12.724609 0 m /zero glyphshow
grestore
gsave
252.099119 91.636298 m
252.444577 90.56644 l
stroke
grestore
gsave

243.859878 68.983081 translate
0.000000 rotate
0.000000 0 m /four glyphshow
6.362305 0 m /zero glyphshow
12.724609 0 m /zero glyphshow
grestore
gsave
276.159909 92.062609 m
276.575828 90.995268 l
stroke
grestore
gsave

268.153499 69.431412 translate
0.000000 rotate
0.000000 0 m /five glyphshow
6.362305 0 m /zero glyphshow
12.724609 0 m /zero glyphshow
grestore
gsave
300.164221 92.487919 m
300.650268 91.423086 l
stroke
grestore
gsave

292.389540 69.878681 translate
0.000000 rotate
0.000000 0 m /six glyphshow
6.362305 0 m /zero glyphshow
12.724609 0 m /zero glyphshow
grestore
gsave
324.112254 92.912232 m
324.668099 91.849898 l
stroke
grestore
gsave

316.568206 70.324891 translate
0.000000 rotate
0.000000 0 m /seven glyphshow
6.362305 0 m /zero glyphshow
12.724609 0 m /zero glyphshow
grestore
gsave
153.638443 129.595323 m
155.941085 89.572924 l
stroke
grestore
0 setlinecap
0.690 setgray
gsave
336.413048 226.859676 m
334.694809 94.461415 l
155.841466 91.304419 l
stroke
grestore
gsave
333.351894 230.317685 m
331.712911 99.83537 l
155.526876 96.77233 l
stroke
grestore
gsave
330.382374 233.672182 m
328.818734 105.051236 l
155.221619 102.078018 l
stroke
grestore
gsave
327.500433 236.927745 m
326.008462 110.115887 l
154.925286 107.228598 l
stroke
grestore
gsave
324.702254 240.088688 m
323.2785 115.035805 l
154.637492 112.230773 l
stroke
grestore
gsave
321.984236 243.159076 m
320.625453 119.817107 l
154.357872 117.090866 l
stroke
grestore
gsave
319.342984 246.142747 m
318.046116 124.465569 l
154.086083 121.814846 l
stroke
grestore
gsave
316.775291 249.043322 m
315.537459 128.986653 l
153.821801 126.408352 l
stroke
grestore
2 setlinecap
0.000 setgray
gsave
157.284739 91.329895 m
152.954311 91.253457 l
stroke
grestore
gsave

134.648157 72.574822 translate
0.000000 rotate
0.000000 0 m /four glyphshow
6.362305 0 m /five glyphshow
grestore
gsave
156.948441 96.797044 m
152.683156 96.722891 l
stroke
grestore
gsave

134.556996 78.206192 translate
0.000000 rotate
0.000000 0 m /five glyphshow
6.362305 0 m /zero glyphshow
grestore
gsave
156.622119 102.102005 m
152.420048 102.030036 l
stroke
grestore
gsave

134.468537 83.670614 translate
0.000000 rotate
0.000000 0 m /five glyphshow
6.362305 0 m /five glyphshow
grestore
gsave
156.305336 107.251889 m
152.164632 107.182008 l
stroke
grestore
gsave

134.382663 88.975403 translate
0.000000 rotate
0.000000 0 m /six glyphshow
6.362305 0 m /zero glyphshow
grestore
gsave
155.99768 112.253397 m
151.916576 112.185516 l
stroke
grestore
gsave

134.299261 94.127454 translate
0.000000 rotate
0.000000 0 m /six glyphshow
6.362305 0 m /five glyphshow
grestore
gsave
155.698762 117.112852 m
151.675568 117.046885 l
stroke
grestore
gsave

134.218226 99.133268 translate
0.000000 rotate
0.000000 0 m /seven glyphshow
6.362305 0 m /zero glyphshow
grestore
gsave
155.408216 121.836221 m
151.441309 121.772088 l
stroke
grestore
gsave

134.139459 103.998986 translate
0.000000 rotate
0.000000 0 m /seven glyphshow
6.362305 0 m /five glyphshow
grestore
gsave
155.125693 126.42914 m
151.213522 126.366767 l
stroke
grestore
gsave

134.062866 108.730408 translate
0.000000 rotate
0.000000 0 m /eight glyphshow
6.362305 0 m /zero glyphshow
grestore
gsave
153.638443 129.595323 m
152.234448 249.433724 l
stroke
grestore
0 setlinecap
0.690 setgray
gsave
153.550441 137.106736 m
313.871701 139.57941 l
335.748012 101.082174 l
stroke
grestore
gsave
153.305932 157.976849 m
314.080276 160.293404 l
336.051284 124.215174 l
stroke
grestore
gsave
153.060033 178.965688 m
314.290027 181.124313 l
336.356478 147.494808 l
stroke
grestore
gsave
152.81273 200.074269 m
314.500966 202.073129 l
336.663612 170.922474 l
stroke
grestore
gsave
152.564013 221.303621 m
314.713102 223.140857 l
336.972706 194.499588 l
stroke
grestore
gsave
152.313868 242.654781 m
314.926446 244.328511 l
337.283778 218.227586 l
stroke
grestore
2 setlinecap
0.000 setgray
gsave
154.843002 137.126672 m
150.964831 137.066858 l
stroke
grestore
gsave

132.134987 132.174792 translate
0.000000 rotate
0.000000 0 m /zero glyphshow
6.362305 0 m /period glyphshow
9.541016 0 m /zero glyphshow
grestore
gsave
154.602175 157.995526 m
150.712957 157.939487 l
stroke
grestore
gsave

131.854673 152.876840 translate
0.000000 rotate
0.000000 0 m /zero glyphshow
6.362305 0 m /period glyphshow
9.541016 0 m /two glyphshow
grestore
gsave
154.359978 178.983092 m
150.45965 178.930873 l
stroke
grestore
gsave

131.572777 173.695666 translate
0.000000 rotate
0.000000 0 m /zero glyphshow
6.362305 0 m /period glyphshow
9.541016 0 m /four glyphshow
grestore
gsave
154.116399 200.090386 m
150.204898 200.04203 l
stroke
grestore
gsave

131.289287 194.632259 translate
0.000000 rotate
0.000000 0 m /zero glyphshow
6.362305 0 m /period glyphshow
9.541016 0 m /six glyphshow
grestore
gsave
153.871426 221.318434 m
149.948688 221.273988 l
stroke
grestore
gsave

131.004188 215.687621 translate
0.000000 rotate
0.000000 0 m /zero glyphshow
6.362305 0 m /period glyphshow
9.541016 0 m /eight glyphshow
grestore
gsave
153.625048 242.668277 m
149.691007 242.627785 l
stroke
grestore
gsave

130.717468 236.862767 translate
0.000000 rotate
0.000000 0 m /one glyphshow
6.362305 0 m /period glyphshow
9.541016 0 m /zero glyphshow
grestore
/p0_0 {
newpath
translate
0 -2.236068 m
0.593012 -2.236068 1.161816 -2.000462 1.581139 -1.581139 c
2.000462 -1.161816 2.236068 -0.593012 2.236068 0 c
2.236068 0.593012 2.000462 1.161816 1.581139 1.581139 c
1.161816 2.000462 0.593012 2.236068 0 2.236068 c
-0.593012 2.236068 -1.161816 2.000462 -1.581139 1.581139 c
-2.000462 1.161816 -2.236068 0.593012 -2.236068 0 c
-2.236068 -0.593012 -2.000462 -1.161816 -1.581139 -1.581139 c
-1.161816 -2.000462 -0.593012 -2.236068 0 -2.236068 c
cl

} bind def
1.000 setlinewidth
0 setlinecap
0.122 0.467 0.706 setrgbcolor
gsave
266.112 266.112 103.104 38.016 clipbox
240.137 138.304 p0_0
gsave
fill
grestore
stroke
grestore
gsave
266.112 266.112 103.104 38.016 clipbox
229.299 136.048 p0_0
gsave
fill
grestore
stroke
grestore
gsave
266.112 266.112 103.104 38.016 clipbox
218.45 135.88 p0_0
gsave
fill
grestore
stroke
grestore
gsave
266.112 266.112 103.104 38.016 clipbox
250.982 149.129 p0_0
gsave
fill
grestore
stroke
grestore
gsave
266.112 266.112 103.104 38.016 clipbox
207.589 135.711 p0_0
gsave
fill
grestore
stroke
grestore
gsave
266.112 266.112 103.104 38.016 clipbox
196.717 135.542 p0_0
gsave
fill
grestore
stroke
grestore
gsave
266.112 266.112 103.104 38.016 clipbox
261.857 163.228 p0_0
gsave
fill
grestore
stroke
grestore
gsave
266.112 266.112 103.104 38.016 clipbox
185.833 135.373 p0_0
gsave
fill
grestore
stroke
grestore
gsave
266.112 266.112 103.104 38.016 clipbox
272.722 168.422 p0_0
gsave
fill
grestore
stroke
grestore
gsave
266.112 266.112 103.104 38.016 clipbox
240.426 137.224 p0_0
gsave
fill
grestore
stroke
grestore
gsave
266.112 266.112 103.104 38.016 clipbox
283.599 174.986 p0_0
gsave
fill
grestore
stroke
grestore
gsave
266.112 266.112 103.104 38.016 clipbox
174.938 135.204 p0_0
gsave
fill
grestore
stroke
grestore
gsave
266.112 266.112 103.104 38.016 clipbox
229.558 135.276 p0_0
gsave
fill
grestore
stroke
grestore
gsave
266.112 266.112 103.104 38.016 clipbox
164.031 135.035 p0_0
gsave
fill
grestore
stroke
grestore
gsave
266.112 266.112 103.104 38.016 clipbox
294.501 184.082 p0_0
gsave
fill
grestore
stroke
grestore
gsave
266.112 266.112 103.104 38.016 clipbox
218.68 135.002 p0_0
gsave
fill
grestore
stroke
grestore
gsave
266.112 266.112 103.104 38.016 clipbox
251.301 147.973 p0_0
gsave
fill
grestore
stroke
grestore
gsave
266.112 266.112 103.104 38.016 clipbox
207.789 134.832 p0_0
gsave
fill
grestore
stroke
grestore
gsave
266.112 266.112 103.104 38.016 clipbox
196.887 134.662 p0_0
gsave
fill
grestore
stroke
grestore
gsave
266.112 266.112 103.104 38.016 clipbox
305.475 199.533 p0_0
gsave
fill
grestore
stroke
grestore
gsave
266.112 266.112 103.104 38.016 clipbox
185.973 134.492 p0_0
gsave
fill
grestore
stroke
grestore
gsave
266.112 266.112 103.104 38.016 clipbox
262.212 163.792 p0_0
gsave
fill
grestore
stroke
grestore
gsave
266.112 266.112 103.104 38.016 clipbox
284.006 173.581 p0_0
gsave
fill
grestore
stroke
grestore
gsave
266.112 266.112 103.104 38.016 clipbox
273.116 170.478 p0_0
gsave
fill
grestore
stroke
grestore
gsave
266.112 266.112 103.104 38.016 clipbox
240.718 137.397 p0_0
gsave
fill
grestore
stroke
grestore
gsave
266.112 266.112 103.104 38.016 clipbox
175.048 134.322 p0_0
gsave
fill
grestore
stroke
grestore
gsave
266.112 266.112 103.104 38.016 clipbox
229.82 134.289 p0_0
gsave
fill
grestore
stroke
grestore
gsave
266.112 266.112 103.104 38.016 clipbox
164.111 134.152 p0_0
gsave
fill
grestore
stroke
grestore
gsave
266.112 266.112 103.104 38.016 clipbox
218.911 134.119 p0_0
gsave
fill
grestore
stroke
grestore
gsave
266.112 266.112 103.104 38.016 clipbox
294.961 185.873 p0_0
gsave
fill
grestore
stroke
grestore
gsave
266.112 266.112 103.104 38.016 clipbox
207.991 133.948 p0_0
gsave
fill
grestore
stroke
grestore
gsave
266.112 266.112 103.104 38.016 clipbox
251.63 151.546 p0_0
gsave
fill
grestore
stroke
grestore
gsave
266.112 266.112 103.104 38.016 clipbox
197.058 133.778 p0_0
gsave
fill
grestore
stroke
grestore
gsave
266.112 266.112 103.104 38.016 clipbox
262.553 159.505 p0_0
gsave
fill
grestore
stroke
grestore
gsave
266.112 266.112 103.104 38.016 clipbox
186.115 133.607 p0_0
gsave
fill
grestore
stroke
grestore
gsave
266.112 266.112 103.104 38.016 clipbox
273.484 166.627 p0_0
gsave
fill
grestore
stroke
grestore
gsave
266.112 266.112 103.104 38.016 clipbox
305.977 202.224 p0_0
gsave
fill
grestore
stroke
grestore
gsave
266.112 266.112 103.104 38.016 clipbox
241.01 136.204 p0_0
gsave
fill
grestore
stroke
grestore
gsave
266.112 266.112 103.104 38.016 clipbox
175.159 133.436 p0_0
gsave
fill
grestore
stroke
grestore
gsave
266.112 266.112 103.104 38.016 clipbox
230.083 133.508 p0_0
gsave
fill
grestore
stroke
grestore
gsave
266.112 266.112 103.104 38.016 clipbox
284.434 175.448 p0_0
gsave
fill
grestore
stroke
grestore
gsave
266.112 266.112 103.104 38.016 clipbox
164.192 133.264 p0_0
gsave
fill
grestore
stroke
grestore
gsave
266.112 266.112 103.104 38.016 clipbox
219.144 133.231 p0_0
gsave
fill
grestore
stroke
grestore
gsave
266.112 266.112 103.104 38.016 clipbox
208.193 133.06 p0_0
gsave
fill
grestore
stroke
grestore
gsave
266.112 266.112 103.104 38.016 clipbox
295.435 189.16 p0_0
gsave
fill
grestore
stroke
grestore
gsave
266.112 266.112 103.104 38.016 clipbox
251.956 151.762 p0_0
gsave
fill
grestore
stroke
grestore
gsave
266.112 266.112 103.104 38.016 clipbox
197.231 132.888 p0_0
gsave
fill
grestore
stroke
grestore
gsave
266.112 266.112 103.104 38.016 clipbox
186.257 132.716 p0_0
gsave
fill
grestore
stroke
grestore
gsave
266.112 266.112 103.104 38.016 clipbox
262.922 163.449 p0_0
gsave
fill
grestore
stroke
grestore
gsave
266.112 266.112 103.104 38.016 clipbox
273.88 168.265 p0_0
gsave
fill
grestore
stroke
grestore
gsave
266.112 266.112 103.104 38.016 clipbox
175.271 132.544 p0_0
gsave
fill
grestore
stroke
grestore
gsave
266.112 266.112 103.104 38.016 clipbox
241.305 136.903 p0_0
gsave
fill
grestore
stroke
grestore
gsave
266.112 266.112 103.104 38.016 clipbox
230.347 132.827 p0_0
gsave
fill
grestore
stroke
grestore
gsave
266.112 266.112 103.104 38.016 clipbox
306.479 204.505 p0_0
gsave
fill
grestore
stroke
grestore
gsave
266.112 266.112 103.104 38.016 clipbox
284.856 175.734 p0_0
gsave
fill
grestore
stroke
grestore
gsave
266.112 266.112 103.104 38.016 clipbox
164.273 132.372 p0_0
gsave
fill
grestore
stroke
grestore
gsave
266.112 266.112 103.104 38.016 clipbox
219.378 132.339 p0_0
gsave
fill
grestore
stroke
grestore
gsave
266.112 266.112 103.104 38.016 clipbox
208.397 132.166 p0_0
gsave
fill
grestore
stroke
grestore
gsave
266.112 266.112 103.104 38.016 clipbox
252.279 149.65 p0_0
gsave
fill
grestore
stroke
grestore
gsave
266.112 266.112 103.104 38.016 clipbox
295.879 188.103 p0_0
gsave
fill
grestore
stroke
grestore
gsave
266.112 266.112 103.104 38.016 clipbox
197.404 131.993 p0_0
gsave
fill
grestore
stroke
grestore
gsave
266.112 266.112 103.104 38.016 clipbox
186.399 131.821 p0_0
gsave
fill
grestore
stroke
grestore
gsave
266.112 266.112 103.104 38.016 clipbox
263.277 162.108 p0_0
gsave
fill
grestore
stroke
grestore
gsave
266.112 266.112 103.104 38.016 clipbox
306.941 202.1 p0_0
gsave
fill
grestore
stroke
grestore
gsave
266.112 266.112 103.104 38.016 clipbox
175.383 131.648 p0_0
gsave
fill
grestore
stroke
grestore
gsave
266.112 266.112 103.104 38.016 clipbox
274.276 169.381 p0_0
gsave
fill
grestore
stroke
grestore
gsave
266.112 266.112 103.104 38.016 clipbox
230.613 131.72 p0_0
gsave
fill
grestore
stroke
grestore
gsave
266.112 266.112 103.104 38.016 clipbox
241.602 136.548 p0_0
gsave
fill
grestore
stroke
grestore
gsave
266.112 266.112 103.104 38.016 clipbox
164.355 131.474 p0_0
gsave
fill
grestore
stroke
grestore
gsave
266.112 266.112 103.104 38.016 clipbox
219.613 131.441 p0_0
gsave
fill
grestore
stroke
grestore
gsave
266.112 266.112 103.104 38.016 clipbox
285.295 178.471 p0_0
gsave
fill
grestore
stroke
grestore
gsave
266.112 266.112 103.104 38.016 clipbox
208.602 131.267 p0_0
gsave
fill
grestore
stroke
grestore
gsave
266.112 266.112 103.104 38.016 clipbox
197.578 131.094 p0_0
gsave
fill
grestore
stroke
grestore
gsave
266.112 266.112 103.104 38.016 clipbox
252.613 152.942 p0_0
gsave
fill
grestore
stroke
grestore
gsave
266.112 266.112 103.104 38.016 clipbox
296.362 191.845 p0_0
gsave
fill
grestore
stroke
grestore
gsave
266.112 266.112 103.104 38.016 clipbox
186.543 130.92 p0_0
gsave
fill
grestore
stroke
grestore
gsave
266.112 266.112 103.104 38.016 clipbox
274.647 164.856 p0_0
gsave
fill
grestore
stroke
grestore
gsave
266.112 266.112 103.104 38.016 clipbox
263.643 163.635 p0_0
gsave
fill
grestore
stroke
grestore
gsave
266.112 266.112 103.104 38.016 clipbox
175.496 130.746 p0_0
gsave
fill
grestore
stroke
grestore
gsave
266.112 266.112 103.104 38.016 clipbox
230.879 131.349 p0_0
gsave
fill
grestore
stroke
grestore
gsave
266.112 266.112 103.104 38.016 clipbox
307.454 204.93 p0_0
gsave
fill
grestore
stroke
grestore
gsave
266.112 266.112 103.104 38.016 clipbox
164.437 130.572 p0_0
gsave
fill
grestore
stroke
grestore
gsave
266.112 266.112 103.104 38.016 clipbox
219.85 130.538 p0_0
gsave
fill
grestore
stroke
grestore
gsave
266.112 266.112 103.104 38.016 clipbox
241.901 138.845 p0_0
gsave
fill
grestore
stroke
grestore
gsave
266.112 266.112 103.104 38.016 clipbox
285.715 177.593 p0_0
gsave
fill
grestore
stroke
grestore
gsave
266.112 266.112 103.104 38.016 clipbox
208.807 130.364 p0_0
gsave
fill
grestore
stroke
grestore
gsave
266.112 266.112 103.104 38.016 clipbox
197.753 130.189 p0_0
gsave
fill
grestore
stroke
grestore
gsave
266.112 266.112 103.104 38.016 clipbox
186.687 130.015 p0_0
gsave
fill
grestore
stroke
grestore
gsave
266.112 266.112 103.104 38.016 clipbox
296.828 192.932 p0_0
gsave
fill
grestore
stroke
grestore
gsave
266.112 266.112 103.104 38.016 clipbox
252.948 154.977 p0_0
gsave
fill
grestore
stroke
grestore
gsave
266.112 266.112 103.104 38.016 clipbox
275.045 165.434 p0_0
gsave
fill
grestore
stroke
grestore
gsave
266.112 266.112 103.104 38.016 clipbox
175.61 129.84 p0_0
gsave
fill
grestore
stroke
grestore
gsave
266.112 266.112 103.104 38.016 clipbox
231.148 130.231 p0_0
gsave
fill
grestore
stroke
grestore
gsave
266.112 266.112 103.104 38.016 clipbox
264.009 164.423 p0_0
gsave
fill
grestore
stroke
grestore
gsave
266.112 266.112 103.104 38.016 clipbox
164.52 129.664 p0_0
gsave
fill
grestore
stroke
grestore
gsave
266.112 266.112 103.104 38.016 clipbox
220.088 129.631 p0_0
gsave
fill
grestore
stroke
grestore
gsave
266.112 266.112 103.104 38.016 clipbox
242.2 138.068 p0_0
gsave
fill
grestore
stroke
grestore
gsave
266.112 266.112 103.104 38.016 clipbox
307.966 207.349 p0_0
gsave
fill
grestore
stroke
grestore
gsave
266.112 266.112 103.104 38.016 clipbox
286.155 179.71 p0_0
gsave
fill
grestore
stroke
grestore
gsave
266.112 266.112 103.104 38.016 clipbox
209.015 129.455 p0_0
gsave
fill
grestore
stroke
grestore
gsave
266.112 266.112 103.104 38.016 clipbox
197.93 129.28 p0_0
gsave
fill
grestore
stroke
grestore
gsave
266.112 266.112 103.104 38.016 clipbox
297.279 191.768 p0_0
gsave
fill
grestore
stroke
grestore
gsave
266.112 266.112 103.104 38.016 clipbox
186.833 129.104 p0_0
gsave
fill
grestore
stroke
grestore
gsave
266.112 266.112 103.104 38.016 clipbox
253.282 155.634 p0_0
gsave
fill
grestore
stroke
grestore
gsave
266.112 266.112 103.104 38.016 clipbox
175.724 128.928 p0_0
gsave
fill
grestore
stroke
grestore
gsave
266.112 266.112 103.104 38.016 clipbox
275.452 167.515 p0_0
gsave
fill
grestore
stroke
grestore
gsave
266.112 266.112 103.104 38.016 clipbox
231.418 129.747 p0_0
gsave
fill
grestore
stroke
grestore
gsave
266.112 266.112 103.104 38.016 clipbox
264.373 164.251 p0_0
gsave
fill
grestore
stroke
grestore
gsave
266.112 266.112 103.104 38.016 clipbox
164.603 128.752 p0_0
gsave
fill
grestore
stroke
grestore
gsave
266.112 266.112 103.104 38.016 clipbox
220.327 128.718 p0_0
gsave
fill
grestore
stroke
grestore
gsave
266.112 266.112 103.104 38.016 clipbox
242.502 137.606 p0_0
gsave
fill
grestore
stroke
grestore
gsave
266.112 266.112 103.104 38.016 clipbox
286.564 176.359 p0_0
gsave
fill
grestore
stroke
grestore
gsave
266.112 266.112 103.104 38.016 clipbox
308.46 207.517 p0_0
gsave
fill
grestore
stroke
grestore
gsave
266.112 266.112 103.104 38.016 clipbox
209.223 128.541 p0_0
gsave
fill
grestore
stroke
grestore
gsave
266.112 266.112 103.104 38.016 clipbox
198.107 128.365 p0_0
gsave
fill
grestore
stroke
grestore
gsave
266.112 266.112 103.104 38.016 clipbox
186.979 128.188 p0_0
gsave
fill
grestore
stroke
grestore
gsave
266.112 266.112 103.104 38.016 clipbox
253.614 154.256 p0_0
gsave
fill
grestore
stroke
grestore
gsave
266.112 266.112 103.104 38.016 clipbox
297.767 195.018 p0_0
gsave
fill
grestore
stroke
grestore
gsave
266.112 266.112 103.104 38.016 clipbox
175.839 128.011 p0_0
gsave
fill
grestore
stroke
grestore
gsave
266.112 266.112 103.104 38.016 clipbox
231.689 128.939 p0_0
gsave
fill
grestore
stroke
grestore
gsave
266.112 266.112 103.104 38.016 clipbox
275.851 167.245 p0_0
gsave
fill
grestore
stroke
grestore
gsave
266.112 266.112 103.104 38.016 clipbox
264.74 164.078 p0_0
gsave
fill
grestore
stroke
grestore
gsave
266.112 266.112 103.104 38.016 clipbox
164.686 127.834 p0_0
gsave
fill
grestore
stroke
grestore
gsave
266.112 266.112 103.104 38.016 clipbox
220.567 127.8 p0_0
gsave
fill
grestore
stroke
grestore
gsave
266.112 266.112 103.104 38.016 clipbox
242.806 137.998 p0_0
gsave
fill
grestore
stroke
grestore
gsave
266.112 266.112 103.104 38.016 clipbox
308.957 207.686 p0_0
gsave
fill
grestore
stroke
grestore
gsave
266.112 266.112 103.104 38.016 clipbox
287.01 178.376 p0_0
gsave
fill
grestore
stroke
grestore
gsave
266.112 266.112 103.104 38.016 clipbox
209.432 127.622 p0_0
gsave
fill
grestore
stroke
grestore
gsave
266.112 266.112 103.104 38.016 clipbox
198.285 127.445 p0_0
gsave
fill
grestore
stroke
grestore
gsave
266.112 266.112 103.104 38.016 clipbox
187.126 127.267 p0_0
gsave
fill
grestore
stroke
grestore
gsave
266.112 266.112 103.104 38.016 clipbox
298.225 194.069 p0_0
gsave
fill
grestore
stroke
grestore
gsave
266.112 266.112 103.104 38.016 clipbox
175.954 127.089 p0_0
gsave
fill
grestore
stroke
grestore
gsave
266.112 266.112 103.104 38.016 clipbox
253.955 156.636 p0_0
gsave
fill
grestore
stroke
grestore
gsave
266.112 266.112 103.104 38.016 clipbox
276.246 165.894 p0_0
gsave
fill
grestore
stroke
grestore
gsave
266.112 266.112 103.104 38.016 clipbox
231.962 128.341 p0_0
gsave
fill
grestore
stroke
grestore
gsave
266.112 266.112 103.104 38.016 clipbox
265.106 163.042 p0_0
gsave
fill
grestore
stroke
grestore
gsave
266.112 266.112 103.104 38.016 clipbox
164.77 126.911 p0_0
gsave
fill
grestore
stroke
grestore
gsave
266.112 266.112 103.104 38.016 clipbox
220.809 126.877 p0_0
gsave
fill
grestore
stroke
grestore
gsave
266.112 266.112 103.104 38.016 clipbox
209.643 126.698 p0_0
gsave
fill
grestore
stroke
grestore
gsave
266.112 266.112 103.104 38.016 clipbox
243.112 139.361 p0_0
gsave
fill
grestore
stroke
grestore
gsave
266.112 266.112 103.104 38.016 clipbox
287.451 179.325 p0_0
gsave
fill
grestore
stroke
grestore
gsave
266.112 266.112 103.104 38.016 clipbox
309.484 210.679 p0_0
gsave
fill
grestore
stroke
grestore
gsave
266.112 266.112 103.104 38.016 clipbox
198.464 126.52 p0_0
gsave
fill
grestore
stroke
grestore
gsave
266.112 266.112 103.104 38.016 clipbox
187.273 126.341 p0_0
gsave
fill
grestore
stroke
grestore
gsave
266.112 266.112 103.104 38.016 clipbox
176.07 126.162 p0_0
gsave
fill
grestore
stroke
grestore
gsave
266.112 266.112 103.104 38.016 clipbox
254.294 156.872 p0_0
gsave
fill
grestore
stroke
grestore
gsave
266.112 266.112 103.104 38.016 clipbox
265.471 161.244 p0_0
gsave
fill
grestore
stroke
grestore
gsave
266.112 266.112 103.104 38.016 clipbox
298.71 196.152 p0_0
gsave
fill
grestore
stroke
grestore
gsave
266.112 266.112 103.104 38.016 clipbox
232.237 127.848 p0_0
gsave
fill
grestore
stroke
grestore
gsave
266.112 266.112 103.104 38.016 clipbox
276.653 166.374 p0_0
gsave
fill
grestore
stroke
grestore
gsave
266.112 266.112 103.104 38.016 clipbox
164.855 125.983 p0_0
gsave
fill
grestore
stroke
grestore
gsave
266.112 266.112 103.104 38.016 clipbox
221.053 125.948 p0_0
gsave
fill
grestore
stroke
grestore
gsave
266.112 266.112 103.104 38.016 clipbox
209.855 125.769 p0_0
gsave
fill
grestore
stroke
grestore
gsave
266.112 266.112 103.104 38.016 clipbox
198.644 125.589 p0_0
gsave
fill
grestore
stroke
grestore
gsave
266.112 266.112 103.104 38.016 clipbox
243.42 142.781 p0_0
gsave
fill
grestore
stroke
grestore
gsave
266.112 266.112 103.104 38.016 clipbox
309.997 211.948 p0_0
gsave
fill
grestore
stroke
grestore
gsave
266.112 266.112 103.104 38.016 clipbox
287.909 182.558 p0_0
gsave
fill
grestore
stroke
grestore
gsave
266.112 266.112 103.104 38.016 clipbox
187.422 125.41 p0_0
gsave
fill
grestore
stroke
grestore
gsave
266.112 266.112 103.104 38.016 clipbox
176.187 125.23 p0_0
gsave
fill
grestore
stroke
grestore
gsave
266.112 266.112 103.104 38.016 clipbox
254.634 156.243 p0_0
gsave
fill
grestore
stroke
grestore
gsave
266.112 266.112 103.104 38.016 clipbox
232.512 127.89 p0_0
gsave
fill
grestore
stroke
grestore
gsave
266.112 266.112 103.104 38.016 clipbox
164.94 125.049 p0_0
gsave
fill
grestore
stroke
grestore
gsave
266.112 266.112 103.104 38.016 clipbox
299.191 197.378 p0_0
gsave
fill
grestore
stroke
grestore
gsave
266.112 266.112 103.104 38.016 clipbox
221.297 125.015 p0_0
gsave
fill
grestore
stroke
grestore
gsave
266.112 266.112 103.104 38.016 clipbox
265.855 164.096 p0_0
gsave
fill
grestore
stroke
grestore
gsave
266.112 266.112 103.104 38.016 clipbox
277.08 170.437 p0_0
gsave
fill
grestore
stroke
grestore
gsave
266.112 266.112 103.104 38.016 clipbox
210.068 124.834 p0_0
gsave
fill
grestore
stroke
grestore
gsave
266.112 266.112 103.104 38.016 clipbox
243.729 141.354 p0_0
gsave
fill
grestore
stroke
grestore
gsave
266.112 266.112 103.104 38.016 clipbox
198.826 124.654 p0_0
gsave
fill
grestore
stroke
grestore
gsave
266.112 266.112 103.104 38.016 clipbox
288.36 184.179 p0_0
gsave
fill
grestore
stroke
grestore
gsave
266.112 266.112 103.104 38.016 clipbox
187.571 124.473 p0_0
gsave
fill
grestore
stroke
grestore
gsave
266.112 266.112 103.104 38.016 clipbox
310.532 215.083 p0_0
gsave
fill
grestore
stroke
grestore
gsave
266.112 266.112 103.104 38.016 clipbox
176.305 124.292 p0_0
gsave
fill
grestore
stroke
grestore
gsave
266.112 266.112 103.104 38.016 clipbox
254.975 155.502 p0_0
gsave
fill
grestore
stroke
grestore
gsave
266.112 266.112 103.104 38.016 clipbox
266.223 161.747 p0_0
gsave
fill
grestore
stroke
grestore
gsave
266.112 266.112 103.104 38.016 clipbox
165.025 124.111 p0_0
gsave
fill
grestore
stroke
grestore
gsave
266.112 266.112 103.104 38.016 clipbox
232.789 127.825 p0_0
gsave
fill
grestore
stroke
grestore
gsave
266.112 266.112 103.104 38.016 clipbox
221.544 124.076 p0_0
gsave
fill
grestore
stroke
grestore
gsave
266.112 266.112 103.104 38.016 clipbox
277.482 168.974 p0_0
gsave
fill
grestore
stroke
grestore
gsave
266.112 266.112 103.104 38.016 clipbox
299.685 199.813 p0_0
gsave
fill
grestore
stroke
grestore
gsave
266.112 266.112 103.104 38.016 clipbox
210.282 123.894 p0_0
gsave
fill
grestore
stroke
grestore
gsave
266.112 266.112 103.104 38.016 clipbox
199.008 123.713 p0_0
gsave
fill
grestore
stroke
grestore
gsave
266.112 266.112 103.104 38.016 clipbox
187.721 123.531 p0_0
gsave
fill
grestore
stroke
grestore
gsave
266.112 266.112 103.104 38.016 clipbox
244.042 144.803 p0_0
gsave
fill
grestore
stroke
grestore
gsave
266.112 266.112 103.104 38.016 clipbox
311.034 214.509 p0_0
gsave
fill
grestore
stroke
grestore
gsave
266.112 266.112 103.104 38.016 clipbox
176.423 123.349 p0_0
gsave
fill
grestore
stroke
grestore
gsave
266.112 266.112 103.104 38.016 clipbox
288.828 187.886 p0_0
gsave
fill
grestore
stroke
grestore
gsave
266.112 266.112 103.104 38.016 clipbox
266.598 160.801 p0_0
gsave
fill
grestore
stroke
grestore
gsave
266.112 266.112 103.104 38.016 clipbox
255.322 156.716 p0_0
gsave
fill
grestore
stroke
grestore
gsave
266.112 266.112 103.104 38.016 clipbox
165.111 123.166 p0_0
gsave
fill
grestore
stroke
grestore
gsave
266.112 266.112 103.104 38.016 clipbox
233.069 127.326 p0_0
gsave
fill
grestore
stroke
grestore
gsave
266.112 266.112 103.104 38.016 clipbox
221.791 123.131 p0_0
gsave
fill
grestore
stroke
grestore
gsave
266.112 266.112 103.104 38.016 clipbox
277.898 169.686 p0_0
gsave
fill
grestore
stroke
grestore
gsave
266.112 266.112 103.104 38.016 clipbox
210.497 122.949 p0_0
gsave
fill
grestore
stroke
grestore
gsave
266.112 266.112 103.104 38.016 clipbox
300.191 203.471 p0_0
gsave
fill
grestore
stroke
grestore
gsave
266.112 266.112 103.104 38.016 clipbox
199.191 122.766 p0_0
gsave
fill
grestore
stroke
grestore
gsave
266.112 266.112 103.104 38.016 clipbox
187.873 122.583 p0_0
gsave
fill
grestore
stroke
grestore
gsave
266.112 266.112 103.104 38.016 clipbox
311.542 214.152 p0_0
gsave
fill
grestore
stroke
grestore
gsave
266.112 266.112 103.104 38.016 clipbox
244.355 145.005 p0_0
gsave
fill
grestore
stroke
grestore
gsave
266.112 266.112 103.104 38.016 clipbox
289.266 186.684 p0_0
gsave
fill
grestore
stroke
grestore
gsave
266.112 266.112 103.104 38.016 clipbox
176.541 122.4 p0_0
gsave
fill
grestore
stroke
grestore
gsave
266.112 266.112 103.104 38.016 clipbox
255.668 156.082 p0_0
gsave
fill
grestore
stroke
grestore
gsave
266.112 266.112 103.104 38.016 clipbox
165.198 122.217 p0_0
gsave
fill
grestore
stroke
grestore
gsave
266.112 266.112 103.104 38.016 clipbox
222.04 122.29 p0_0
gsave
fill
grestore
stroke
grestore
gsave
266.112 266.112 103.104 38.016 clipbox
266.98 161.38 p0_0
gsave
fill
grestore
stroke
grestore
gsave
266.112 266.112 103.104 38.016 clipbox
233.349 127.802 p0_0
gsave
fill
grestore
stroke
grestore
gsave
266.112 266.112 103.104 38.016 clipbox
210.714 121.998 p0_0
gsave
fill
grestore
stroke
grestore
gsave
266.112 266.112 103.104 38.016 clipbox
300.674 203.742 p0_0
gsave
fill
grestore
stroke
grestore
gsave
266.112 266.112 103.104 38.016 clipbox
199.376 121.814 p0_0
gsave
fill
grestore
stroke
grestore
gsave
266.112 266.112 103.104 38.016 clipbox
278.349 176.76 p0_0
gsave
fill
grestore
stroke
grestore
gsave
266.112 266.112 103.104 38.016 clipbox
188.025 121.63 p0_0
gsave
fill
grestore
stroke
grestore
gsave
266.112 266.112 103.104 38.016 clipbox
244.669 144.881 p0_0
gsave
fill
grestore
stroke
grestore
gsave
266.112 266.112 103.104 38.016 clipbox
176.661 121.446 p0_0
gsave
fill
grestore
stroke
grestore
gsave
266.112 266.112 103.104 38.016 clipbox
312.092 217.876 p0_0
gsave
fill
grestore
stroke
grestore
gsave
266.112 266.112 103.104 38.016 clipbox
165.285 121.262 p0_0
gsave
fill
grestore
stroke
grestore
gsave
266.112 266.112 103.104 38.016 clipbox
267.356 159.551 p0_0
gsave
fill
grestore
stroke
grestore
gsave
266.112 266.112 103.104 38.016 clipbox
256.015 155.333 p0_0
gsave
fill
grestore
stroke
grestore
gsave
266.112 266.112 103.104 38.016 clipbox
222.29 121.553 p0_0
gsave
fill
grestore
stroke
grestore
gsave
266.112 266.112 103.104 38.016 clipbox
289.759 193.287 p0_0
gsave
fill
grestore
stroke
grestore
gsave
266.112 266.112 103.104 38.016 clipbox
233.63 129.265 p0_0
gsave
fill
grestore
stroke
grestore
gsave
266.112 266.112 103.104 38.016 clipbox
210.932 121.042 p0_0
gsave
fill
grestore
stroke
grestore
gsave
266.112 266.112 103.104 38.016 clipbox
199.561 120.857 p0_0
gsave
fill
grestore
stroke
grestore
gsave
266.112 266.112 103.104 38.016 clipbox
278.755 174.75 p0_0
gsave
fill
grestore
stroke
grestore
gsave
266.112 266.112 103.104 38.016 clipbox
301.182 206.774 p0_0
gsave
fill
grestore
stroke
grestore
gsave
266.112 266.112 103.104 38.016 clipbox
188.177 120.672 p0_0
gsave
fill
grestore
stroke
grestore
gsave
266.112 266.112 103.104 38.016 clipbox
244.986 144.647 p0_0
gsave
fill
grestore
stroke
grestore
gsave
266.112 266.112 103.104 38.016 clipbox
176.781 120.487 p0_0
gsave
fill
grestore
stroke
grestore
gsave
266.112 266.112 103.104 38.016 clipbox
312.607 217.637 p0_0
gsave
fill
grestore
stroke
grestore
gsave
266.112 266.112 103.104 38.016 clipbox
165.372 120.301 p0_0
gsave
fill
grestore
stroke
grestore
gsave
266.112 266.112 103.104 38.016 clipbox
256.364 154.471 p0_0
gsave
fill
grestore
stroke
grestore
gsave
266.112 266.112 103.104 38.016 clipbox
222.542 120.266 p0_0
gsave
fill
grestore
stroke
grestore
gsave
266.112 266.112 103.104 38.016 clipbox
233.915 127.122 p0_0
gsave
fill
grestore
stroke
grestore
gsave
266.112 266.112 103.104 38.016 clipbox
290.209 193.086 p0_0
gsave
fill
grestore
stroke
grestore
gsave
266.112 266.112 103.104 38.016 clipbox
211.151 120.08 p0_0
gsave
fill
grestore
stroke
grestore
gsave
266.112 266.112 103.104 38.016 clipbox
267.76 164.64 p0_0
gsave
fill
grestore
stroke
grestore
gsave
266.112 266.112 103.104 38.016 clipbox
199.748 119.894 p0_0
gsave
fill
grestore
stroke
grestore
gsave
266.112 266.112 103.104 38.016 clipbox
188.331 119.708 p0_0
gsave
fill
grestore
stroke
grestore
gsave
266.112 266.112 103.104 38.016 clipbox
279.184 176.48 p0_0
gsave
fill
grestore
stroke
grestore
gsave
266.112 266.112 103.104 38.016 clipbox
301.679 208.164 p0_0
gsave
fill
grestore
stroke
grestore
gsave
266.112 266.112 103.104 38.016 clipbox
176.902 119.522 p0_0
gsave
fill
grestore
stroke
grestore
gsave
266.112 266.112 103.104 38.016 clipbox
245.306 146.611 p0_0
gsave
fill
grestore
stroke
grestore
gsave
266.112 266.112 103.104 38.016 clipbox
313.139 218.84 p0_0
gsave
fill
grestore
stroke
grestore
gsave
266.112 266.112 103.104 38.016 clipbox
165.46 119.335 p0_0
gsave
fill
grestore
stroke
grestore
gsave
266.112 266.112 103.104 38.016 clipbox
222.795 119.518 p0_0
gsave
fill
grestore
stroke
grestore
gsave
266.112 266.112 103.104 38.016 clipbox
290.648 190.779 p0_0
gsave
fill
grestore
stroke
grestore
gsave
266.112 266.112 103.104 38.016 clipbox
211.372 119.113 p0_0
gsave
fill
grestore
stroke
grestore
gsave
266.112 266.112 103.104 38.016 clipbox
268.142 163.139 p0_0
gsave
fill
grestore
stroke
grestore
gsave
266.112 266.112 103.104 38.016 clipbox
256.728 159.225 p0_0
gsave
fill
grestore
stroke
grestore
gsave
266.112 266.112 103.104 38.016 clipbox
234.199 129.91 p0_0
gsave
fill
grestore
stroke
grestore
gsave
266.112 266.112 103.104 38.016 clipbox
199.935 118.926 p0_0
gsave
fill
grestore
stroke
grestore
gsave
266.112 266.112 103.104 38.016 clipbox
188.486 118.738 p0_0
gsave
fill
grestore
stroke
grestore
gsave
266.112 266.112 103.104 38.016 clipbox
302.154 206.451 p0_0
gsave
fill
grestore
stroke
grestore
gsave
266.112 266.112 103.104 38.016 clipbox
279.603 175.896 p0_0
gsave
fill
grestore
stroke
grestore
gsave
266.112 266.112 103.104 38.016 clipbox
177.024 118.551 p0_0
gsave
fill
grestore
stroke
grestore
gsave
266.112 266.112 103.104 38.016 clipbox
245.626 145.829 p0_0
gsave
fill
grestore
stroke
grestore
gsave
266.112 266.112 103.104 38.016 clipbox
313.652 217.823 p0_0
gsave
fill
grestore
stroke
grestore
gsave
266.112 266.112 103.104 38.016 clipbox
257.066 151.958 p0_0
gsave
fill
grestore
stroke
grestore
gsave
266.112 266.112 103.104 38.016 clipbox
165.549 118.364 p0_0
gsave
fill
grestore
stroke
grestore
gsave
266.112 266.112 103.104 38.016 clipbox
223.049 118.987 p0_0
gsave
fill
grestore
stroke
grestore
gsave
266.112 266.112 103.104 38.016 clipbox
268.526 161.519 p0_0
gsave
fill
grestore
stroke
grestore
gsave
266.112 266.112 103.104 38.016 clipbox
211.593 118.14 p0_0
gsave
fill
grestore
stroke
grestore
gsave
266.112 266.112 103.104 38.016 clipbox
291.119 192.902 p0_0
gsave
fill
grestore
stroke
grestore
gsave
266.112 266.112 103.104 38.016 clipbox
234.487 129.298 p0_0
gsave
fill
grestore
stroke
grestore
gsave
266.112 266.112 103.104 38.016 clipbox
200.124 117.952 p0_0
gsave
fill
grestore
stroke
grestore
gsave
266.112 266.112 103.104 38.016 clipbox
188.641 117.763 p0_0
gsave
fill
grestore
stroke
grestore
gsave
266.112 266.112 103.104 38.016 clipbox
302.653 207.291 p0_0
gsave
fill
grestore
stroke
grestore
gsave
266.112 266.112 103.104 38.016 clipbox
280.041 178.307 p0_0
gsave
fill
grestore
stroke
grestore
gsave
266.112 266.112 103.104 38.016 clipbox
177.146 117.575 p0_0
gsave
fill
grestore
stroke
grestore
gsave
266.112 266.112 103.104 38.016 clipbox
165.638 117.386 p0_0
gsave
fill
grestore
stroke
grestore
gsave
266.112 266.112 103.104 38.016 clipbox
314.188 218.811 p0_0
gsave
fill
grestore
stroke
grestore
gsave
266.112 266.112 103.104 38.016 clipbox
223.304 118.673 p0_0
gsave
fill
grestore
stroke
grestore
gsave
266.112 266.112 103.104 38.016 clipbox
245.952 150.134 p0_0
gsave
fill
grestore
stroke
grestore
gsave
266.112 266.112 103.104 38.016 clipbox
257.43 154.513 p0_0
gsave
fill
grestore
stroke
grestore
gsave
266.112 266.112 103.104 38.016 clipbox
211.816 117.161 p0_0
gsave
fill
grestore
stroke
grestore
gsave
266.112 266.112 103.104 38.016 clipbox
268.928 163.997 p0_0
gsave
fill
grestore
stroke
grestore
gsave
266.112 266.112 103.104 38.016 clipbox
200.314 116.972 p0_0
gsave
fill
grestore
stroke
grestore
gsave
266.112 266.112 103.104 38.016 clipbox
291.61 197.382 p0_0
gsave
fill
grestore
stroke
grestore
gsave
266.112 266.112 103.104 38.016 clipbox
234.774 131.337 p0_0
gsave
fill
grestore
stroke
grestore
gsave
266.112 266.112 103.104 38.016 clipbox
188.798 116.782 p0_0
gsave
fill
grestore
stroke
grestore
gsave
266.112 266.112 103.104 38.016 clipbox
177.269 116.593 p0_0
gsave
fill
grestore
stroke
grestore
gsave
266.112 266.112 103.104 38.016 clipbox
303.182 211.381 p0_0
gsave
fill
grestore
stroke
grestore
gsave
266.112 266.112 103.104 38.016 clipbox
165.727 116.403 p0_0
gsave
fill
grestore
stroke
grestore
gsave
266.112 266.112 103.104 38.016 clipbox
223.562 117.251 p0_0
gsave
fill
grestore
stroke
grestore
gsave
266.112 266.112 103.104 38.016 clipbox
314.721 219.133 p0_0
gsave
fill
grestore
stroke
grestore
gsave
266.112 266.112 103.104 38.016 clipbox
280.499 183.968 p0_0
gsave
fill
grestore
stroke
grestore
gsave
266.112 266.112 103.104 38.016 clipbox
246.277 150.023 p0_0
gsave
fill
grestore
stroke
grestore
gsave
266.112 266.112 103.104 38.016 clipbox
212.041 116.177 p0_0
gsave
fill
grestore
stroke
grestore
gsave
266.112 266.112 103.104 38.016 clipbox
257.793 156.084 p0_0
gsave
fill
grestore
stroke
grestore
gsave
266.112 266.112 103.104 38.016 clipbox
269.308 160.588 p0_0
gsave
fill
grestore
stroke
grestore
gsave
266.112 266.112 103.104 38.016 clipbox
200.504 115.986 p0_0
gsave
fill
grestore
stroke
grestore
gsave
266.112 266.112 103.104 38.016 clipbox
188.955 115.796 p0_0
gsave
fill
grestore
stroke
grestore
gsave
266.112 266.112 103.104 38.016 clipbox
292.09 199.766 p0_0
gsave
fill
grestore
stroke
grestore
gsave
266.112 266.112 103.104 38.016 clipbox
235.063 135.498 p0_0
gsave
fill
grestore
stroke
grestore
gsave
266.112 266.112 103.104 38.016 clipbox
177.393 115.605 p0_0
gsave
fill
grestore
stroke
grestore
gsave
266.112 266.112 103.104 38.016 clipbox
280.908 180.045 p0_0
gsave
fill
grestore
stroke
grestore
gsave
266.112 266.112 103.104 38.016 clipbox
165.817 115.414 p0_0
gsave
fill
grestore
stroke
grestore
gsave
266.112 266.112 103.104 38.016 clipbox
246.6 146.46 p0_0
gsave
fill
grestore
stroke
grestore
gsave
266.112 266.112 103.104 38.016 clipbox
303.706 214.376 p0_0
gsave
fill
grestore
stroke
grestore
gsave
266.112 266.112 103.104 38.016 clipbox
223.817 118.15 p0_0
gsave
fill
grestore
stroke
grestore
gsave
266.112 266.112 103.104 38.016 clipbox
315.276 221.256 p0_0
gsave
fill
grestore
stroke
grestore
gsave
266.112 266.112 103.104 38.016 clipbox
258.152 154.876 p0_0
gsave
fill
grestore
stroke
grestore
gsave
266.112 266.112 103.104 38.016 clipbox
212.266 115.186 p0_0
gsave
fill
grestore
stroke
grestore
gsave
266.112 266.112 103.104 38.016 clipbox
200.696 114.995 p0_0
gsave
fill
grestore
stroke
grestore
gsave
266.112 266.112 103.104 38.016 clipbox
189.113 114.804 p0_0
gsave
fill
grestore
stroke
grestore
gsave
266.112 266.112 103.104 38.016 clipbox
269.734 167.772 p0_0
gsave
fill
grestore
stroke
grestore
gsave
266.112 266.112 103.104 38.016 clipbox
292.551 199.019 p0_0
gsave
fill
grestore
stroke
grestore
gsave
266.112 266.112 103.104 38.016 clipbox
235.356 134.006 p0_0
gsave
fill
grestore
stroke
grestore
gsave
266.112 266.112 103.104 38.016 clipbox
177.517 114.612 p0_0
gsave
fill
grestore
stroke
grestore
gsave
266.112 266.112 103.104 38.016 clipbox
165.908 114.42 p0_0
gsave
fill
grestore
stroke
grestore
gsave
266.112 266.112 103.104 38.016 clipbox
304.19 212.32 p0_0
gsave
fill
grestore
stroke
grestore
gsave
266.112 266.112 103.104 38.016 clipbox
246.93 148.013 p0_0
gsave
fill
grestore
stroke
grestore
gsave
266.112 266.112 103.104 38.016 clipbox
258.511 153.214 p0_0
gsave
fill
grestore
stroke
grestore
gsave
266.112 266.112 103.104 38.016 clipbox
315.803 220.346 p0_0
gsave
fill
grestore
stroke
grestore
gsave
266.112 266.112 103.104 38.016 clipbox
212.493 114.302 p0_0
gsave
fill
grestore
stroke
grestore
gsave
266.112 266.112 103.104 38.016 clipbox
224.073 119.722 p0_0
gsave
fill
grestore
stroke
grestore
gsave
266.112 266.112 103.104 38.016 clipbox
281.379 186.872 p0_0
gsave
fill
grestore
stroke
grestore
gsave
266.112 266.112 103.104 38.016 clipbox
200.89 113.998 p0_0
gsave
fill
grestore
stroke
grestore
gsave
266.112 266.112 103.104 38.016 clipbox
270.127 166.032 p0_0
gsave
fill
grestore
stroke
grestore
gsave
266.112 266.112 103.104 38.016 clipbox
189.272 113.805 p0_0
gsave
fill
grestore
stroke
grestore
gsave
266.112 266.112 103.104 38.016 clipbox
235.65 135.298 p0_0
gsave
fill
grestore
stroke
grestore
gsave
266.112 266.112 103.104 38.016 clipbox
177.642 113.613 p0_0
gsave
fill
grestore
stroke
grestore
gsave
266.112 266.112 103.104 38.016 clipbox
293.048 203.002 p0_0
gsave
fill
grestore
stroke
grestore
gsave
266.112 266.112 103.104 38.016 clipbox
165.999 113.419 p0_0
gsave
fill
grestore
stroke
grestore
gsave
266.112 266.112 103.104 38.016 clipbox
258.875 152.103 p0_0
gsave
fill
grestore
stroke
grestore
gsave
266.112 266.112 103.104 38.016 clipbox
247.261 148.792 p0_0
gsave
fill
grestore
stroke
grestore
gsave
266.112 266.112 103.104 38.016 clipbox
304.725 215.903 p0_0
gsave
fill
grestore
stroke
grestore
gsave
266.112 266.112 103.104 38.016 clipbox
212.721 113.3 p0_0
gsave
fill
grestore
stroke
grestore
gsave
266.112 266.112 103.104 38.016 clipbox
224.337 117.732 p0_0
gsave
fill
grestore
stroke
grestore
gsave
266.112 266.112 103.104 38.016 clipbox
316.365 222.486 p0_0
gsave
fill
grestore
stroke
grestore
gsave
266.112 266.112 103.104 38.016 clipbox
281.82 187.774 p0_0
gsave
fill
grestore
stroke
grestore
gsave
266.112 266.112 103.104 38.016 clipbox
201.084 112.995 p0_0
gsave
fill
grestore
stroke
grestore
gsave
266.112 266.112 103.104 38.016 clipbox
189.433 112.801 p0_0
gsave
fill
grestore
stroke
grestore
gsave
266.112 266.112 103.104 38.016 clipbox
270.539 168.444 p0_0
gsave
fill
grestore
stroke
grestore
gsave
266.112 266.112 103.104 38.016 clipbox
177.768 112.607 p0_0
gsave
fill
grestore
stroke
grestore
gsave
266.112 266.112 103.104 38.016 clipbox
235.947 135.702 p0_0
gsave
fill
grestore
stroke
grestore
gsave
266.112 266.112 103.104 38.016 clipbox
293.537 205.428 p0_0
gsave
fill
grestore
stroke
grestore
gsave
266.112 266.112 103.104 38.016 clipbox
166.09 112.413 p0_0
gsave
fill
grestore
stroke
grestore
gsave
266.112 266.112 103.104 38.016 clipbox
305.218 214.177 p0_0
gsave
fill
grestore
stroke
grestore
gsave
266.112 266.112 103.104 38.016 clipbox
212.951 112.181 p0_0
gsave
fill
grestore
stroke
grestore
gsave
266.112 266.112 103.104 38.016 clipbox
247.594 149.126 p0_0
gsave
fill
grestore
stroke
grestore
gsave
266.112 266.112 103.104 38.016 clipbox
224.599 118.081 p0_0
gsave
fill
grestore
stroke
grestore
gsave
266.112 266.112 103.104 38.016 clipbox
316.897 221.461 p0_0
gsave
fill
grestore
stroke
grestore
gsave
266.112 266.112 103.104 38.016 clipbox
259.25 154.922 p0_0
gsave
fill
grestore
stroke
grestore
gsave
266.112 266.112 103.104 38.016 clipbox
201.279 111.986 p0_0
gsave
fill
grestore
stroke
grestore
gsave
266.112 266.112 103.104 38.016 clipbox
282.275 190.718 p0_0
gsave
fill
grestore
stroke
grestore
gsave
266.112 266.112 103.104 38.016 clipbox
189.594 111.791 p0_0
gsave
fill
grestore
stroke
grestore
gsave
266.112 266.112 103.104 38.016 clipbox
270.94 167.711 p0_0
gsave
fill
grestore
stroke
grestore
gsave
266.112 266.112 103.104 38.016 clipbox
177.895 111.596 p0_0
gsave
fill
grestore
stroke
grestore
gsave
266.112 266.112 103.104 38.016 clipbox
166.183 111.401 p0_0
gsave
fill
grestore
stroke
grestore
gsave
266.112 266.112 103.104 38.016 clipbox
294.023 206.962 p0_0
gsave
fill
grestore
stroke
grestore
gsave
266.112 266.112 103.104 38.016 clipbox
236.243 140.608 p0_0
gsave
fill
grestore
stroke
grestore
gsave
266.112 266.112 103.104 38.016 clipbox
213.181 111.616 p0_0
gsave
fill
grestore
stroke
grestore
gsave
266.112 266.112 103.104 38.016 clipbox
247.928 147.996 p0_0
gsave
fill
grestore
stroke
grestore
gsave
266.112 266.112 103.104 38.016 clipbox
305.745 216.082 p0_0
gsave
fill
grestore
stroke
grestore
gsave
266.112 266.112 103.104 38.016 clipbox
317.456 222.707 p0_0
gsave
fill
grestore
stroke
grestore
gsave
266.112 266.112 103.104 38.016 clipbox
224.859 119.443 p0_0
gsave
fill
grestore
stroke
grestore
gsave
266.112 266.112 103.104 38.016 clipbox
201.476 110.971 p0_0
gsave
fill
grestore
stroke
grestore
gsave
266.112 266.112 103.104 38.016 clipbox
259.629 157.761 p0_0
gsave
fill
grestore
stroke
grestore
gsave
266.112 266.112 103.104 38.016 clipbox
282.711 189.823 p0_0
gsave
fill
grestore
stroke
grestore
gsave
266.112 266.112 103.104 38.016 clipbox
189.756 110.775 p0_0
gsave
fill
grestore
stroke
grestore
gsave
266.112 266.112 103.104 38.016 clipbox
178.022 110.579 p0_0
gsave
fill
grestore
stroke
grestore
gsave
266.112 266.112 103.104 38.016 clipbox
271.367 172.411 p0_0
gsave
fill
grestore
stroke
grestore
gsave
266.112 266.112 103.104 38.016 clipbox
166.275 110.382 p0_0
gsave
fill
grestore
stroke
grestore
gsave
266.112 266.112 103.104 38.016 clipbox
294.482 204.405 p0_0
gsave
fill
grestore
stroke
grestore
gsave
266.112 266.112 103.104 38.016 clipbox
236.543 140.241 p0_0
gsave
fill
grestore
stroke
grestore
gsave
266.112 266.112 103.104 38.016 clipbox
213.413 110.71 p0_0
gsave
fill
grestore
stroke
grestore
gsave
266.112 266.112 103.104 38.016 clipbox
306.252 215.26 p0_0
gsave
fill
grestore
stroke
grestore
gsave
266.112 266.112 103.104 38.016 clipbox
248.266 149.687 p0_0
gsave
fill
grestore
stroke
grestore
gsave
266.112 266.112 103.104 38.016 clipbox
317.999 222.018 p0_0
gsave
fill
grestore
stroke
grestore
gsave
266.112 266.112 103.104 38.016 clipbox
201.673 109.951 p0_0
gsave
fill
grestore
stroke
grestore
gsave
266.112 266.112 103.104 38.016 clipbox
225.122 120.927 p0_0
gsave
fill
grestore
stroke
grestore
gsave
266.112 266.112 103.104 38.016 clipbox
260.002 157.898 p0_0
gsave
fill
grestore
stroke
grestore
gsave
266.112 266.112 103.104 38.016 clipbox
189.919 109.753 p0_0
gsave
fill
grestore
stroke
grestore
gsave
266.112 266.112 103.104 38.016 clipbox
283.168 192.11 p0_0
gsave
fill
grestore
stroke
grestore
gsave
266.112 266.112 103.104 38.016 clipbox
178.15 109.556 p0_0
gsave
fill
grestore
stroke
grestore
gsave
266.112 266.112 103.104 38.016 clipbox
166.369 109.358 p0_0
gsave
fill
grestore
stroke
grestore
gsave
266.112 266.112 103.104 38.016 clipbox
294.976 206.288 p0_0
gsave
fill
grestore
stroke
grestore
gsave
266.112 266.112 103.104 38.016 clipbox
236.846 139.079 p0_0
gsave
fill
grestore
stroke
grestore
gsave
266.112 266.112 103.104 38.016 clipbox
271.797 177.032 p0_0
gsave
fill
grestore
stroke
grestore
gsave
266.112 266.112 103.104 38.016 clipbox
213.647 109.46 p0_0
gsave
fill
grestore
stroke
grestore
gsave
266.112 266.112 103.104 38.016 clipbox
306.771 215.577 p0_0
gsave
fill
grestore
stroke
grestore
gsave
266.112 266.112 103.104 38.016 clipbox
248.605 149.119 p0_0
gsave
fill
grestore
stroke
grestore
gsave
266.112 266.112 103.104 38.016 clipbox
318.545 221.44 p0_0
gsave
fill
grestore
stroke
grestore
gsave
266.112 266.112 103.104 38.016 clipbox
201.872 108.924 p0_0
gsave
fill
grestore
stroke
grestore
gsave
266.112 266.112 103.104 38.016 clipbox
225.39 120.385 p0_0
gsave
fill
grestore
stroke
grestore
gsave
266.112 266.112 103.104 38.016 clipbox
190.083 108.725 p0_0
gsave
fill
grestore
stroke
grestore
gsave
266.112 266.112 103.104 38.016 clipbox
260.38 158.833 p0_0
gsave
fill
grestore
stroke
grestore
gsave
266.112 266.112 103.104 38.016 clipbox
178.279 108.526 p0_0
gsave
fill
grestore
stroke
grestore
gsave
266.112 266.112 103.104 38.016 clipbox
283.636 195.671 p0_0
gsave
fill
grestore
stroke
grestore
gsave
266.112 266.112 103.104 38.016 clipbox
166.462 108.328 p0_0
gsave
fill
grestore
stroke
grestore
gsave
266.112 266.112 103.104 38.016 clipbox
295.474 208.183 p0_0
gsave
fill
grestore
stroke
grestore
gsave
266.112 266.112 103.104 38.016 clipbox
213.882 108.656 p0_0
gsave
fill
grestore
stroke
grestore
gsave
266.112 266.112 103.104 38.016 clipbox
237.149 142.113 p0_0
gsave
fill
grestore
stroke
grestore
gsave
266.112 266.112 103.104 38.016 clipbox
248.943 147.182 p0_0
gsave
fill
grestore
stroke
grestore
gsave
266.112 266.112 103.104 38.016 clipbox
202.072 107.891 p0_0
gsave
fill
grestore
stroke
grestore
gsave
266.112 266.112 103.104 38.016 clipbox
319.103 221.548 p0_0
gsave
fill
grestore
stroke
grestore
gsave
266.112 266.112 103.104 38.016 clipbox
272.23 181.573 p0_0
gsave
fill
grestore
stroke
grestore
gsave
266.112 266.112 103.104 38.016 clipbox
307.314 218.079 p0_0
gsave
fill
grestore
stroke
grestore
gsave
266.112 266.112 103.104 38.016 clipbox
190.248 107.691 p0_0
gsave
fill
grestore
stroke
grestore
gsave
266.112 266.112 103.104 38.016 clipbox
260.755 157.834 p0_0
gsave
fill
grestore
stroke
grestore
gsave
266.112 266.112 103.104 38.016 clipbox
225.651 124.265 p0_0
gsave
fill
grestore
stroke
grestore
gsave
266.112 266.112 103.104 38.016 clipbox
178.409 107.491 p0_0
gsave
fill
grestore
stroke
grestore
gsave
266.112 266.112 103.104 38.016 clipbox
166.557 107.291 p0_0
gsave
fill
grestore
stroke
grestore
gsave
266.112 266.112 103.104 38.016 clipbox
284.109 199.486 p0_0
gsave
fill
grestore
stroke
grestore
gsave
266.112 266.112 103.104 38.016 clipbox
249.281 143.409 p0_0
gsave
fill
grestore
stroke
grestore
gsave
266.112 266.112 103.104 38.016 clipbox
214.118 107.846 p0_0
gsave
fill
grestore
stroke
grestore
gsave
266.112 266.112 103.104 38.016 clipbox
295.979 210.552 p0_0
gsave
fill
grestore
stroke
grestore
gsave
266.112 266.112 103.104 38.016 clipbox
237.455 142.773 p0_0
gsave
fill
grestore
stroke
grestore
gsave
266.112 266.112 103.104 38.016 clipbox
202.274 106.851 p0_0
gsave
fill
grestore
stroke
grestore
gsave
266.112 266.112 103.104 38.016 clipbox
272.636 179.608 p0_0
gsave
fill
grestore
stroke
grestore
gsave
266.112 266.112 103.104 38.016 clipbox
319.664 221.656 p0_0
gsave
fill
grestore
stroke
grestore
gsave
266.112 266.112 103.104 38.016 clipbox
307.844 218.754 p0_0
gsave
fill
grestore
stroke
grestore
gsave
266.112 266.112 103.104 38.016 clipbox
190.414 106.65 p0_0
gsave
fill
grestore
stroke
grestore
gsave
266.112 266.112 103.104 38.016 clipbox
178.54 106.449 p0_0
gsave
fill
grestore
stroke
grestore
gsave
266.112 266.112 103.104 38.016 clipbox
225.92 124.755 p0_0
gsave
fill
grestore
stroke
grestore
gsave
266.112 266.112 103.104 38.016 clipbox
261.147 161.865 p0_0
gsave
fill
grestore
stroke
grestore
gsave
266.112 266.112 103.104 38.016 clipbox
166.652 106.248 p0_0
gsave
fill
grestore
stroke
grestore
gsave
266.112 266.112 103.104 38.016 clipbox
284.546 196.878 p0_0
gsave
fill
grestore
stroke
grestore
gsave
266.112 266.112 103.104 38.016 clipbox
214.353 107.487 p0_0
gsave
fill
grestore
stroke
grestore
gsave
266.112 266.112 103.104 38.016 clipbox
237.764 140.578 p0_0
gsave
fill
grestore
stroke
grestore
gsave
266.112 266.112 103.104 38.016 clipbox
296.463 209.818 p0_0
gsave
fill
grestore
stroke
grestore
gsave
266.112 266.112 103.104 38.016 clipbox
202.476 105.806 p0_0
gsave
fill
grestore
stroke
grestore
gsave
266.112 266.112 103.104 38.016 clipbox
249.631 147.279 p0_0
gsave
fill
grestore
stroke
grestore
gsave
266.112 266.112 103.104 38.016 clipbox
320.211 220.146 p0_0
gsave
fill
grestore
stroke
grestore
gsave
266.112 266.112 103.104 38.016 clipbox
308.351 216.657 p0_0
gsave
fill
grestore
stroke
grestore
gsave
266.112 266.112 103.104 38.016 clipbox
190.58 105.604 p0_0
gsave
fill
grestore
stroke
grestore
gsave
266.112 266.112 103.104 38.016 clipbox
273.072 183.498 p0_0
gsave
fill
grestore
stroke
grestore
gsave
266.112 266.112 103.104 38.016 clipbox
178.671 105.401 p0_0
gsave
fill
grestore
stroke
grestore
gsave
266.112 266.112 103.104 38.016 clipbox
226.189 126.848 p0_0
gsave
fill
grestore
stroke
grestore
gsave
266.112 266.112 103.104 38.016 clipbox
261.534 163.396 p0_0
gsave
fill
grestore
stroke
grestore
gsave
266.112 266.112 103.104 38.016 clipbox
166.747 105.199 p0_0
gsave
fill
grestore
stroke
grestore
gsave
266.112 266.112 103.104 38.016 clipbox
285.04 203.15 p0_0
gsave
fill
grestore
stroke
grestore
gsave
266.112 266.112 103.104 38.016 clipbox
214.59 107.354 p0_0
gsave
fill
grestore
stroke
grestore
gsave
266.112 266.112 103.104 38.016 clipbox
202.68 104.754 p0_0
gsave
fill
grestore
stroke
grestore
gsave
266.112 266.112 103.104 38.016 clipbox
238.073 142.958 p0_0
gsave
fill
grestore
stroke
grestore
gsave
266.112 266.112 103.104 38.016 clipbox
320.795 221.759 p0_0
gsave
fill
grestore
stroke
grestore
gsave
266.112 266.112 103.104 38.016 clipbox
249.981 148.994 p0_0
gsave
fill
grestore
stroke
grestore
gsave
266.112 266.112 103.104 38.016 clipbox
190.748 104.551 p0_0
gsave
fill
grestore
stroke
grestore
gsave
266.112 266.112 103.104 38.016 clipbox
308.903 218.955 p0_0
gsave
fill
grestore
stroke
grestore
gsave
266.112 266.112 103.104 38.016 clipbox
296.992 214.525 p0_0
gsave
fill
grestore
stroke
grestore
gsave
266.112 266.112 103.104 38.016 clipbox
273.502 185.683 p0_0
gsave
fill
grestore
stroke
grestore
gsave
266.112 266.112 103.104 38.016 clipbox
178.803 104.347 p0_0
gsave
fill
grestore
stroke
grestore
gsave
266.112 266.112 103.104 38.016 clipbox
166.843 104.143 p0_0
gsave
fill
grestore
stroke
grestore
gsave
266.112 266.112 103.104 38.016 clipbox
261.918 163.093 p0_0
gsave
fill
grestore
stroke
grestore
gsave
266.112 266.112 103.104 38.016 clipbox
226.458 129.53 p0_0
gsave
fill
grestore
stroke
grestore
gsave
266.112 266.112 103.104 38.016 clipbox
238.386 138.104 p0_0
gsave
fill
grestore
stroke
grestore
gsave
266.112 266.112 103.104 38.016 clipbox
285.499 203.202 p0_0
gsave
fill
grestore
stroke
grestore
gsave
266.112 266.112 103.104 38.016 clipbox
202.885 103.696 p0_0
gsave
fill
grestore
stroke
grestore
gsave
266.112 266.112 103.104 38.016 clipbox
214.823 108.594 p0_0
gsave
fill
grestore
stroke
grestore
gsave
266.112 266.112 103.104 38.016 clipbox
297.468 211.823 p0_0
gsave
fill
grestore
stroke
grestore
gsave
266.112 266.112 103.104 38.016 clipbox
321.364 221.637 p0_0
gsave
fill
grestore
stroke
grestore
gsave
266.112 266.112 103.104 38.016 clipbox
309.426 217.893 p0_0
gsave
fill
grestore
stroke
grestore
gsave
266.112 266.112 103.104 38.016 clipbox
190.917 103.491 p0_0
gsave
fill
grestore
stroke
grestore
gsave
266.112 266.112 103.104 38.016 clipbox
250.333 150.375 p0_0
gsave
fill
grestore
stroke
grestore
gsave
266.112 266.112 103.104 38.016 clipbox
273.925 185.449 p0_0
gsave
fill
grestore
stroke
grestore
gsave
266.112 266.112 103.104 38.016 clipbox
178.936 103.286 p0_0
gsave
fill
grestore
stroke
grestore
gsave
266.112 266.112 103.104 38.016 clipbox
166.94 103.081 p0_0
gsave
fill
grestore
stroke
grestore
gsave
266.112 266.112 103.104 38.016 clipbox
226.733 129.581 p0_0
gsave
fill
grestore
stroke
grestore
gsave
266.112 266.112 103.104 38.016 clipbox
262.326 169.5 p0_0
gsave
fill
grestore
stroke
grestore
gsave
266.112 266.112 103.104 38.016 clipbox
285.956 202.556 p0_0
gsave
fill
grestore
stroke
grestore
gsave
266.112 266.112 103.104 38.016 clipbox
238.699 138.874 p0_0
gsave
fill
grestore
stroke
grestore
gsave
266.112 266.112 103.104 38.016 clipbox
203.091 102.631 p0_0
gsave
fill
grestore
stroke
grestore
gsave
266.112 266.112 103.104 38.016 clipbox
215.06 109.039 p0_0
gsave
fill
grestore
stroke
grestore
gsave
266.112 266.112 103.104 38.016 clipbox
321.928 220.696 p0_0
gsave
fill
grestore
stroke
grestore
gsave
266.112 266.112 103.104 38.016 clipbox
297.968 211.902 p0_0
gsave
fill
grestore
stroke
grestore
gsave
266.112 266.112 103.104 38.016 clipbox
191.087 102.425 p0_0
gsave
fill
grestore
stroke
grestore
gsave
266.112 266.112 103.104 38.016 clipbox
309.959 217.524 p0_0
gsave
fill
grestore
stroke
grestore
gsave
266.112 266.112 103.104 38.016 clipbox
250.683 149.683 p0_0
gsave
fill
grestore
stroke
grestore
gsave
266.112 266.112 103.104 38.016 clipbox
179.069 102.219 p0_0
gsave
fill
grestore
stroke
grestore
gsave
266.112 266.112 103.104 38.016 clipbox
167.037 102.013 p0_0
gsave
fill
grestore
stroke
grestore
gsave
266.112 266.112 103.104 38.016 clipbox
274.384 192.544 p0_0
gsave
fill
grestore
stroke
grestore
gsave
266.112 266.112 103.104 38.016 clipbox
262.715 169.214 p0_0
gsave
fill
grestore
stroke
grestore
gsave
266.112 266.112 103.104 38.016 clipbox
203.299 101.56 p0_0
gsave
fill
grestore
stroke
grestore
gsave
266.112 266.112 103.104 38.016 clipbox
227.002 134.718 p0_0
gsave
fill
grestore
stroke
grestore
gsave
266.112 266.112 103.104 38.016 clipbox
215.303 108.448 p0_0
gsave
fill
grestore
stroke
grestore
gsave
266.112 266.112 103.104 38.016 clipbox
286.446 206.577 p0_0
gsave
fill
grestore
stroke
grestore
gsave
266.112 266.112 103.104 38.016 clipbox
322.5 220.218 p0_0
gsave
fill
grestore
stroke
grestore
gsave
266.112 266.112 103.104 38.016 clipbox
239.015 141.965 p0_0
gsave
fill
grestore
stroke
grestore
gsave
266.112 266.112 103.104 38.016 clipbox
191.258 101.353 p0_0
gsave
fill
grestore
stroke
grestore
gsave
266.112 266.112 103.104 38.016 clipbox
310.509 218.558 p0_0
gsave
fill
grestore
stroke
grestore
gsave
266.112 266.112 103.104 38.016 clipbox
298.489 214.322 p0_0
gsave
fill
grestore
stroke
grestore
gsave
266.112 266.112 103.104 38.016 clipbox
251.038 150.03 p0_0
gsave
fill
grestore
stroke
grestore
gsave
266.112 266.112 103.104 38.016 clipbox
179.204 101.146 p0_0
gsave
fill
grestore
stroke
grestore
gsave
266.112 266.112 103.104 38.016 clipbox
167.135 100.938 p0_0
gsave
fill
grestore
stroke
grestore
gsave
266.112 266.112 103.104 38.016 clipbox
274.803 190.343 p0_0
gsave
fill
grestore
stroke
grestore
gsave
266.112 266.112 103.104 38.016 clipbox
227.285 132.582 p0_0
gsave
fill
grestore
stroke
grestore
gsave
266.112 266.112 103.104 38.016 clipbox
239.333 138.223 p0_0
gsave
fill
grestore
stroke
grestore
gsave
266.112 266.112 103.104 38.016 clipbox
263.121 173.241 p0_0
gsave
fill
grestore
stroke
grestore
gsave
266.112 266.112 103.104 38.016 clipbox
323.076 219.738 p0_0
gsave
fill
grestore
stroke
grestore
gsave
266.112 266.112 103.104 38.016 clipbox
286.913 206.406 p0_0
gsave
fill
grestore
stroke
grestore
gsave
266.112 266.112 103.104 38.016 clipbox
311.05 218.307 p0_0
gsave
fill
grestore
stroke
grestore
gsave
266.112 266.112 103.104 38.016 clipbox
298.993 214.057 p0_0
gsave
fill
grestore
stroke
grestore
gsave
266.112 266.112 103.104 38.016 clipbox
251.405 156.671 p0_0
gsave
fill
grestore
stroke
grestore
gsave
266.112 266.112 103.104 38.016 clipbox
275.262 196.1 p0_0
gsave
fill
grestore
stroke
grestore
gsave
266.112 266.112 103.104 38.016 clipbox
323.652 219.018 p0_0
gsave
fill
grestore
stroke
grestore
gsave
266.112 266.112 103.104 38.016 clipbox
287.388 207.174 p0_0
gsave
fill
grestore
stroke
grestore
gsave
266.112 266.112 103.104 38.016 clipbox
311.585 216.994 p0_0
gsave
fill
grestore
stroke
grestore
gsave
266.112 266.112 103.104 38.016 clipbox
299.494 213.085 p0_0
gsave
fill
grestore
stroke
grestore
gsave
266.112 266.112 103.104 38.016 clipbox
263.539 180.228 p0_0
gsave
fill
grestore
stroke
grestore
gsave
266.112 266.112 103.104 38.016 clipbox
275.704 197.543 p0_0
gsave
fill
grestore
stroke
grestore
gsave
266.112 266.112 103.104 38.016 clipbox
324.239 218.885 p0_0
gsave
fill
grestore
stroke
grestore
gsave
266.112 266.112 103.104 38.016 clipbox
287.863 207.358 p0_0
gsave
fill
grestore
stroke
grestore
gsave
266.112 266.112 103.104 38.016 clipbox
312.138 217.327 p0_0
gsave
fill
grestore
stroke
grestore
gsave
266.112 266.112 103.104 38.016 clipbox
300.012 213.878 p0_0
gsave
fill
grestore
stroke
grestore

end
showpage
