%!PS-Adobe-3.0 EPSF-3.0
%%Title: psi_eucl_and_psi_eucl_ord_5.eps
%%Creator: Matplotlib v3.4.1, https://matplotlib.org/
%%CreationDate: Wed Aug  4 14:37:25 2021
%%Orientation: portrait
%%BoundingBox: -385 44 998 748
%%HiResBoundingBox: -385.200000 44.280000 997.200000 747.720000
%%EndComments
%%BeginProlog
/mpldict 11 dict def
mpldict begin
/d { bind def } bind def
/m { moveto } d
/l { lineto } d
/r { rlineto } d
/c { curveto } d
/cl { closepath } d
/ce { closepath eofill } d
/box {
      m
      1 index 0 r
      0 exch r
      neg 0 r
      cl
    } d
/clipbox {
      box
      clip
      newpath
    } d
/sc { setcachedevice } d
%!PS-Adobe-3.0 Resource-Font
%%Creator: Converted from TrueType to Type 3 by Matplotlib.
10 dict begin
/FontName /DejaVuSans def
/PaintType 0 def
/FontMatrix [0.00048828125 0 0 0.00048828125 0 0] def
/FontBBox [-2090 -948 3673 2524] def
/FontType 3 def
/Encoding [/period /zero /one /two /four /five /six /seven /eight] def
/CharStrings 10 dict dup begin
/.notdef 0 def
/period{651 0 219 0 430 254 sc
219 254 m
430 254 l
430 0 l
219 0 l
219 254 l

ce} d
/zero{1303 0 135 -29 1167 1520 sc
651 1360 m
547 1360 469 1309 416 1206 c
364 1104 338 950 338 745 c
338 540 364 387 416 284 c
469 182 547 131 651 131 c
756 131 834 182 886 284 c
939 387 965 540 965 745 c
965 950 939 1104 886 1206 c
834 1309 756 1360 651 1360 c

651 1520 m
818 1520 946 1454 1034 1321 c
1123 1189 1167 997 1167 745 c
1167 494 1123 302 1034 169 c
946 37 818 -29 651 -29 c
484 -29 356 37 267 169 c
179 302 135 494 135 745 c
135 997 179 1189 267 1321 c
356 1454 484 1520 651 1520 c

ce} d
/one{1303 0 225 0 1114 1493 sc
254 170 m
584 170 l
584 1309 l
225 1237 l
225 1421 l
582 1493 l
784 1493 l
784 170 l
1114 170 l
1114 0 l
254 0 l
254 170 l

ce} d
/two{1303 0 150 0 1098 1520 sc
393 170 m
1098 170 l
1098 0 l
150 0 l
150 170 l
227 249 331 356 463 489 c
596 623 679 709 713 748 c
778 821 823 882 848 932 c
874 983 887 1032 887 1081 c
887 1160 859 1225 803 1275 c
748 1325 675 1350 586 1350 c
523 1350 456 1339 385 1317 c
315 1295 240 1262 160 1217 c
160 1421 l
241 1454 317 1478 388 1495 c
459 1512 523 1520 582 1520 c
737 1520 860 1481 952 1404 c
1044 1327 1090 1223 1090 1094 c
1090 1033 1078 974 1055 919 c
1032 864 991 800 930 725 c
913 706 860 650 771 557 c
682 465 556 336 393 170 c

ce} d
/four{1303 0 100 0 1188 1493 sc
774 1317 m
264 520 l
774 520 l
774 1317 l

721 1493 m
975 1493 l
975 520 l
1188 520 l
1188 352 l
975 352 l
975 0 l
774 0 l
774 352 l
100 352 l
100 547 l
721 1493 l

ce} d
/five{1303 0 158 -29 1124 1493 sc
221 1493 m
1014 1493 l
1014 1323 l
406 1323 l
406 957 l
435 967 465 974 494 979 c
523 984 553 987 582 987 c
749 987 881 941 978 850 c
1075 759 1124 635 1124 479 c
1124 318 1074 193 974 104 c
874 15 733 -29 551 -29 c
488 -29 424 -24 359 -13 c
294 -2 227 14 158 35 c
158 238 l
218 205 280 181 344 165 c
408 149 476 141 547 141 c
662 141 754 171 821 232 c
888 293 922 375 922 479 c
922 583 888 665 821 726 c
754 787 662 817 547 817 c
493 817 439 811 385 799 c
332 787 277 768 221 743 c
221 1493 l

ce} d
/six{1303 0 143 -29 1174 1520 sc
676 827 m
585 827 513 796 460 734 c
407 672 381 587 381 479 c
381 372 407 287 460 224 c
513 162 585 131 676 131 c
767 131 838 162 891 224 c
944 287 971 372 971 479 c
971 587 944 672 891 734 c
838 796 767 827 676 827 c

1077 1460 m
1077 1276 l
1026 1300 975 1318 923 1331 c
872 1344 821 1350 770 1350 c
637 1350 535 1305 464 1215 c
394 1125 354 989 344 807 c
383 865 433 909 492 940 c
551 971 617 987 688 987 c
838 987 956 941 1043 850 c
1130 759 1174 636 1174 479 c
1174 326 1129 203 1038 110 c
947 17 827 -29 676 -29 c
503 -29 371 37 280 169 c
189 302 143 494 143 745 c
143 981 199 1169 311 1309 c
423 1450 573 1520 762 1520 c
813 1520 864 1515 915 1505 c
967 1495 1021 1480 1077 1460 c

ce} d
/seven{1303 0 168 0 1128 1493 sc
168 1493 m
1128 1493 l
1128 1407 l
586 0 l
375 0 l
885 1323 l
168 1323 l
168 1493 l

ce} d
/eight{1303 0 139 -29 1163 1520 sc
651 709 m
555 709 479 683 424 632 c
369 581 342 510 342 420 c
342 330 369 259 424 208 c
479 157 555 131 651 131 c
747 131 823 157 878 208 c
933 260 961 331 961 420 c
961 510 933 581 878 632 c
823 683 748 709 651 709 c

449 795 m
362 816 295 857 246 916 c
198 975 174 1048 174 1133 c
174 1252 216 1347 301 1416 c
386 1485 503 1520 651 1520 c
800 1520 916 1485 1001 1416 c
1086 1347 1128 1252 1128 1133 c
1128 1048 1104 975 1055 916 c
1007 857 940 816 854 795 c
951 772 1027 728 1081 662 c
1136 596 1163 515 1163 420 c
1163 275 1119 164 1030 87 c
942 10 816 -29 651 -29 c
486 -29 360 10 271 87 c
183 164 139 275 139 420 c
139 515 166 596 221 662 c
276 728 352 772 449 795 c

375 1114 m
375 1037 399 976 447 933 c
496 890 564 868 651 868 c
738 868 805 890 854 933 c
903 976 928 1037 928 1114 c
928 1191 903 1252 854 1295 c
805 1338 738 1360 651 1360 c
564 1360 496 1338 447 1295 c
399 1252 375 1191 375 1114 c

ce} d
end readonly def

/BuildGlyph {
 exch begin
 CharStrings exch
 2 copy known not {pop /.notdef} if
 true 3 1 roll get exec
 end
} d

/BuildChar {
 1 index /Encoding get exch get
 1 index /BuildGlyph get exec
} d

FontName currentdict end definefont pop
end
%%EndProlog
mpldict begin
-385.2 44.28 translate
1382.4 703.44 0 0 clipbox
gsave
0 0 m
1382.4 0 l
1382.4 703.44 l
0 703.44 l
cl
1.000 setgray
fill
grestore
gsave
437.6556 77.3784 m
979.3044 77.3784 l
979.3044 619.0272 l
437.6556 619.0272 l
cl
1.000 setgray
fill
grestore
1.000 setlinewidth
0 setlinejoin
0 setlinecap
[] 0 setdash
0.950 setgray
gsave
681.227415 302.484304 m
953.461229 243.226328 l
959.353783 491.575911 l
680.424455 536.501506 l
gsave
fill
grestore
stroke
grestore
0.900 setgray
gsave
681.227415 302.484304 m
472.248302 219.470482 l
466.05627 473.527059 l
680.424455 536.501506 l
gsave
fill
grestore
stroke
grestore
0.925 setgray
gsave
681.227415 302.484304 m
472.248302 219.470482 l
756.297408 148.335488 l
953.461229 243.226328 l
gsave
fill
grestore
stroke
grestore
0.800 setlinewidth
1 setlinejoin
2 setlinecap
0.000 setgray
gsave
953.461229 243.226328 m
756.297408 148.335488 l
stroke
grestore
0 setlinecap
0.690 setgray
gsave
946.493738 239.87302 m
673.798805 299.5334 l
672.820036 534.267574 l
stroke
grestore
gsave
923.712897 228.909075 m
649.532697 289.894052 l
647.971555 526.967893 l
stroke
grestore
gsave
900.406781 217.692327 m
624.742518 280.046525 l
622.573643 519.506806 l
stroke
grestore
gsave
876.55701 206.213929 m
599.411106 269.984001 l
596.607873 511.878902 l
stroke
grestore
gsave
852.144339 194.464619 m
573.520539 259.699361 l
570.054986 504.078522 l
stroke
grestore
gsave
827.148601 182.434691 m
547.052098 249.185169 l
542.894841 496.099749 l
stroke
grestore
gsave
801.548654 170.11397 m
519.986217 238.433653 l
515.106366 487.936393 l
stroke
grestore
gsave
775.322323 157.491783 m
492.302437 227.436687 l
486.6675 479.581973 l
stroke
grestore
2 setlinecap
0.000 setgray
gsave
944.169163 240.381592 m
951.150273 238.85426 l
stroke
grestore
/DejaVuSans 10.000 selectfont
gsave

951.777162 219.754952 translate
0.000000 rotate
0.000000 0 m /four glyphshow
6.362305 0 m /five glyphshow
grestore
gsave
921.374023 229.429303 m
928.39816 227.866948 l
stroke
grestore
gsave

929.089881 208.629069 translate
0.000000 rotate
0.000000 0 m /five glyphshow
6.362305 0 m /zero glyphshow
grestore
gsave
898.053562 218.224616 m
905.120867 216.626019 l
stroke
grestore
gsave

905.878569 197.246199 translate
0.000000 rotate
0.000000 0 m /five glyphshow
6.362305 0 m /five glyphshow
grestore
gsave
874.18941 206.758704 m
881.299996 205.122589 l
stroke
grestore
gsave

882.124857 185.597336 translate
0.000000 rotate
0.000000 0 m /six glyphshow
6.362305 0 m /zero glyphshow
grestore
gsave
849.76233 195.022324 m
856.916283 193.347355 l
stroke
grestore
gsave

857.809507 173.673045 translate
0.000000 rotate
0.000000 0 m /six glyphshow
6.362305 0 m /five glyphshow
grestore
gsave
824.752166 183.005791 m
831.949541 181.290568 l
stroke
grestore
gsave

832.912363 161.463441 translate
0.000000 rotate
0.000000 0 m /seven glyphshow
6.362305 0 m /zero glyphshow
grestore
gsave
799.137786 170.698955 m
806.378605 168.942007 l
stroke
grestore
gsave

807.412291 148.958160 translate
0.000000 rotate
0.000000 0 m /seven glyphshow
6.362305 0 m /five glyphshow
grestore
gsave
772.897029 158.091165 m
780.181276 156.290952 l
stroke
grestore
gsave

781.287121 136.146330 translate
0.000000 rotate
0.000000 0 m /eight glyphshow
6.362305 0 m /zero glyphshow
grestore
gsave
472.248302 219.470482 m
756.297408 148.335488 l
stroke
grestore
0 setlinecap
0.690 setgray
gsave
697.11897 533.812614 m
697.544665 298.932478 l
489.176365 215.231153 l
stroke
grestore
gsave
743.610052 526.324554 m
742.969365 289.044743 l
536.366568 203.413214 l
stroke
grestore
gsave
791.155212 518.666719 m
789.399976 278.938048 l
584.701001 191.308724 l
stroke
grestore
gsave
839.79071 510.83327 m
836.870286 268.605039 l
634.221794 178.907131 l
stroke
grestore
gsave
889.554487 502.818095 m
885.415612 258.038027 l
684.973166 166.197362 l
stroke
grestore
gsave
940.486266 494.614797 m
935.07289 247.228974 l
737.001564 153.167785 l
stroke
grestore
2 setlinecap
0.000 setgray
gsave
490.996492 215.962295 m
485.528001 213.765609 l
stroke
grestore
gsave

470.560824 193.731652 translate
0.000000 rotate
0.000000 0 m /four glyphshow
6.362305 0 m /five glyphshow
12.724609 0 m /zero glyphshow
grestore
gsave
538.17309 204.161971 m
532.745376 201.912324 l
stroke
grestore
gsave

517.774361 181.713530 translate
0.000000 rotate
0.000000 0 m /five glyphshow
6.362305 0 m /zero glyphshow
12.724609 0 m /zero glyphshow
grestore
gsave
586.492722 192.075739 m
581.109382 189.771192 l
stroke
grestore
gsave

566.135946 169.403175 translate
0.000000 rotate
0.000000 0 m /five glyphshow
6.362305 0 m /five glyphshow
12.724609 0 m /zero glyphshow
grestore
gsave
635.997437 179.693081 m
630.662302 177.3316 l
stroke
grestore
gsave

615.687967 156.789797 translate
0.000000 rotate
0.000000 0 m /six glyphshow
6.362305 0 m /zero glyphshow
12.724609 0 m /zero glyphshow
grestore
gsave
686.731376 167.002956 m
681.448519 164.582406 l
stroke
grestore
gsave

666.474926 143.862067 translate
0.000000 rotate
0.000000 0 m /six glyphshow
6.362305 0 m /five glyphshow
12.724609 0 m /zero glyphshow
grestore
gsave
738.740897 153.993769 m
733.514657 151.511904 l
stroke
grestore
gsave

718.543573 130.608087 translate
0.000000 rotate
0.000000 0 m /seven glyphshow
6.362305 0 m /zero glyphshow
12.724609 0 m /zero glyphshow
grestore
gsave
472.248302 219.470482 m
466.05627 473.527059 l
stroke
grestore
0 setlinecap
0.690 setgray
gsave
471.863426 235.26179 m
681.177405 317.059335 l
953.827701 258.671808 l
stroke
grestore
gsave
470.801495 278.832393 m
681.039489 357.253871 l
954.838709 301.282101 l
stroke
grestore
gsave
469.730278 322.784008 m
680.900471 397.769912 l
955.858343 344.255905 l
stroke
grestore
gsave
468.649652 367.121655 m
680.760336 438.611332 l
956.886712 387.597894 l
stroke
grestore
gsave
467.559493 411.850441 m
680.619071 479.782067 l
957.92393 431.31282 l
stroke
grestore
gsave
466.459674 456.975566 m
680.476662 521.286115 l
958.970111 475.405516 l
stroke
grestore
2 setlinecap
0.000 setgray
gsave
473.691394 235.976139 m
468.199365 233.829916 l
stroke
grestore
gsave

443.755261 226.689067 translate
0.000000 rotate
0.000000 0 m /zero glyphshow
6.362305 0 m /period glyphshow
9.541016 0 m /zero glyphshow
grestore
gsave
472.638203 279.517509 m
467.11988 277.459103 l
stroke
grestore
gsave

442.604419 270.299726 translate
0.000000 rotate
0.000000 0 m /zero glyphshow
6.362305 0 m /period glyphshow
9.541016 0 m /two glyphshow
grestore
gsave
471.575809 323.439351 m
466.030941 321.470385 l
stroke
grestore
gsave

441.443503 314.292137 translate
0.000000 rotate
0.000000 0 m /zero glyphshow
6.362305 0 m /period glyphshow
9.541016 0 m /four glyphshow
grestore
gsave
470.504091 367.746674 m
464.932423 365.868802 l
stroke
grestore
gsave

440.272380 358.671334 translate
0.000000 rotate
0.000000 0 m /zero glyphshow
6.362305 0 m /period glyphshow
9.541016 0 m /six glyphshow
grestore
gsave
469.422926 412.444576 m
463.824199 410.659485 l
stroke
grestore
gsave

439.090916 403.442441 translate
0.000000 rotate
0.000000 0 m /zero glyphshow
6.362305 0 m /period glyphshow
9.541016 0 m /eight glyphshow
grestore
gsave
468.332188 457.538243 m
462.706141 455.847657 l
stroke
grestore
gsave

437.898971 448.610672 translate
0.000000 rotate
0.000000 0 m /one glyphshow
6.362305 0 m /period glyphshow
9.541016 0 m /zero glyphshow
grestore
/p0_0 {
newpath
translate
-0 -3.535534 m
3.535534 3.535534 l
-3.535534 3.535534 l
cl

} bind def
1.000 setlinewidth
0 setlinecap
1.000 0.000 0.000 setrgbcolor
gsave
541.649 541.649 437.656 77.378 clipbox
684.897 441.692 p0_0
gsave
fill
grestore
stroke
grestore
gsave
541.649 541.649 437.656 77.378 clipbox
680.074 421.392 p0_0
gsave
fill
grestore
stroke
grestore
gsave
541.649 541.649 437.656 77.378 clipbox
675.223 407.28 p0_0
gsave
fill
grestore
stroke
grestore
gsave
541.649 541.649 437.656 77.378 clipbox
670.279 411.78 p0_0
gsave
fill
grestore
stroke
grestore
gsave
541.649 541.649 437.656 77.378 clipbox
665.411 395.532 p0_0
gsave
fill
grestore
stroke
grestore
gsave
541.649 541.649 437.656 77.378 clipbox
655.579 375.396 p0_0
gsave
fill
grestore
stroke
grestore
gsave
541.649 541.649 437.656 77.378 clipbox
650.683 359.065 p0_0
gsave
fill
grestore
stroke
grestore
gsave
541.649 541.649 437.656 77.378 clipbox
660.377 408.341 p0_0
gsave
fill
grestore
stroke
grestore
gsave
541.649 541.649 437.656 77.378 clipbox
645.621 365.541 p0_0
gsave
fill
grestore
stroke
grestore
gsave
541.649 541.649 437.656 77.378 clipbox
635.704 341.031 p0_0
gsave
fill
grestore
stroke
grestore
gsave
541.649 541.649 437.656 77.378 clipbox
731.148 460.492 p0_0
gsave
fill
grestore
stroke
grestore
gsave
541.649 541.649 437.656 77.378 clipbox
640.56 367.883 p0_0
gsave
fill
grestore
stroke
grestore
gsave
541.649 541.649 437.656 77.378 clipbox
630.659 337.06 p0_0
gsave
fill
grestore
stroke
grestore
gsave
541.649 541.649 437.656 77.378 clipbox
726.291 456.757 p0_0
gsave
fill
grestore
stroke
grestore
gsave
541.649 541.649 437.656 77.378 clipbox
721.405 436.14 p0_0
gsave
fill
grestore
stroke
grestore
gsave
541.649 541.649 437.656 77.378 clipbox
625.704 320.568 p0_0
gsave
fill
grestore
stroke
grestore
gsave
541.649 541.649 437.656 77.378 clipbox
620.644 314.461 p0_0
gsave
fill
grestore
stroke
grestore
gsave
541.649 541.649 437.656 77.378 clipbox
716.518 445.014 p0_0
gsave
fill
grestore
stroke
grestore
gsave
541.649 541.649 437.656 77.378 clipbox
711.607 432.766 p0_0
gsave
fill
grestore
stroke
grestore
gsave
541.649 541.649 437.656 77.378 clipbox
615.421 322.958 p0_0
gsave
fill
grestore
stroke
grestore
gsave
541.649 541.649 437.656 77.378 clipbox
610.427 306.36 p0_0
gsave
fill
grestore
stroke
grestore
gsave
541.649 541.649 437.656 77.378 clipbox
706.678 428.951 p0_0
gsave
fill
grestore
stroke
grestore
gsave
541.649 541.649 437.656 77.378 clipbox
701.747 412.413 p0_0
gsave
fill
grestore
stroke
grestore
gsave
541.649 541.649 437.656 77.378 clipbox
696.808 395.851 p0_0
gsave
fill
grestore
stroke
grestore
gsave
541.649 541.649 437.656 77.378 clipbox
605.241 306.476 p0_0
gsave
fill
grestore
stroke
grestore
gsave
541.649 541.649 437.656 77.378 clipbox
600.175 294.002 p0_0
gsave
fill
grestore
stroke
grestore
gsave
541.649 541.649 437.656 77.378 clipbox
691.806 402.543 p0_0
gsave
fill
grestore
stroke
grestore
gsave
541.649 541.649 437.656 77.378 clipbox
594.946 294.088 p0_0
gsave
fill
grestore
stroke
grestore
gsave
541.649 541.649 437.656 77.378 clipbox
778.74 486.242 p0_0
gsave
fill
grestore
stroke
grestore
gsave
541.649 541.649 437.656 77.378 clipbox
686.799 400.767 p0_0
gsave
fill
grestore
stroke
grestore
gsave
541.649 541.649 437.656 77.378 clipbox
773.859 473.931 p0_0
gsave
fill
grestore
stroke
grestore
gsave
541.649 541.649 437.656 77.378 clipbox
589.796 285.758 p0_0
gsave
fill
grestore
stroke
grestore
gsave
541.649 541.649 437.656 77.378 clipbox
681.818 384.095 p0_0
gsave
fill
grestore
stroke
grestore
gsave
541.649 541.649 437.656 77.378 clipbox
769.021 472.309 p0_0
gsave
fill
grestore
stroke
grestore
gsave
541.649 541.649 437.656 77.378 clipbox
676.79 378.018 p0_0
gsave
fill
grestore
stroke
grestore
gsave
541.649 541.649 437.656 77.378 clipbox
584.521 285.823 p0_0
gsave
fill
grestore
stroke
grestore
gsave
541.649 541.649 437.656 77.378 clipbox
764.081 453.507 p0_0
gsave
fill
grestore
stroke
grestore
gsave
541.649 541.649 437.656 77.378 clipbox
671.771 365.537 p0_0
gsave
fill
grestore
stroke
grestore
gsave
541.649 541.649 437.656 77.378 clipbox
666.771 346.652 p0_0
gsave
fill
grestore
stroke
grestore
gsave
541.649 541.649 437.656 77.378 clipbox
579.334 277.446 p0_0
gsave
fill
grestore
stroke
grestore
gsave
541.649 541.649 437.656 77.378 clipbox
759.217 453.983 p0_0
gsave
fill
grestore
stroke
grestore
gsave
541.649 541.649 437.656 77.378 clipbox
574.071 273.265 p0_0
gsave
fill
grestore
stroke
grestore
gsave
541.649 541.649 437.656 77.378 clipbox
661.617 355.388 p0_0
gsave
fill
grestore
stroke
grestore
gsave
541.649 541.649 437.656 77.378 clipbox
754.322 452.308 p0_0
gsave
fill
grestore
stroke
grestore
gsave
541.649 541.649 437.656 77.378 clipbox
656.567 340.686 p0_0
gsave
fill
grestore
stroke
grestore
gsave
541.649 541.649 437.656 77.378 clipbox
568.601 281.779 p0_0
gsave
fill
grestore
stroke
grestore
gsave
541.649 541.649 437.656 77.378 clipbox
749.404 450.626 p0_0
gsave
fill
grestore
stroke
grestore
gsave
541.649 541.649 437.656 77.378 clipbox
646.467 306.937 p0_0
gsave
fill
grestore
stroke
grestore
gsave
541.649 541.649 437.656 77.378 clipbox
744.416 431.67 p0_0
gsave
fill
grestore
stroke
grestore
gsave
541.649 541.649 437.656 77.378 clipbox
651.426 338.751 p0_0
gsave
fill
grestore
stroke
grestore
gsave
541.649 541.649 437.656 77.378 clipbox
563.416 269.093 p0_0
gsave
fill
grestore
stroke
grestore
gsave
541.649 541.649 437.656 77.378 clipbox
827.47 486.677 p0_0
gsave
fill
grestore
stroke
grestore
gsave
541.649 541.649 437.656 77.378 clipbox
558.153 260.62 p0_0
gsave
fill
grestore
stroke
grestore
gsave
541.649 541.649 437.656 77.378 clipbox
822.631 478.553 p0_0
gsave
fill
grestore
stroke
grestore
gsave
541.649 541.649 437.656 77.378 clipbox
739.472 434.256 p0_0
gsave
fill
grestore
stroke
grestore
gsave
541.649 541.649 437.656 77.378 clipbox
641.169 322.006 p0_0
gsave
fill
grestore
stroke
grestore
gsave
541.649 541.649 437.656 77.378 clipbox
552.735 260.625 p0_0
gsave
fill
grestore
stroke
grestore
gsave
541.649 541.649 437.656 77.378 clipbox
636.066 307.175 p0_0
gsave
fill
grestore
stroke
grestore
gsave
541.649 541.649 437.656 77.378 clipbox
817.885 481.271 p0_0
gsave
fill
grestore
stroke
grestore
gsave
541.649 541.649 437.656 77.378 clipbox
734.502 436.857 p0_0
gsave
fill
grestore
stroke
grestore
gsave
541.649 541.649 437.656 77.378 clipbox
729.476 417.781 p0_0
gsave
fill
grestore
stroke
grestore
gsave
541.649 541.649 437.656 77.378 clipbox
630.863 303.011 p0_0
gsave
fill
grestore
stroke
grestore
gsave
541.649 541.649 437.656 77.378 clipbox
547.325 258.497 p0_0
gsave
fill
grestore
stroke
grestore
gsave
541.649 541.649 437.656 77.378 clipbox
813.03 475.281 p0_0
gsave
fill
grestore
stroke
grestore
gsave
541.649 541.649 437.656 77.378 clipbox
724.459 416.005 p0_0
gsave
fill
grestore
stroke
grestore
gsave
541.649 541.649 437.656 77.378 clipbox
719.412 392.534 p0_0
gsave
fill
grestore
stroke
grestore
gsave
541.649 541.649 437.656 77.378 clipbox
541.892 256.359 p0_0
gsave
fill
grestore
stroke
grestore
gsave
541.649 541.649 437.656 77.378 clipbox
808.197 473.634 p0_0
gsave
fill
grestore
stroke
grestore
gsave
541.649 541.649 437.656 77.378 clipbox
625.524 311.715 p0_0
gsave
fill
grestore
stroke
grestore
gsave
541.649 541.649 437.656 77.378 clipbox
620.414 292.482 p0_0
gsave
fill
grestore
stroke
grestore
gsave
541.649 541.649 437.656 77.378 clipbox
803.268 463.235 p0_0
gsave
fill
grestore
stroke
grestore
gsave
541.649 541.649 437.656 77.378 clipbox
536.471 252.071 p0_0
gsave
fill
grestore
stroke
grestore
gsave
541.649 541.649 437.656 77.378 clipbox
714.358 401.552 p0_0
gsave
fill
grestore
stroke
grestore
gsave
541.649 541.649 437.656 77.378 clipbox
709.286 386.679 p0_0
gsave
fill
grestore
stroke
grestore
gsave
541.649 541.649 437.656 77.378 clipbox
877.315 480.542 p0_0
gsave
fill
grestore
stroke
grestore
gsave
541.649 541.649 437.656 77.378 clipbox
615.104 292.566 p0_0
gsave
fill
grestore
stroke
grestore
gsave
541.649 541.649 437.656 77.378 clipbox
530.989 249.91 p0_0
gsave
fill
grestore
stroke
grestore
gsave
541.649 541.649 437.656 77.378 clipbox
609.905 279.718 p0_0
gsave
fill
grestore
stroke
grestore
gsave
541.649 541.649 437.656 77.378 clipbox
798.501 474.706 p0_0
gsave
fill
grestore
stroke
grestore
gsave
541.649 541.649 437.656 77.378 clipbox
793.433 451.1 p0_0
gsave
fill
grestore
stroke
grestore
gsave
541.649 541.649 437.656 77.378 clipbox
704.194 380.469 p0_0
gsave
fill
grestore
stroke
grestore
gsave
541.649 541.649 437.656 77.378 clipbox
872.601 478.898 p0_0
gsave
fill
grestore
stroke
grestore
gsave
541.649 541.649 437.656 77.378 clipbox
699.105 361.186 p0_0
gsave
fill
grestore
stroke
grestore
gsave
541.649 541.649 437.656 77.378 clipbox
525.523 245.59 p0_0
gsave
fill
grestore
stroke
grestore
gsave
541.649 541.649 437.656 77.378 clipbox
604.645 271.146 p0_0
gsave
fill
grestore
stroke
grestore
gsave
541.649 541.649 437.656 77.378 clipbox
788.504 447.191 p0_0
gsave
fill
grestore
stroke
grestore
gsave
541.649 541.649 437.656 77.378 clipbox
693.987 352.739 p0_0
gsave
fill
grestore
stroke
grestore
gsave
541.649 541.649 437.656 77.378 clipbox
867.865 477.246 p0_0
gsave
fill
grestore
stroke
grestore
gsave
541.649 541.649 437.656 77.378 clipbox
599.318 266.859 p0_0
gsave
fill
grestore
stroke
grestore
gsave
541.649 541.649 437.656 77.378 clipbox
519.865 249.866 p0_0
gsave
fill
grestore
stroke
grestore
gsave
541.649 541.649 437.656 77.378 clipbox
783.569 445.464 p0_0
gsave
fill
grestore
stroke
grestore
gsave
541.649 541.649 437.656 77.378 clipbox
863.108 475.587 p0_0
gsave
fill
grestore
stroke
grestore
gsave
541.649 541.649 437.656 77.378 clipbox
593.969 262.555 p0_0
gsave
fill
grestore
stroke
grestore
gsave
541.649 541.649 437.656 77.378 clipbox
514.435 241.208 p0_0
gsave
fill
grestore
stroke
grestore
gsave
541.649 541.649 437.656 77.378 clipbox
683.699 335.762 p0_0
gsave
fill
grestore
stroke
grestore
gsave
541.649 541.649 437.656 77.378 clipbox
778.557 434.926 p0_0
gsave
fill
grestore
stroke
grestore
gsave
541.649 541.649 437.656 77.378 clipbox
688.799 363.883 p0_0
gsave
fill
grestore
stroke
grestore
gsave
541.649 541.649 437.656 77.378 clipbox
858.298 471.709 p0_0
gsave
fill
grestore
stroke
grestore
gsave
541.649 541.649 437.656 77.378 clipbox
588.542 262.565 p0_0
gsave
fill
grestore
stroke
grestore
gsave
541.649 541.649 437.656 77.378 clipbox
773.593 435.369 p0_0
gsave
fill
grestore
stroke
grestore
gsave
541.649 541.649 437.656 77.378 clipbox
508.764 243.327 p0_0
gsave
fill
grestore
stroke
grestore
gsave
541.649 541.649 437.656 77.378 clipbox
678.482 340.323 p0_0
gsave
fill
grestore
stroke
grestore
gsave
541.649 541.649 437.656 77.378 clipbox
853.379 461.178 p0_0
gsave
fill
grestore
stroke
grestore
gsave
541.649 541.649 437.656 77.378 clipbox
768.502 415.959 p0_0
gsave
fill
grestore
stroke
grestore
gsave
541.649 541.649 437.656 77.378 clipbox
583.203 253.893 p0_0
gsave
fill
grestore
stroke
grestore
gsave
541.649 541.649 437.656 77.378 clipbox
503.246 236.786 p0_0
gsave
fill
grestore
stroke
grestore
gsave
541.649 541.649 437.656 77.378 clipbox
928.356 474.26 p0_0
gsave
fill
grestore
stroke
grestore
gsave
541.649 541.649 437.656 77.378 clipbox
848.647 466.124 p0_0
gsave
fill
grestore
stroke
grestore
gsave
541.649 541.649 437.656 77.378 clipbox
577.787 249.534 p0_0
gsave
fill
grestore
stroke
grestore
gsave
541.649 541.649 437.656 77.378 clipbox
758.394 399.08 p0_0
gsave
fill
grestore
stroke
grestore
gsave
541.649 541.649 437.656 77.378 clipbox
668.058 327.577 p0_0
gsave
fill
grestore
stroke
grestore
gsave
541.649 541.649 437.656 77.378 clipbox
763.549 427.405 p0_0
gsave
fill
grestore
stroke
grestore
gsave
541.649 541.649 437.656 77.378 clipbox
923.703 472.581 p0_0
gsave
fill
grestore
stroke
grestore
gsave
541.649 541.649 437.656 77.378 clipbox
673.187 355.885 p0_0
gsave
fill
grestore
stroke
grestore
gsave
541.649 541.649 437.656 77.378 clipbox
843.748 459.979 p0_0
gsave
fill
grestore
stroke
grestore
gsave
541.649 541.649 437.656 77.378 clipbox
753.314 390.598 p0_0
gsave
fill
grestore
stroke
grestore
gsave
541.649 541.649 437.656 77.378 clipbox
662.805 323.362 p0_0
gsave
fill
grestore
stroke
grestore
gsave
541.649 541.649 437.656 77.378 clipbox
918.94 466.443 p0_0
gsave
fill
grestore
stroke
grestore
gsave
541.649 541.649 437.656 77.378 clipbox
572.254 251.689 p0_0
gsave
fill
grestore
stroke
grestore
gsave
541.649 541.649 437.656 77.378 clipbox
838.777 449.365 p0_0
gsave
fill
grestore
stroke
grestore
gsave
541.649 541.649 437.656 77.378 clipbox
748.232 386.509 p0_0
gsave
fill
grestore
stroke
grestore
gsave
541.649 541.649 437.656 77.378 clipbox
566.886 240.763 p0_0
gsave
fill
grestore
stroke
grestore
gsave
541.649 541.649 437.656 77.378 clipbox
657.53 319.129 p0_0
gsave
fill
grestore
stroke
grestore
gsave
541.649 541.649 437.656 77.378 clipbox
652.358 295.105 p0_0
gsave
fill
grestore
stroke
grestore
gsave
541.649 541.649 437.656 77.378 clipbox
914.289 466.97 p0_0
gsave
fill
grestore
stroke
grestore
gsave
541.649 541.649 437.656 77.378 clipbox
833.921 449.849 p0_0
gsave
fill
grestore
stroke
grestore
gsave
541.649 541.649 437.656 77.378 clipbox
743.129 382.402 p0_0
gsave
fill
grestore
stroke
grestore
gsave
541.649 541.649 437.656 77.378 clipbox
647.094 284.218 p0_0
gsave
fill
grestore
stroke
grestore
gsave
541.649 541.649 437.656 77.378 clipbox
561.368 238.533 p0_0
gsave
fill
grestore
stroke
grestore
gsave
541.649 541.649 437.656 77.378 clipbox
909.572 465.263 p0_0
gsave
fill
grestore
stroke
grestore
gsave
541.649 541.649 437.656 77.378 clipbox
829.039 450.335 p0_0
gsave
fill
grestore
stroke
grestore
gsave
541.649 541.649 437.656 77.378 clipbox
555.823 236.292 p0_0
gsave
fill
grestore
stroke
grestore
gsave
541.649 541.649 437.656 77.378 clipbox
738.028 389.382 p0_0
gsave
fill
grestore
stroke
grestore
gsave
541.649 541.649 437.656 77.378 clipbox
641.685 290.885 p0_0
gsave
fill
grestore
stroke
grestore
gsave
541.649 541.649 437.656 77.378 clipbox
904.792 461.309 p0_0
gsave
fill
grestore
stroke
grestore
gsave
541.649 541.649 437.656 77.378 clipbox
824.038 441.872 p0_0
gsave
fill
grestore
stroke
grestore
gsave
541.649 541.649 437.656 77.378 clipbox
732.854 371.914 p0_0
gsave
fill
grestore
stroke
grestore
gsave
541.649 541.649 437.656 77.378 clipbox
550.398 225.277 p0_0
gsave
fill
grestore
stroke
grestore
gsave
541.649 541.649 437.656 77.378 clipbox
636.434 273.337 p0_0
gsave
fill
grestore
stroke
grestore
gsave
541.649 541.649 437.656 77.378 clipbox
818.998 431.144 p0_0
gsave
fill
grestore
stroke
grestore
gsave
541.649 541.649 437.656 77.378 clipbox
900.032 459.581 p0_0
gsave
fill
grestore
stroke
grestore
gsave
541.649 541.649 437.656 77.378 clipbox
631.044 271.17 p0_0
gsave
fill
grestore
stroke
grestore
gsave
541.649 541.649 437.656 77.378 clipbox
727.694 374.431 p0_0
gsave
fill
grestore
stroke
grestore
gsave
541.649 541.649 437.656 77.378 clipbox
814.029 429.343 p0_0
gsave
fill
grestore
stroke
grestore
gsave
541.649 541.649 437.656 77.378 clipbox
895.25 457.845 p0_0
gsave
fill
grestore
stroke
grestore
gsave
541.649 541.649 437.656 77.378 clipbox
625.668 264.576 p0_0
gsave
fill
grestore
stroke
grestore
gsave
541.649 541.649 437.656 77.378 clipbox
620.419 242.51 p0_0
gsave
fill
grestore
stroke
grestore
gsave
541.649 541.649 437.656 77.378 clipbox
809.037 427.533 p0_0
gsave
fill
grestore
stroke
grestore
gsave
541.649 541.649 437.656 77.378 clipbox
890.368 451.596 p0_0
gsave
fill
grestore
stroke
grestore
gsave
541.649 541.649 437.656 77.378 clipbox
722.509 381.433 p0_0
gsave
fill
grestore
stroke
grestore
gsave
541.649 541.649 437.656 77.378 clipbox
717.287 366.075 p0_0
gsave
fill
grestore
stroke
grestore
gsave
541.649 541.649 437.656 77.378 clipbox
712.055 350.685 p0_0
gsave
fill
grestore
stroke
grestore
gsave
541.649 541.649 437.656 77.378 clipbox
804.021 425.715 p0_0
gsave
fill
grestore
stroke
grestore
gsave
541.649 541.649 437.656 77.378 clipbox
614.834 253.525 p0_0
gsave
fill
grestore
stroke
grestore
gsave
541.649 541.649 437.656 77.378 clipbox
885.618 454.35 p0_0
gsave
fill
grestore
stroke
grestore
gsave
541.649 541.649 437.656 77.378 clipbox
798.908 414.872 p0_0
gsave
fill
grestore
stroke
grestore
gsave
541.649 541.649 437.656 77.378 clipbox
706.803 344.206 p0_0
gsave
fill
grestore
stroke
grestore
gsave
541.649 541.649 437.656 77.378 clipbox
609.395 246.858 p0_0
gsave
fill
grestore
stroke
grestore
gsave
541.649 541.649 437.656 77.378 clipbox
880.694 448.064 p0_0
gsave
fill
grestore
stroke
grestore
gsave
541.649 541.649 437.656 77.378 clipbox
701.538 333.223 p0_0
gsave
fill
grestore
stroke
grestore
gsave
541.649 541.649 437.656 77.378 clipbox
696.28 311.025 p0_0
gsave
fill
grestore
stroke
grestore
gsave
541.649 541.649 437.656 77.378 clipbox
793.901 419.793 p0_0
gsave
fill
grestore
stroke
grestore
gsave
541.649 541.649 437.656 77.378 clipbox
875.788 444.019 p0_0
gsave
fill
grestore
stroke
grestore
gsave
541.649 541.649 437.656 77.378 clipbox
788.67 397.6 p0_0
gsave
fill
grestore
stroke
grestore
gsave
541.649 541.649 437.656 77.378 clipbox
603.837 249.05 p0_0
gsave
fill
grestore
stroke
grestore
gsave
541.649 541.649 437.656 77.378 clipbox
690.962 311.16 p0_0
gsave
fill
grestore
stroke
grestore
gsave
541.649 541.649 437.656 77.378 clipbox
870.792 435.42 p0_0
gsave
fill
grestore
stroke
grestore
gsave
541.649 541.649 437.656 77.378 clipbox
598.403 237.893 p0_0
gsave
fill
grestore
stroke
grestore
gsave
541.649 541.649 437.656 77.378 clipbox
783.6 400.222 p0_0
gsave
fill
grestore
stroke
grestore
gsave
541.649 541.649 437.656 77.378 clipbox
865.845 431.332 p0_0
gsave
fill
grestore
stroke
grestore
gsave
541.649 541.649 437.656 77.378 clipbox
685.623 309.05 p0_0
gsave
fill
grestore
stroke
grestore
gsave
541.649 541.649 437.656 77.378 clipbox
680.283 300.187 p0_0
gsave
fill
grestore
stroke
grestore
gsave
541.649 541.649 437.656 77.378 clipbox
778.529 407.4 p0_0
gsave
fill
grestore
stroke
grestore
gsave
541.649 541.649 437.656 77.378 clipbox
860.942 431.781 p0_0
gsave
fill
grestore
stroke
grestore
gsave
541.649 541.649 437.656 77.378 clipbox
674.934 289.045 p0_0
gsave
fill
grestore
stroke
grestore
gsave
541.649 541.649 437.656 77.378 clipbox
773.335 398.684 p0_0
gsave
fill
grestore
stroke
grestore
gsave
541.649 541.649 437.656 77.378 clipbox
768.065 378.572 p0_0
gsave
fill
grestore
stroke
grestore
gsave
541.649 541.649 437.656 77.378 clipbox
669.558 280.119 p0_0
gsave
fill
grestore
stroke
grestore
gsave
541.649 541.649 437.656 77.378 clipbox
856.013 432.232 p0_0
gsave
fill
grestore
stroke
grestore
gsave
541.649 541.649 437.656 77.378 clipbox
762.862 374.333 p0_0
gsave
fill
grestore
stroke
grestore
gsave
541.649 541.649 437.656 77.378 clipbox
664.141 275.667 p0_0
gsave
fill
grestore
stroke
grestore
gsave
541.649 541.649 437.656 77.378 clipbox
851.029 430.395 p0_0
gsave
fill
grestore
stroke
grestore
gsave
541.649 541.649 437.656 77.378 clipbox
757.618 365.521 p0_0
gsave
fill
grestore
stroke
grestore
gsave
541.649 541.649 437.656 77.378 clipbox
846.02 428.55 p0_0
gsave
fill
grestore
stroke
grestore
gsave
541.649 541.649 437.656 77.378 clipbox
658.624 284.755 p0_0
gsave
fill
grestore
stroke
grestore
gsave
541.649 541.649 437.656 77.378 clipbox
840.819 412.922 p0_0
gsave
fill
grestore
stroke
grestore
gsave
541.649 541.649 437.656 77.378 clipbox
752.397 368.084 p0_0
gsave
fill
grestore
stroke
grestore
gsave
541.649 541.649 437.656 77.378 clipbox
747.062 343.248 p0_0
gsave
fill
grestore
stroke
grestore
gsave
541.649 541.649 437.656 77.378 clipbox
653.166 278.021 p0_0
gsave
fill
grestore
stroke
grestore
gsave
541.649 541.649 437.656 77.378 clipbox
835.687 404.14 p0_0
gsave
fill
grestore
stroke
grestore
gsave
541.649 541.649 437.656 77.378 clipbox
741.778 338.903 p0_0
gsave
fill
grestore
stroke
grestore
gsave
541.649 541.649 437.656 77.378 clipbox
647.687 271.261 p0_0
gsave
fill
grestore
stroke
grestore
gsave
541.649 541.649 437.656 77.378 clipbox
830.668 406.824 p0_0
gsave
fill
grestore
stroke
grestore
gsave
541.649 541.649 437.656 77.378 clipbox
736.48 339.114 p0_0
gsave
fill
grestore
stroke
grestore
gsave
541.649 541.649 437.656 77.378 clipbox
825.445 393.386 p0_0
gsave
fill
grestore
stroke
grestore
gsave
541.649 541.649 437.656 77.378 clipbox
731.129 323.291 p0_0
gsave
fill
grestore
stroke
grestore
gsave
541.649 541.649 437.656 77.378 clipbox
820.234 382.215 p0_0
gsave
fill
grestore
stroke
grestore
gsave
541.649 541.649 437.656 77.378 clipbox
725.77 309.721 p0_0
gsave
fill
grestore
stroke
grestore
gsave
541.649 541.649 437.656 77.378 clipbox
720.409 321.335 p0_0
gsave
fill
grestore
stroke
grestore
gsave
541.649 541.649 437.656 77.378 clipbox
815.277 398.729 p0_0
gsave
fill
grestore
stroke
grestore
gsave
541.649 541.649 437.656 77.378 clipbox
810.02 387.503 p0_0
gsave
fill
grestore
stroke
grestore
gsave
541.649 541.649 437.656 77.378 clipbox
715.007 319.197 p0_0
gsave
fill
grestore
stroke
grestore
gsave
541.649 541.649 437.656 77.378 clipbox
799.381 355.68 p0_0
gsave
fill
grestore
stroke
grestore
gsave
541.649 541.649 437.656 77.378 clipbox
709.581 314.741 p0_0
gsave
fill
grestore
stroke
grestore
gsave
541.649 541.649 437.656 77.378 clipbox
804.93 397.147 p0_0
gsave
fill
grestore
stroke
grestore
gsave
541.649 541.649 437.656 77.378 clipbox
794.278 369.883 p0_0
gsave
fill
grestore
stroke
grestore
gsave
541.649 541.649 437.656 77.378 clipbox
698.673 296.516 p0_0
gsave
fill
grestore
stroke
grestore
gsave
541.649 541.649 437.656 77.378 clipbox
704.11 328.792 p0_0
gsave
fill
grestore
stroke
grestore
gsave
541.649 541.649 437.656 77.378 clipbox
788.931 356.198 p0_0
gsave
fill
grestore
stroke
grestore
gsave
541.649 541.649 437.656 77.378 clipbox
783.695 361.129 p0_0
gsave
fill
grestore
stroke
grestore
gsave
541.649 541.649 437.656 77.378 clipbox
778.297 345.037 p0_0
gsave
fill
grestore
stroke
grestore
gsave
541.649 541.649 437.656 77.378 clipbox
767.56 331.439 p0_0
gsave
fill
grestore
stroke
grestore
gsave
541.649 541.649 437.656 77.378 clipbox
773.072 361.681 p0_0
gsave
fill
grestore
stroke
grestore
gsave
541.649 541.649 437.656 77.378 clipbox
762.181 329.289 p0_0
gsave
fill
grestore
stroke
grestore
gsave
541.649 541.649 437.656 77.378 clipbox
756.804 334.187 p0_0
gsave
fill
grestore
stroke
grestore
gsave
541.649 541.649 437.656 77.378 clipbox
751.368 332.032 p0_0
gsave
fill
grestore
stroke
grestore
/p1_0 {
newpath
translate
-3.535534 -3.535534 m
3.535534 3.535534 l
-3.535534 3.535534 m
3.535534 -3.535534 l

} bind def
1.500 setlinewidth
0.000 0.000 1.000 setrgbcolor
gsave
541.649 541.649 437.656 77.378 clipbox
684.903 439.62 p1_0
gsave
fill
grestore
stroke
grestore
gsave
541.649 541.649 437.656 77.378 clipbox
680.059 425.532 p1_0
gsave
fill
grestore
stroke
grestore
gsave
541.649 541.649 437.656 77.378 clipbox
675.181 417.631 p1_0
gsave
fill
grestore
stroke
grestore
gsave
541.649 541.649 437.656 77.378 clipbox
670.298 407.632 p1_0
gsave
fill
grestore
stroke
grestore
gsave
541.649 541.649 437.656 77.378 clipbox
665.38 401.755 p1_0
gsave
fill
grestore
stroke
grestore
gsave
541.649 541.649 437.656 77.378 clipbox
655.616 369.176 p1_0
gsave
fill
grestore
stroke
grestore
gsave
541.649 541.649 437.656 77.378 clipbox
660.388 406.258 p1_0
gsave
fill
grestore
stroke
grestore
gsave
541.649 541.649 437.656 77.378 clipbox
650.669 361.138 p1_0
gsave
fill
grestore
stroke
grestore
gsave
541.649 541.649 437.656 77.378 clipbox
645.593 369.704 p1_0
gsave
fill
grestore
stroke
grestore
gsave
541.649 541.649 437.656 77.378 clipbox
635.737 336.872 p1_0
gsave
fill
grestore
stroke
grestore
gsave
541.649 541.649 437.656 77.378 clipbox
640.576 365.797 p1_0
gsave
fill
grestore
stroke
grestore
gsave
541.649 541.649 437.656 77.378 clipbox
731.158 466.811 p1_0
gsave
fill
grestore
stroke
grestore
gsave
541.649 541.649 437.656 77.378 clipbox
630.641 339.144 p1_0
gsave
fill
grestore
stroke
grestore
gsave
541.649 541.649 437.656 77.378 clipbox
726.293 458.866 p1_0
gsave
fill
grestore
stroke
grestore
gsave
541.649 541.649 437.656 77.378 clipbox
625.723 318.487 p1_0
gsave
fill
grestore
stroke
grestore
gsave
541.649 541.649 437.656 77.378 clipbox
721.407 440.352 p1_0
gsave
fill
grestore
stroke
grestore
gsave
541.649 541.649 437.656 77.378 clipbox
620.664 312.377 p1_0
gsave
fill
grestore
stroke
grestore
gsave
541.649 541.649 437.656 77.378 clipbox
716.517 442.901 p1_0
gsave
fill
grestore
stroke
grestore
gsave
541.649 541.649 437.656 77.378 clipbox
615.421 322.958 p1_0
gsave
fill
grestore
stroke
grestore
gsave
541.649 541.649 437.656 77.378 clipbox
711.604 441.228 p1_0
gsave
fill
grestore
stroke
grestore
gsave
541.649 541.649 437.656 77.378 clipbox
706.676 431.069 p1_0
gsave
fill
grestore
stroke
grestore
gsave
541.649 541.649 437.656 77.378 clipbox
610.339 314.73 p1_0
gsave
fill
grestore
stroke
grestore
gsave
541.649 541.649 437.656 77.378 clipbox
701.741 416.646 p1_0
gsave
fill
grestore
stroke
grestore
gsave
541.649 541.649 437.656 77.378 clipbox
696.804 397.965 p1_0
gsave
fill
grestore
stroke
grestore
gsave
541.649 541.649 437.656 77.378 clipbox
605.264 304.38 p1_0
gsave
fill
grestore
stroke
grestore
gsave
541.649 541.649 437.656 77.378 clipbox
600.199 291.907 p1_0
gsave
fill
grestore
stroke
grestore
gsave
541.649 541.649 437.656 77.378 clipbox
691.806 402.543 p1_0
gsave
fill
grestore
stroke
grestore
gsave
541.649 541.649 437.656 77.378 clipbox
594.946 294.088 p1_0
gsave
fill
grestore
stroke
grestore
gsave
541.649 541.649 437.656 77.378 clipbox
778.74 486.242 p1_0
gsave
fill
grestore
stroke
grestore
gsave
541.649 541.649 437.656 77.378 clipbox
773.822 467.511 p1_0
gsave
fill
grestore
stroke
grestore
gsave
541.649 541.649 437.656 77.378 clipbox
589.849 281.555 p1_0
gsave
fill
grestore
stroke
grestore
gsave
541.649 541.649 437.656 77.378 clipbox
686.799 400.767 p1_0
gsave
fill
grestore
stroke
grestore
gsave
541.649 541.649 437.656 77.378 clipbox
681.818 384.095 p1_0
gsave
fill
grestore
stroke
grestore
gsave
541.649 541.649 437.656 77.378 clipbox
769.021 472.309 p1_0
gsave
fill
grestore
stroke
grestore
gsave
541.649 541.649 437.656 77.378 clipbox
764.071 451.364 p1_0
gsave
fill
grestore
stroke
grestore
gsave
541.649 541.649 437.656 77.378 clipbox
584.493 287.931 p1_0
gsave
fill
grestore
stroke
grestore
gsave
541.649 541.649 437.656 77.378 clipbox
676.765 384.401 p1_0
gsave
fill
grestore
stroke
grestore
gsave
541.649 541.649 437.656 77.378 clipbox
671.771 365.537 p1_0
gsave
fill
grestore
stroke
grestore
gsave
541.649 541.649 437.656 77.378 clipbox
666.781 344.529 p1_0
gsave
fill
grestore
stroke
grestore
gsave
541.649 541.649 437.656 77.378 clipbox
579.334 277.446 p1_0
gsave
fill
grestore
stroke
grestore
gsave
541.649 541.649 437.656 77.378 clipbox
759.217 453.983 p1_0
gsave
fill
grestore
stroke
grestore
gsave
541.649 541.649 437.656 77.378 clipbox
574.041 275.378 p1_0
gsave
fill
grestore
stroke
grestore
gsave
541.649 541.649 437.656 77.378 clipbox
661.629 353.257 p1_0
gsave
fill
grestore
stroke
grestore
gsave
541.649 541.649 437.656 77.378 clipbox
754.322 452.308 p1_0
gsave
fill
grestore
stroke
grestore
gsave
541.649 541.649 437.656 77.378 clipbox
656.555 342.817 p1_0
gsave
fill
grestore
stroke
grestore
gsave
541.649 541.649 437.656 77.378 clipbox
568.632 279.658 p1_0
gsave
fill
grestore
stroke
grestore
gsave
541.649 541.649 437.656 77.378 clipbox
749.404 450.626 p1_0
gsave
fill
grestore
stroke
grestore
gsave
541.649 541.649 437.656 77.378 clipbox
651.453 334.482 p1_0
gsave
fill
grestore
stroke
grestore
gsave
541.649 541.649 437.656 77.378 clipbox
646.423 313.323 p1_0
gsave
fill
grestore
stroke
grestore
gsave
541.649 541.649 437.656 77.378 clipbox
744.422 433.825 p1_0
gsave
fill
grestore
stroke
grestore
gsave
541.649 541.649 437.656 77.378 clipbox
563.416 269.093 p1_0
gsave
fill
grestore
stroke
grestore
gsave
541.649 541.649 437.656 77.378 clipbox
827.47 486.677 p1_0
gsave
fill
grestore
stroke
grestore
gsave
541.649 541.649 437.656 77.378 clipbox
558.12 262.744 p1_0
gsave
fill
grestore
stroke
grestore
gsave
541.649 541.649 437.656 77.378 clipbox
739.462 429.936 p1_0
gsave
fill
grestore
stroke
grestore
gsave
541.649 541.649 437.656 77.378 clipbox
822.608 476.383 p1_0
gsave
fill
grestore
stroke
grestore
gsave
541.649 541.649 437.656 77.378 clipbox
641.185 319.868 p1_0
gsave
fill
grestore
stroke
grestore
gsave
541.649 541.649 437.656 77.378 clipbox
552.735 260.625 p1_0
gsave
fill
grestore
stroke
grestore
gsave
541.649 541.649 437.656 77.378 clipbox
636.049 309.314 p1_0
gsave
fill
grestore
stroke
grestore
gsave
541.649 541.649 437.656 77.378 clipbox
734.498 434.69 p1_0
gsave
fill
grestore
stroke
grestore
gsave
541.649 541.649 437.656 77.378 clipbox
817.885 481.271 p1_0
gsave
fill
grestore
stroke
grestore
gsave
541.649 541.649 437.656 77.378 clipbox
729.479 419.946 p1_0
gsave
fill
grestore
stroke
grestore
gsave
541.649 541.649 437.656 77.378 clipbox
630.863 303.011 p1_0
gsave
fill
grestore
stroke
grestore
gsave
541.649 541.649 437.656 77.378 clipbox
547.325 258.497 p1_0
gsave
fill
grestore
stroke
grestore
gsave
541.649 541.649 437.656 77.378 clipbox
813.01 473.103 p1_0
gsave
fill
grestore
stroke
grestore
gsave
541.649 541.649 437.656 77.378 clipbox
719.412 392.534 p1_0
gsave
fill
grestore
stroke
grestore
gsave
541.649 541.649 437.656 77.378 clipbox
724.463 420.345 p1_0
gsave
fill
grestore
stroke
grestore
gsave
541.649 541.649 437.656 77.378 clipbox
808.158 469.269 p1_0
gsave
fill
grestore
stroke
grestore
gsave
541.649 541.649 437.656 77.378 clipbox
541.892 256.359 p1_0
gsave
fill
grestore
stroke
grestore
gsave
541.649 541.649 437.656 77.378 clipbox
625.543 309.565 p1_0
gsave
fill
grestore
stroke
grestore
gsave
541.649 541.649 437.656 77.378 clipbox
803.231 458.868 p1_0
gsave
fill
grestore
stroke
grestore
gsave
541.649 541.649 437.656 77.378 clipbox
620.393 294.63 p1_0
gsave
fill
grestore
stroke
grestore
gsave
541.649 541.649 437.656 77.378 clipbox
536.51 249.932 p1_0
gsave
fill
grestore
stroke
grestore
gsave
541.649 541.649 437.656 77.378 clipbox
714.359 397.207 p1_0
gsave
fill
grestore
stroke
grestore
gsave
541.649 541.649 437.656 77.378 clipbox
709.288 384.507 p1_0
gsave
fill
grestore
stroke
grestore
gsave
541.649 541.649 437.656 77.378 clipbox
877.315 480.542 p1_0
gsave
fill
grestore
stroke
grestore
gsave
541.649 541.649 437.656 77.378 clipbox
530.95 252.055 p1_0
gsave
fill
grestore
stroke
grestore
gsave
541.649 541.649 437.656 77.378 clipbox
615.018 301.185 p1_0
gsave
fill
grestore
stroke
grestore
gsave
541.649 541.649 437.656 77.378 clipbox
609.905 279.718 p1_0
gsave
fill
grestore
stroke
grestore
gsave
541.649 541.649 437.656 77.378 clipbox
793.433 451.1 p1_0
gsave
fill
grestore
stroke
grestore
gsave
541.649 541.649 437.656 77.378 clipbox
798.519 476.901 p1_0
gsave
fill
grestore
stroke
grestore
gsave
541.649 541.649 437.656 77.378 clipbox
704.192 382.644 p1_0
gsave
fill
grestore
stroke
grestore
gsave
541.649 541.649 437.656 77.378 clipbox
699.109 359.014 p1_0
gsave
fill
grestore
stroke
grestore
gsave
541.649 541.649 437.656 77.378 clipbox
872.601 478.898 p1_0
gsave
fill
grestore
stroke
grestore
gsave
541.649 541.649 437.656 77.378 clipbox
525.523 245.59 p1_0
gsave
fill
grestore
stroke
grestore
gsave
541.649 541.649 437.656 77.378 clipbox
604.621 273.301 p1_0
gsave
fill
grestore
stroke
grestore
gsave
541.649 541.649 437.656 77.378 clipbox
788.488 444.998 p1_0
gsave
fill
grestore
stroke
grestore
gsave
541.649 541.649 437.656 77.378 clipbox
693.991 350.565 p1_0
gsave
fill
grestore
stroke
grestore
gsave
541.649 541.649 437.656 77.378 clipbox
867.865 477.246 p1_0
gsave
fill
grestore
stroke
grestore
gsave
541.649 541.649 437.656 77.378 clipbox
599.293 269.018 p1_0
gsave
fill
grestore
stroke
grestore
gsave
541.649 541.649 437.656 77.378 clipbox
519.907 247.711 p1_0
gsave
fill
grestore
stroke
grestore
gsave
541.649 541.649 437.656 77.378 clipbox
783.569 445.464 p1_0
gsave
fill
grestore
stroke
grestore
gsave
541.649 541.649 437.656 77.378 clipbox
863.108 475.587 p1_0
gsave
fill
grestore
stroke
grestore
gsave
541.649 541.649 437.656 77.378 clipbox
593.969 262.555 p1_0
gsave
fill
grestore
stroke
grestore
gsave
541.649 541.649 437.656 77.378 clipbox
514.435 241.208 p1_0
gsave
fill
grestore
stroke
grestore
gsave
541.649 541.649 437.656 77.378 clipbox
778.557 434.926 p1_0
gsave
fill
grestore
stroke
grestore
gsave
541.649 541.649 437.656 77.378 clipbox
683.692 337.94 p1_0
gsave
fill
grestore
stroke
grestore
gsave
541.649 541.649 437.656 77.378 clipbox
688.787 368.253 p1_0
gsave
fill
grestore
stroke
grestore
gsave
541.649 541.649 437.656 77.378 clipbox
858.298 471.709 p1_0
gsave
fill
grestore
stroke
grestore
gsave
541.649 541.649 437.656 77.378 clipbox
588.57 260.398 p1_0
gsave
fill
grestore
stroke
grestore
gsave
541.649 541.649 437.656 77.378 clipbox
773.593 435.369 p1_0
gsave
fill
grestore
stroke
grestore
gsave
541.649 541.649 437.656 77.378 clipbox
508.764 243.327 p1_0
gsave
fill
grestore
stroke
grestore
gsave
541.649 541.649 437.656 77.378 clipbox
853.379 461.178 p1_0
gsave
fill
grestore
stroke
grestore
gsave
541.649 541.649 437.656 77.378 clipbox
678.457 346.882 p1_0
gsave
fill
grestore
stroke
grestore
gsave
541.649 541.649 437.656 77.378 clipbox
768.525 420.365 p1_0
gsave
fill
grestore
stroke
grestore
gsave
541.649 541.649 437.656 77.378 clipbox
583.203 253.893 p1_0
gsave
fill
grestore
stroke
grestore
gsave
541.649 541.649 437.656 77.378 clipbox
503.246 236.786 p1_0
gsave
fill
grestore
stroke
grestore
gsave
541.649 541.649 437.656 77.378 clipbox
928.356 474.26 p1_0
gsave
fill
grestore
stroke
grestore
gsave
541.649 541.649 437.656 77.378 clipbox
577.787 249.534 p1_0
gsave
fill
grestore
stroke
grestore
gsave
541.649 541.649 437.656 77.378 clipbox
848.676 468.343 p1_0
gsave
fill
grestore
stroke
grestore
gsave
541.649 541.649 437.656 77.378 clipbox
763.528 422.982 p1_0
gsave
fill
grestore
stroke
grestore
gsave
541.649 541.649 437.656 77.378 clipbox
673.206 351.492 p1_0
gsave
fill
grestore
stroke
grestore
gsave
541.649 541.649 437.656 77.378 clipbox
758.403 401.286 p1_0
gsave
fill
grestore
stroke
grestore
gsave
541.649 541.649 437.656 77.378 clipbox
923.703 472.581 p1_0
gsave
fill
grestore
stroke
grestore
gsave
541.649 541.649 437.656 77.378 clipbox
668.037 331.959 p1_0
gsave
fill
grestore
stroke
grestore
gsave
541.649 541.649 437.656 77.378 clipbox
753.298 386.186 p1_0
gsave
fill
grestore
stroke
grestore
gsave
541.649 541.649 437.656 77.378 clipbox
843.748 459.979 p1_0
gsave
fill
grestore
stroke
grestore
gsave
541.649 541.649 437.656 77.378 clipbox
572.286 249.511 p1_0
gsave
fill
grestore
stroke
grestore
gsave
541.649 541.649 437.656 77.378 clipbox
918.94 466.443 p1_0
gsave
fill
grestore
stroke
grestore
gsave
541.649 541.649 437.656 77.378 clipbox
838.751 447.143 p1_0
gsave
fill
grestore
stroke
grestore
gsave
541.649 541.649 437.656 77.378 clipbox
662.77 329.948 p1_0
gsave
fill
grestore
stroke
grestore
gsave
541.649 541.649 437.656 77.378 clipbox
566.886 240.763 p1_0
gsave
fill
grestore
stroke
grestore
gsave
541.649 541.649 437.656 77.378 clipbox
657.555 314.735 p1_0
gsave
fill
grestore
stroke
grestore
gsave
541.649 541.649 437.656 77.378 clipbox
748.246 390.933 p1_0
gsave
fill
grestore
stroke
grestore
gsave
541.649 541.649 437.656 77.378 clipbox
652.344 297.298 p1_0
gsave
fill
grestore
stroke
grestore
gsave
541.649 541.649 437.656 77.378 clipbox
914.289 466.97 p1_0
gsave
fill
grestore
stroke
grestore
gsave
541.649 541.649 437.656 77.378 clipbox
833.921 449.849 p1_0
gsave
fill
grestore
stroke
grestore
gsave
541.649 541.649 437.656 77.378 clipbox
561.401 236.349 p1_0
gsave
fill
grestore
stroke
grestore
gsave
541.649 541.649 437.656 77.378 clipbox
743.135 384.617 p1_0
gsave
fill
grestore
stroke
grestore
gsave
541.649 541.649 437.656 77.378 clipbox
647.064 288.607 p1_0
gsave
fill
grestore
stroke
grestore
gsave
541.649 541.649 437.656 77.378 clipbox
909.572 465.263 p1_0
gsave
fill
grestore
stroke
grestore
gsave
541.649 541.649 437.656 77.378 clipbox
828.99 445.869 p1_0
gsave
fill
grestore
stroke
grestore
gsave
541.649 541.649 437.656 77.378 clipbox
555.823 236.292 p1_0
gsave
fill
grestore
stroke
grestore
gsave
541.649 541.649 437.656 77.378 clipbox
904.751 459.07 p1_0
gsave
fill
grestore
stroke
grestore
gsave
541.649 541.649 437.656 77.378 clipbox
738.028 389.382 p1_0
gsave
fill
grestore
stroke
grestore
gsave
541.649 541.649 437.656 77.378 clipbox
641.653 295.291 p1_0
gsave
fill
grestore
stroke
grestore
gsave
541.649 541.649 437.656 77.378 clipbox
732.854 371.914 p1_0
gsave
fill
grestore
stroke
grestore
gsave
541.649 541.649 437.656 77.378 clipbox
824.086 446.346 p1_0
gsave
fill
grestore
stroke
grestore
gsave
541.649 541.649 437.656 77.378 clipbox
550.362 227.466 p1_0
gsave
fill
grestore
stroke
grestore
gsave
541.649 541.649 437.656 77.378 clipbox
636.416 275.538 p1_0
gsave
fill
grestore
stroke
grestore
gsave
541.649 541.649 437.656 77.378 clipbox
818.975 428.908 p1_0
gsave
fill
grestore
stroke
grestore
gsave
541.649 541.649 437.656 77.378 clipbox
900.032 459.581 p1_0
gsave
fill
grestore
stroke
grestore
gsave
541.649 541.649 437.656 77.378 clipbox
631.044 271.17 p1_0
gsave
fill
grestore
stroke
grestore
gsave
541.649 541.649 437.656 77.378 clipbox
727.694 374.431 p1_0
gsave
fill
grestore
stroke
grestore
gsave
541.649 541.649 437.656 77.378 clipbox
814.05 431.585 p1_0
gsave
fill
grestore
stroke
grestore
gsave
541.649 541.649 437.656 77.378 clipbox
895.25 457.845 p1_0
gsave
fill
grestore
stroke
grestore
gsave
541.649 541.649 437.656 77.378 clipbox
625.668 264.576 p1_0
gsave
fill
grestore
stroke
grestore
gsave
541.649 541.649 437.656 77.378 clipbox
620.44 240.308 p1_0
gsave
fill
grestore
stroke
grestore
gsave
541.649 541.649 437.656 77.378 clipbox
809.037 427.533 p1_0
gsave
fill
grestore
stroke
grestore
gsave
541.649 541.649 437.656 77.378 clipbox
890.368 451.596 p1_0
gsave
fill
grestore
stroke
grestore
gsave
541.649 541.649 437.656 77.378 clipbox
722.511 383.67 p1_0
gsave
fill
grestore
stroke
grestore
gsave
541.649 541.649 437.656 77.378 clipbox
717.288 368.311 p1_0
gsave
fill
grestore
stroke
grestore
gsave
541.649 541.649 437.656 77.378 clipbox
614.9 246.888 p1_0
gsave
fill
grestore
stroke
grestore
gsave
541.649 541.649 437.656 77.378 clipbox
804.021 425.715 p1_0
gsave
fill
grestore
stroke
grestore
gsave
541.649 541.649 437.656 77.378 clipbox
885.618 454.35 p1_0
gsave
fill
grestore
stroke
grestore
gsave
541.649 541.649 437.656 77.378 clipbox
712.051 359.631 p1_0
gsave
fill
grestore
stroke
grestore
gsave
541.649 541.649 437.656 77.378 clipbox
798.927 417.125 p1_0
gsave
fill
grestore
stroke
grestore
gsave
541.649 541.649 437.656 77.378 clipbox
609.395 246.858 p1_0
gsave
fill
grestore
stroke
grestore
gsave
541.649 541.649 437.656 77.378 clipbox
706.8 348.682 p1_0
gsave
fill
grestore
stroke
grestore
gsave
541.649 541.649 437.656 77.378 clipbox
880.694 448.064 p1_0
gsave
fill
grestore
stroke
grestore
gsave
541.649 541.649 437.656 77.378 clipbox
696.284 308.791 p1_0
gsave
fill
grestore
stroke
grestore
gsave
541.649 541.649 437.656 77.378 clipbox
701.535 335.461 p1_0
gsave
fill
grestore
stroke
grestore
gsave
541.649 541.649 437.656 77.378 clipbox
875.788 444.019 p1_0
gsave
fill
grestore
stroke
grestore
gsave
541.649 541.649 437.656 77.378 clipbox
793.919 422.054 p1_0
gsave
fill
grestore
stroke
grestore
gsave
541.649 541.649 437.656 77.378 clipbox
788.67 397.6 p1_0
gsave
fill
grestore
stroke
grestore
gsave
541.649 541.649 437.656 77.378 clipbox
603.812 251.274 p1_0
gsave
fill
grestore
stroke
grestore
gsave
541.649 541.649 437.656 77.378 clipbox
870.792 435.42 p1_0
gsave
fill
grestore
stroke
grestore
gsave
541.649 541.649 437.656 77.378 clipbox
598.377 240.118 p1_0
gsave
fill
grestore
stroke
grestore
gsave
541.649 541.649 437.656 77.378 clipbox
690.945 317.884 p1_0
gsave
fill
grestore
stroke
grestore
gsave
541.649 541.649 437.656 77.378 clipbox
783.6 400.222 p1_0
gsave
fill
grestore
stroke
grestore
gsave
541.649 541.649 437.656 77.378 clipbox
865.812 429.061 p1_0
gsave
fill
grestore
stroke
grestore
gsave
541.649 541.649 437.656 77.378 clipbox
685.623 309.05 p1_0
gsave
fill
grestore
stroke
grestore
gsave
541.649 541.649 437.656 77.378 clipbox
680.283 300.187 p1_0
gsave
fill
grestore
stroke
grestore
gsave
541.649 541.649 437.656 77.378 clipbox
860.91 429.504 p1_0
gsave
fill
grestore
stroke
grestore
gsave
541.649 541.649 437.656 77.378 clipbox
778.543 409.673 p1_0
gsave
fill
grestore
stroke
grestore
gsave
541.649 541.649 437.656 77.378 clipbox
674.952 284.552 p1_0
gsave
fill
grestore
stroke
grestore
gsave
541.649 541.649 437.656 77.378 clipbox
773.335 398.684 p1_0
gsave
fill
grestore
stroke
grestore
gsave
541.649 541.649 437.656 77.378 clipbox
768.065 378.572 p1_0
gsave
fill
grestore
stroke
grestore
gsave
541.649 541.649 437.656 77.378 clipbox
855.982 429.948 p1_0
gsave
fill
grestore
stroke
grestore
gsave
541.649 541.649 437.656 77.378 clipbox
669.527 286.871 p1_0
gsave
fill
grestore
stroke
grestore
gsave
541.649 541.649 437.656 77.378 clipbox
762.862 374.333 p1_0
gsave
fill
grestore
stroke
grestore
gsave
541.649 541.649 437.656 77.378 clipbox
664.141 275.667 p1_0
gsave
fill
grestore
stroke
grestore
gsave
541.649 541.649 437.656 77.378 clipbox
851.029 430.395 p1_0
gsave
fill
grestore
stroke
grestore
gsave
541.649 541.649 437.656 77.378 clipbox
757.618 365.521 p1_0
gsave
fill
grestore
stroke
grestore
gsave
541.649 541.649 437.656 77.378 clipbox
846.02 428.55 p1_0
gsave
fill
grestore
stroke
grestore
gsave
541.649 541.649 437.656 77.378 clipbox
658.662 277.971 p1_0
gsave
fill
grestore
stroke
grestore
gsave
541.649 541.649 437.656 77.378 clipbox
840.79 410.63 p1_0
gsave
fill
grestore
stroke
grestore
gsave
541.649 541.649 437.656 77.378 clipbox
752.397 368.084 p1_0
gsave
fill
grestore
stroke
grestore
gsave
541.649 541.649 437.656 77.378 clipbox
747.076 347.807 p1_0
gsave
fill
grestore
stroke
grestore
gsave
541.649 541.649 437.656 77.378 clipbox
653.166 278.021 p1_0
gsave
fill
grestore
stroke
grestore
gsave
541.649 541.649 437.656 77.378 clipbox
835.714 406.435 p1_0
gsave
fill
grestore
stroke
grestore
gsave
541.649 541.649 437.656 77.378 clipbox
741.778 338.903 p1_0
gsave
fill
grestore
stroke
grestore
gsave
541.649 541.649 437.656 77.378 clipbox
647.672 273.53 p1_0
gsave
fill
grestore
stroke
grestore
gsave
541.649 541.649 437.656 77.378 clipbox
830.668 406.824 p1_0
gsave
fill
grestore
stroke
grestore
gsave
541.649 541.649 437.656 77.378 clipbox
736.48 339.114 p1_0
gsave
fill
grestore
stroke
grestore
gsave
541.649 541.649 437.656 77.378 clipbox
825.421 391.085 p1_0
gsave
fill
grestore
stroke
grestore
gsave
541.649 541.649 437.656 77.378 clipbox
731.126 321.004 p1_0
gsave
fill
grestore
stroke
grestore
gsave
541.649 541.649 437.656 77.378 clipbox
820.21 379.913 p1_0
gsave
fill
grestore
stroke
grestore
gsave
541.649 541.649 437.656 77.378 clipbox
725.768 307.434 p1_0
gsave
fill
grestore
stroke
grestore
gsave
541.649 541.649 437.656 77.378 clipbox
720.407 319.037 p1_0
gsave
fill
grestore
stroke
grestore
gsave
541.649 541.649 437.656 77.378 clipbox
815.277 398.729 p1_0
gsave
fill
grestore
stroke
grestore
gsave
541.649 541.649 437.656 77.378 clipbox
809.998 385.186 p1_0
gsave
fill
grestore
stroke
grestore
gsave
541.649 541.649 437.656 77.378 clipbox
715.008 312.291 p1_0
gsave
fill
grestore
stroke
grestore
gsave
541.649 541.649 437.656 77.378 clipbox
799.323 348.74 p1_0
gsave
fill
grestore
stroke
grestore
gsave
541.649 541.649 437.656 77.378 clipbox
804.889 392.494 p1_0
gsave
fill
grestore
stroke
grestore
gsave
541.649 541.649 437.656 77.378 clipbox
709.58 317.049 p1_0
gsave
fill
grestore
stroke
grestore
gsave
541.649 541.649 437.656 77.378 clipbox
794.26 367.556 p1_0
gsave
fill
grestore
stroke
grestore
gsave
541.649 541.649 437.656 77.378 clipbox
698.669 298.828 p1_0
gsave
fill
grestore
stroke
grestore
gsave
541.649 541.649 437.656 77.378 clipbox
788.914 353.872 p1_0
gsave
fill
grestore
stroke
grestore
gsave
541.649 541.649 437.656 77.378 clipbox
704.107 331.112 p1_0
gsave
fill
grestore
stroke
grestore
gsave
541.649 541.649 437.656 77.378 clipbox
783.68 358.794 p1_0
gsave
fill
grestore
stroke
grestore
gsave
541.649 541.649 437.656 77.378 clipbox
778.253 338.038 p1_0
gsave
fill
grestore
stroke
grestore
gsave
541.649 541.649 437.656 77.378 clipbox
773.058 359.333 p1_0
gsave
fill
grestore
stroke
grestore
gsave
541.649 541.649 437.656 77.378 clipbox
767.572 333.78 p1_0
gsave
fill
grestore
stroke
grestore
gsave
541.649 541.649 437.656 77.378 clipbox
762.181 329.289 p1_0
gsave
fill
grestore
stroke
grestore
gsave
541.649 541.649 437.656 77.378 clipbox
756.833 341.256 p1_0
gsave
fill
grestore
stroke
grestore
gsave
541.649 541.649 437.656 77.378 clipbox
751.393 339.117 p1_0
gsave
fill
grestore
stroke
grestore

end
showpage
