%!PS-Adobe-3.0 EPSF-3.0
%%Title: psi_eucl_2_psi_eucl_5_psi_PGF_VERSION.eps
%%Creator: Matplotlib v3.4.1, https://matplotlib.org/
%%CreationDate: Wed Aug  4 15:14:32 2021
%%Orientation: portrait
%%BoundingBox: -385 44 998 748
%%HiResBoundingBox: -385.200000 44.280000 997.200000 747.720000
%%EndComments
%%BeginProlog
/mpldict 11 dict def
mpldict begin
/d { bind def } bind def
/m { moveto } d
/l { lineto } d
/r { rlineto } d
/c { curveto } d
/cl { closepath } d
/ce { closepath eofill } d
/box {
      m
      1 index 0 r
      0 exch r
      neg 0 r
      cl
    } d
/clipbox {
      box
      clip
      newpath
    } d
/sc { setcachedevice } d
%!PS-Adobe-3.0 Resource-Font
%%Creator: Converted from TrueType to Type 3 by Matplotlib.
10 dict begin
/FontName /DejaVuSans def
/PaintType 0 def
/FontMatrix [0.00048828125 0 0 0.00048828125 0 0] def
/FontBBox [-2090 -948 3673 2524] def
/FontType 3 def
/Encoding [/period /zero /one /two /four /five /six /seven /eight] def
/CharStrings 10 dict dup begin
/.notdef 0 def
/period{651 0 219 0 430 254 sc
219 254 m
430 254 l
430 0 l
219 0 l
219 254 l

ce} d
/zero{1303 0 135 -29 1167 1520 sc
651 1360 m
547 1360 469 1309 416 1206 c
364 1104 338 950 338 745 c
338 540 364 387 416 284 c
469 182 547 131 651 131 c
756 131 834 182 886 284 c
939 387 965 540 965 745 c
965 950 939 1104 886 1206 c
834 1309 756 1360 651 1360 c

651 1520 m
818 1520 946 1454 1034 1321 c
1123 1189 1167 997 1167 745 c
1167 494 1123 302 1034 169 c
946 37 818 -29 651 -29 c
484 -29 356 37 267 169 c
179 302 135 494 135 745 c
135 997 179 1189 267 1321 c
356 1454 484 1520 651 1520 c

ce} d
/one{1303 0 225 0 1114 1493 sc
254 170 m
584 170 l
584 1309 l
225 1237 l
225 1421 l
582 1493 l
784 1493 l
784 170 l
1114 170 l
1114 0 l
254 0 l
254 170 l

ce} d
/two{1303 0 150 0 1098 1520 sc
393 170 m
1098 170 l
1098 0 l
150 0 l
150 170 l
227 249 331 356 463 489 c
596 623 679 709 713 748 c
778 821 823 882 848 932 c
874 983 887 1032 887 1081 c
887 1160 859 1225 803 1275 c
748 1325 675 1350 586 1350 c
523 1350 456 1339 385 1317 c
315 1295 240 1262 160 1217 c
160 1421 l
241 1454 317 1478 388 1495 c
459 1512 523 1520 582 1520 c
737 1520 860 1481 952 1404 c
1044 1327 1090 1223 1090 1094 c
1090 1033 1078 974 1055 919 c
1032 864 991 800 930 725 c
913 706 860 650 771 557 c
682 465 556 336 393 170 c

ce} d
/four{1303 0 100 0 1188 1493 sc
774 1317 m
264 520 l
774 520 l
774 1317 l

721 1493 m
975 1493 l
975 520 l
1188 520 l
1188 352 l
975 352 l
975 0 l
774 0 l
774 352 l
100 352 l
100 547 l
721 1493 l

ce} d
/five{1303 0 158 -29 1124 1493 sc
221 1493 m
1014 1493 l
1014 1323 l
406 1323 l
406 957 l
435 967 465 974 494 979 c
523 984 553 987 582 987 c
749 987 881 941 978 850 c
1075 759 1124 635 1124 479 c
1124 318 1074 193 974 104 c
874 15 733 -29 551 -29 c
488 -29 424 -24 359 -13 c
294 -2 227 14 158 35 c
158 238 l
218 205 280 181 344 165 c
408 149 476 141 547 141 c
662 141 754 171 821 232 c
888 293 922 375 922 479 c
922 583 888 665 821 726 c
754 787 662 817 547 817 c
493 817 439 811 385 799 c
332 787 277 768 221 743 c
221 1493 l

ce} d
/six{1303 0 143 -29 1174 1520 sc
676 827 m
585 827 513 796 460 734 c
407 672 381 587 381 479 c
381 372 407 287 460 224 c
513 162 585 131 676 131 c
767 131 838 162 891 224 c
944 287 971 372 971 479 c
971 587 944 672 891 734 c
838 796 767 827 676 827 c

1077 1460 m
1077 1276 l
1026 1300 975 1318 923 1331 c
872 1344 821 1350 770 1350 c
637 1350 535 1305 464 1215 c
394 1125 354 989 344 807 c
383 865 433 909 492 940 c
551 971 617 987 688 987 c
838 987 956 941 1043 850 c
1130 759 1174 636 1174 479 c
1174 326 1129 203 1038 110 c
947 17 827 -29 676 -29 c
503 -29 371 37 280 169 c
189 302 143 494 143 745 c
143 981 199 1169 311 1309 c
423 1450 573 1520 762 1520 c
813 1520 864 1515 915 1505 c
967 1495 1021 1480 1077 1460 c

ce} d
/seven{1303 0 168 0 1128 1493 sc
168 1493 m
1128 1493 l
1128 1407 l
586 0 l
375 0 l
885 1323 l
168 1323 l
168 1493 l

ce} d
/eight{1303 0 139 -29 1163 1520 sc
651 709 m
555 709 479 683 424 632 c
369 581 342 510 342 420 c
342 330 369 259 424 208 c
479 157 555 131 651 131 c
747 131 823 157 878 208 c
933 260 961 331 961 420 c
961 510 933 581 878 632 c
823 683 748 709 651 709 c

449 795 m
362 816 295 857 246 916 c
198 975 174 1048 174 1133 c
174 1252 216 1347 301 1416 c
386 1485 503 1520 651 1520 c
800 1520 916 1485 1001 1416 c
1086 1347 1128 1252 1128 1133 c
1128 1048 1104 975 1055 916 c
1007 857 940 816 854 795 c
951 772 1027 728 1081 662 c
1136 596 1163 515 1163 420 c
1163 275 1119 164 1030 87 c
942 10 816 -29 651 -29 c
486 -29 360 10 271 87 c
183 164 139 275 139 420 c
139 515 166 596 221 662 c
276 728 352 772 449 795 c

375 1114 m
375 1037 399 976 447 933 c
496 890 564 868 651 868 c
738 868 805 890 854 933 c
903 976 928 1037 928 1114 c
928 1191 903 1252 854 1295 c
805 1338 738 1360 651 1360 c
564 1360 496 1338 447 1295 c
399 1252 375 1191 375 1114 c

ce} d
end readonly def

/BuildGlyph {
 exch begin
 CharStrings exch
 2 copy known not {pop /.notdef} if
 true 3 1 roll get exec
 end
} d

/BuildChar {
 1 index /Encoding get exch get
 1 index /BuildGlyph get exec
} d

FontName currentdict end definefont pop
end
%%EndProlog
mpldict begin
-385.2 44.28 translate
1382.4 703.44 0 0 clipbox
gsave
0 0 m
1382.4 0 l
1382.4 703.44 l
0 703.44 l
cl
1.000 setgray
fill
grestore
gsave
437.6556 77.3784 m
979.3044 77.3784 l
979.3044 619.0272 l
437.6556 619.0272 l
cl
1.000 setgray
fill
grestore
1.000 setlinewidth
0 setlinejoin
0 setlinecap
[] 0 setdash
0.950 setgray
gsave
471.668993 225.947494 m
699.159022 305.179281 l
698.761448 538.610034 l
465.322671 477.872677 l
gsave
fill
grestore
stroke
grestore
0.900 setgray
gsave
699.159022 305.179281 m
957.076287 237.666095 l
963.273217 486.871623 l
698.761448 538.610034 l
gsave
fill
grestore
stroke
grestore
0.925 setgray
gsave
471.668993 225.947494 m
735.312035 145.846205 l
957.076287 237.666095 l
699.159022 305.179281 l
gsave
fill
grestore
stroke
grestore
0.800 setlinewidth
1 setlinejoin
2 setlinecap
0.000 setgray
gsave
471.668993 225.947494 m
735.312035 145.846205 l
stroke
grestore
0 setlinecap
0.690 setgray
gsave
481.14448 223.068607 m
708.485148 302.738046 l
708.30992 536.742356 l
stroke
grestore
gsave
512.043063 213.680851 m
738.867296 294.785126 l
739.424781 530.6563 l
stroke
grestore
gsave
543.524147 204.116118 m
769.776031 286.694363 l
771.09208 524.462187 l
stroke
grestore
gsave
575.604361 194.369354 m
801.225166 278.462145 l
803.32666 518.157114 l
stroke
grestore
gsave
608.300972 184.435313 m
833.228996 270.084728 l
836.143902 511.738073 l
stroke
grestore
gsave
641.631919 174.308546 m
865.802327 261.558236 l
869.559748 505.201945 l
stroke
grestore
gsave
675.615841 163.983388 m
898.960498 252.878655 l
903.590727 498.545497 l
stroke
grestore
gsave
710.272117 153.453952 m
932.719402 244.041825 l
938.253983 491.765376 l
stroke
grestore
2 setlinecap
0.000 setgray
gsave
483.11838 223.760342 m
477.188514 221.682275 l
stroke
grestore
/DejaVuSans 10.000 selectfont
gsave

464.938780 201.878891 translate
0.000000 rotate
0.000000 0 m /four glyphshow
6.362305 0 m /five glyphshow
grestore
gsave
514.013924 214.385561 m
508.093112 212.26849 l
stroke
grestore
gsave

495.822498 192.340371 translate
0.000000 rotate
0.000000 0 m /five glyphshow
6.362305 0 m /zero glyphshow
grestore
gsave
545.491503 204.834171 m
539.581143 202.676986 l
stroke
grestore
gsave

527.289906 182.621576 translate
0.000000 rotate
0.000000 0 m /five glyphshow
6.362305 0 m /five glyphshow
grestore
gsave
577.567721 195.101132 m
571.669286 192.902683 l
stroke
grestore
gsave

559.357711 172.717347 translate
0.000000 rotate
0.000000 0 m /six glyphshow
6.362305 0 m /zero glyphshow
grestore
gsave
610.25982 185.181215 m
604.374862 182.940306 l
stroke
grestore
gsave

592.043261 162.622325 translate
0.000000 rotate
0.000000 0 m /six glyphshow
6.362305 0 m /five glyphshow
grestore
gsave
643.585709 175.068983 m
637.715864 172.784372 l
stroke
grestore
gsave

625.364580 152.330945 translate
0.000000 rotate
0.000000 0 m /seven glyphshow
6.362305 0 m /zero glyphshow
grestore
gsave
677.563998 164.75879 m
671.710993 162.429187 l
stroke
grestore
gsave

659.340400 141.837420 translate
0.000000 rotate
0.000000 0 m /seven glyphshow
6.362305 0 m /five glyphshow
grestore
gsave
712.214036 154.244766 m
706.379689 151.868827 l
stroke
grestore
gsave

693.990195 131.135737 translate
0.000000 rotate
0.000000 0 m /eight glyphshow
6.362305 0 m /zero glyphshow
grestore
gsave
957.076287 237.666095 m
735.312035 145.846205 l
stroke
grestore
0 setlinecap
0.690 setgray
gsave
481.395837 482.05468 m
487.302654 231.392493 l
750.641804 152.193385 l
stroke
grestore
gsave
524.576626 493.28969 m
529.32458 246.028177 l
791.781045 169.226791 l
stroke
grestore
gsave
566.476658 504.191466 m
570.13062 260.240385 l
831.63833 185.729413 l
stroke
grestore
gsave
607.152083 514.774616 m
609.772794 274.047232 l
870.272661 201.725679 l
stroke
grestore
gsave
646.655813 525.052909 m
648.300195 287.46582 l
907.739474 217.238543 l
stroke
grestore
gsave
685.037757 535.03933 m
685.759194 300.512296 l
944.090903 232.28959 l
stroke
grestore
2 setlinecap
0.000 setgray
gsave
748.369184 152.876874 m
755.19572 150.823797 l
stroke
grestore
gsave

752.676366 130.420442 translate
0.000000 rotate
0.000000 0 m /four glyphshow
6.362305 0 m /five glyphshow
12.724609 0 m /zero glyphshow
grestore
gsave
789.518658 169.888823 m
796.31432 167.900241 l
stroke
grestore
gsave

793.718438 147.714509 translate
0.000000 rotate
0.000000 0 m /five glyphshow
6.362305 0 m /zero glyphshow
12.724609 0 m /zero glyphshow
grestore
gsave
829.386647 186.370982 m
836.150026 184.443903 l
stroke
grestore
gsave

833.478939 164.468555 translate
0.000000 rotate
0.000000 0 m /five glyphshow
6.362305 0 m /five glyphshow
12.724609 0 m /zero glyphshow
grestore
gsave
868.032093 202.347719 m
874.761957 200.479333 l
stroke
grestore
gsave

872.016971 180.707484 translate
0.000000 rotate
0.000000 0 m /six glyphshow
6.362305 0 m /zero glyphshow
12.724609 0 m /zero glyphshow
grestore
gsave
905.510383 217.841932 m
912.205651 216.029599 l
stroke
grestore
gsave

909.388061 196.454694 translate
0.000000 rotate
0.000000 0 m /six glyphshow
6.362305 0 m /five glyphshow
12.724609 0 m /zero glyphshow
grestore
gsave
941.873603 232.875156 m
948.533338 231.116389 l
stroke
grestore
gsave

945.644420 211.732186 translate
0.000000 rotate
0.000000 0 m /seven glyphshow
6.362305 0 m /zero glyphshow
12.724609 0 m /zero glyphshow
grestore
gsave
957.076287 237.666095 m
963.273217 486.871623 l
stroke
grestore
0 setlinecap
0.690 setgray
gsave
957.461376 253.152196 m
699.134276 319.708915 l
471.274733 241.598139 l
stroke
grestore
gsave
958.523957 295.883217 m
699.06602 359.78436 l
470.186768 284.786254 l
stroke
grestore
gsave
959.595924 338.991672 m
698.997203 400.189427 l
469.089079 328.360401 l
stroke
grestore
gsave
960.677401 382.482585 m
698.927818 440.928199 l
467.981534 372.325777 l
stroke
grestore
gsave
961.768516 426.361067 m
698.857857 482.004827 l
466.864001 416.687677 l
stroke
grestore
gsave
962.869398 470.632322 m
698.787314 523.423533 l
465.736342 461.451489 l
stroke
grestore
2 setlinecap
0.000 setgray
gsave
955.244689 253.723314 m
961.902552 252.007948 l
stroke
grestore
gsave

969.085970 246.023703 translate
0.000000 rotate
0.000000 0 m /zero glyphshow
6.362305 0 m /period glyphshow
9.541016 0 m /zero glyphshow
grestore
gsave
956.296905 296.431711 m
962.985937 294.784289 l
stroke
grestore
gsave

970.234083 288.736294 translate
0.000000 rotate
0.000000 0 m /zero glyphshow
6.362305 0 m /period glyphshow
9.541016 0 m /two glyphshow
grestore
gsave
957.358408 339.51712 m
964.078901 337.938911 l
stroke
grestore
gsave

971.392333 331.825975 translate
0.000000 rotate
0.000000 0 m /zero glyphshow
6.362305 0 m /period glyphshow
9.541016 0 m /four glyphshow
grestore
gsave
958.429324 382.984554 m
965.181575 381.476856 l
stroke
grestore
gsave

972.560854 375.297761 translate
0.000000 rotate
0.000000 0 m /zero glyphshow
6.362305 0 m /period glyphshow
9.541016 0 m /six glyphshow
grestore
gsave
959.509778 426.839118 m
966.294086 425.403252 l
stroke
grestore
gsave

973.739783 419.156758 translate
0.000000 rotate
0.000000 0 m /zero glyphshow
6.362305 0 m /period glyphshow
9.541016 0 m /eight glyphshow
grestore
gsave
960.599897 471.086006 m
967.416568 469.723322 l
stroke
grestore
gsave

974.929260 463.408163 translate
0.000000 rotate
0.000000 0 m /one glyphshow
6.362305 0 m /period glyphshow
9.541016 0 m /zero glyphshow
grestore
/p0_0 {
newpath
translate
-0 -2.236068 m
2.236068 2.236068 l
-2.236068 2.236068 l
cl

} bind def
1.000 setlinewidth
0 setlinecap
0.000 0.000 1.000 setrgbcolor
gsave
541.649 541.649 437.656 77.378 clipbox
700.903 454.055 p0_0
gsave
fill
grestore
stroke
grestore
gsave
541.649 541.649 437.656 77.378 clipbox
707.064 452.703 p0_0
gsave
fill
grestore
stroke
grestore
gsave
541.649 541.649 437.656 77.378 clipbox
713.25 438.89 p0_0
gsave
fill
grestore
stroke
grestore
gsave
541.649 541.649 437.656 77.378 clipbox
719.447 439.586 p0_0
gsave
fill
grestore
stroke
grestore
gsave
541.649 541.649 437.656 77.378 clipbox
731.908 436.815 p0_0
gsave
fill
grestore
stroke
grestore
gsave
541.649 541.649 437.656 77.378 clipbox
725.687 459.057 p0_0
gsave
fill
grestore
stroke
grestore
gsave
541.649 541.649 437.656 77.378 clipbox
663.124 396.968 p0_0
gsave
fill
grestore
stroke
grestore
gsave
541.649 541.649 437.656 77.378 clipbox
738.209 452.153 p0_0
gsave
fill
grestore
stroke
grestore
gsave
541.649 541.649 437.656 77.378 clipbox
744.487 444.491 p0_0
gsave
fill
grestore
stroke
grestore
gsave
541.649 541.649 437.656 77.378 clipbox
669.15 422.66 p0_0
gsave
fill
grestore
stroke
grestore
gsave
541.649 541.649 437.656 77.378 clipbox
675.403 406.567 p0_0
gsave
fill
grestore
stroke
grestore
gsave
541.649 541.649 437.656 77.378 clipbox
757.103 433.313 p0_0
gsave
fill
grestore
stroke
grestore
gsave
541.649 541.649 437.656 77.378 clipbox
750.838 453.612 p0_0
gsave
fill
grestore
stroke
grestore
gsave
541.649 541.649 437.656 77.378 clipbox
681.63 398.829 p0_0
gsave
fill
grestore
stroke
grestore
gsave
541.649 541.649 437.656 77.378 clipbox
687.841 401.552 p0_0
gsave
fill
grestore
stroke
grestore
gsave
541.649 541.649 437.656 77.378 clipbox
694.117 387.491 p0_0
gsave
fill
grestore
stroke
grestore
gsave
541.649 541.649 437.656 77.378 clipbox
763.639 469.889 p0_0
gsave
fill
grestore
stroke
grestore
gsave
541.649 541.649 437.656 77.378 clipbox
624.493 351.311 p0_0
gsave
fill
grestore
stroke
grestore
gsave
541.649 541.649 437.656 77.378 clipbox
700.363 396.504 p0_0
gsave
fill
grestore
stroke
grestore
gsave
541.649 541.649 437.656 77.378 clipbox
769.994 460.057 p0_0
gsave
fill
grestore
stroke
grestore
gsave
541.649 541.649 437.656 77.378 clipbox
630.628 351.845 p0_0
gsave
fill
grestore
stroke
grestore
gsave
541.649 541.649 437.656 77.378 clipbox
636.821 348.179 p0_0
gsave
fill
grestore
stroke
grestore
gsave
541.649 541.649 437.656 77.378 clipbox
782.796 448.817 p0_0
gsave
fill
grestore
stroke
grestore
gsave
541.649 541.649 437.656 77.378 clipbox
776.477 469.307 p0_0
gsave
fill
grestore
stroke
grestore
gsave
541.649 541.649 437.656 77.378 clipbox
706.641 409.793 p0_0
gsave
fill
grestore
stroke
grestore
gsave
541.649 541.649 437.656 77.378 clipbox
643.05 342.399 p0_0
gsave
fill
grestore
stroke
grestore
gsave
541.649 541.649 437.656 77.378 clipbox
712.965 406.212 p0_0
gsave
fill
grestore
stroke
grestore
gsave
541.649 541.649 437.656 77.378 clipbox
789.318 455.93 p0_0
gsave
fill
grestore
stroke
grestore
gsave
541.649 541.649 437.656 77.378 clipbox
649.209 349.24 p0_0
gsave
fill
grestore
stroke
grestore
gsave
541.649 541.649 437.656 77.378 clipbox
719.312 411.102 p0_0
gsave
fill
grestore
stroke
grestore
gsave
541.649 541.649 437.656 77.378 clipbox
655.48 343.439 p0_0
gsave
fill
grestore
stroke
grestore
gsave
541.649 541.649 437.656 77.378 clipbox
795.909 467.355 p0_0
gsave
fill
grestore
stroke
grestore
gsave
541.649 541.649 437.656 77.378 clipbox
585.113 296.217 p0_0
gsave
fill
grestore
stroke
grestore
gsave
541.649 541.649 437.656 77.378 clipbox
802.41 463.845 p0_0
gsave
fill
grestore
stroke
grestore
gsave
541.649 541.649 437.656 77.378 clipbox
725.701 426.67 p0_0
gsave
fill
grestore
stroke
grestore
gsave
541.649 541.649 437.656 77.378 clipbox
661.674 354.546 p0_0
gsave
fill
grestore
stroke
grestore
gsave
541.649 541.649 437.656 77.378 clipbox
732.1 420.953 p0_0
gsave
fill
grestore
stroke
grestore
gsave
541.649 541.649 437.656 77.378 clipbox
591.151 302.971 p0_0
gsave
fill
grestore
stroke
grestore
gsave
541.649 541.649 437.656 77.378 clipbox
808.972 464.612 p0_0
gsave
fill
grestore
stroke
grestore
gsave
541.649 541.649 437.656 77.378 clipbox
597.4 294.964 p0_0
gsave
fill
grestore
stroke
grestore
gsave
541.649 541.649 437.656 77.378 clipbox
667.938 359.342 p0_0
gsave
fill
grestore
stroke
grestore
gsave
541.649 541.649 437.656 77.378 clipbox
738.54 425.915 p0_0
gsave
fill
grestore
stroke
grestore
gsave
541.649 541.649 437.656 77.378 clipbox
603.616 291.163 p0_0
gsave
fill
grestore
stroke
grestore
gsave
541.649 541.649 437.656 77.378 clipbox
815.69 478.295 p0_0
gsave
fill
grestore
stroke
grestore
gsave
541.649 541.649 437.656 77.378 clipbox
609.921 281.007 p0_0
gsave
fill
grestore
stroke
grestore
gsave
541.649 541.649 437.656 77.378 clipbox
674.232 364.161 p0_0
gsave
fill
grestore
stroke
grestore
gsave
541.649 541.649 437.656 77.378 clipbox
745 426.608 p0_0
gsave
fill
grestore
stroke
grestore
gsave
541.649 541.649 437.656 77.378 clipbox
680.619 351.93 p0_0
gsave
fill
grestore
stroke
grestore
gsave
541.649 541.649 437.656 77.378 clipbox
822.29 476.936 p0_0
gsave
fill
grestore
stroke
grestore
gsave
541.649 541.649 437.656 77.378 clipbox
828.89 473.411 p0_0
gsave
fill
grestore
stroke
grestore
gsave
541.649 541.649 437.656 77.378 clipbox
615.933 300.5 p0_0
gsave
fill
grestore
stroke
grestore
gsave
541.649 541.649 437.656 77.378 clipbox
751.541 442.379 p0_0
gsave
fill
grestore
stroke
grestore
gsave
541.649 541.649 437.656 77.378 clipbox
835.511 469.874 p0_0
gsave
fill
grestore
stroke
grestore
gsave
541.649 541.649 437.656 77.378 clipbox
686.915 373.871 p0_0
gsave
fill
grestore
stroke
grestore
gsave
541.649 541.649 437.656 77.378 clipbox
544.578 259.027 p0_0
gsave
fill
grestore
stroke
grestore
gsave
541.649 541.649 437.656 77.378 clipbox
622.158 303.072 p0_0
gsave
fill
grestore
stroke
grestore
gsave
541.649 541.649 437.656 77.378 clipbox
842.154 466.325 p0_0
gsave
fill
grestore
stroke
grestore
gsave
541.649 541.649 437.656 77.378 clipbox
758.091 449.597 p0_0
gsave
fill
grestore
stroke
grestore
gsave
541.649 541.649 437.656 77.378 clipbox
764.58 437.349 p0_0
gsave
fill
grestore
stroke
grestore
gsave
541.649 541.649 437.656 77.378 clipbox
693.293 383.066 p0_0
gsave
fill
grestore
stroke
grestore
gsave
541.649 541.649 437.656 77.378 clipbox
628.43 303.519 p0_0
gsave
fill
grestore
stroke
grestore
gsave
541.649 541.649 437.656 77.378 clipbox
550.618 263.637 p0_0
gsave
fill
grestore
stroke
grestore
gsave
541.649 541.649 437.656 77.378 clipbox
848.905 469.278 p0_0
gsave
fill
grestore
stroke
grestore
gsave
541.649 541.649 437.656 77.378 clipbox
771.115 431.573 p0_0
gsave
fill
grestore
stroke
grestore
gsave
541.649 541.649 437.656 77.378 clipbox
556.827 259.743 p0_0
gsave
fill
grestore
stroke
grestore
gsave
541.649 541.649 437.656 77.378 clipbox
699.713 390.154 p0_0
gsave
fill
grestore
stroke
grestore
gsave
541.649 541.649 437.656 77.378 clipbox
855.717 474.423 p0_0
gsave
fill
grestore
stroke
grestore
gsave
541.649 541.649 437.656 77.378 clipbox
634.604 318.971 p0_0
gsave
fill
grestore
stroke
grestore
gsave
541.649 541.649 437.656 77.378 clipbox
562.989 260.104 p0_0
gsave
fill
grestore
stroke
grestore
gsave
541.649 541.649 437.656 77.378 clipbox
641.019 308.711 p0_0
gsave
fill
grestore
stroke
grestore
gsave
541.649 541.649 437.656 77.378 clipbox
777.832 451.849 p0_0
gsave
fill
grestore
stroke
grestore
gsave
541.649 541.649 437.656 77.378 clipbox
862.499 475.224 p0_0
gsave
fill
grestore
stroke
grestore
gsave
541.649 541.649 437.656 77.378 clipbox
706.169 395.113 p0_0
gsave
fill
grestore
stroke
grestore
gsave
541.649 541.649 437.656 77.378 clipbox
784.406 443.882 p0_0
gsave
fill
grestore
stroke
grestore
gsave
541.649 541.649 437.656 77.378 clipbox
569.112 264.745 p0_0
gsave
fill
grestore
stroke
grestore
gsave
541.649 541.649 437.656 77.378 clipbox
647.341 313.476 p0_0
gsave
fill
grestore
stroke
grestore
gsave
541.649 541.649 437.656 77.378 clipbox
869.342 478.217 p0_0
gsave
fill
grestore
stroke
grestore
gsave
541.649 541.649 437.656 77.378 clipbox
575.389 260.829 p0_0
gsave
fill
grestore
stroke
grestore
gsave
541.649 541.649 437.656 77.378 clipbox
712.656 406.621 p0_0
gsave
fill
grestore
stroke
grestore
gsave
541.649 541.649 437.656 77.378 clipbox
791.095 448.992 p0_0
gsave
fill
grestore
stroke
grestore
gsave
541.649 541.649 437.656 77.378 clipbox
876.075 472.453 p0_0
gsave
fill
grestore
stroke
grestore
gsave
541.649 541.649 437.656 77.378 clipbox
719.175 394.221 p0_0
gsave
fill
grestore
stroke
grestore
gsave
541.649 541.649 437.656 77.378 clipbox
581.628 261.194 p0_0
gsave
fill
grestore
stroke
grestore
gsave
541.649 541.649 437.656 77.378 clipbox
797.763 447.556 p0_0
gsave
fill
grestore
stroke
grestore
gsave
541.649 541.649 437.656 77.378 clipbox
725.711 388.328 p0_0
gsave
fill
grestore
stroke
grestore
gsave
541.649 541.649 437.656 77.378 clipbox
653.64 326.91 p0_0
gsave
fill
grestore
stroke
grestore
gsave
541.649 541.649 437.656 77.378 clipbox
882.975 475.451 p0_0
gsave
fill
grestore
stroke
grestore
gsave
541.649 541.649 437.656 77.378 clipbox
804.476 448.308 p0_0
gsave
fill
grestore
stroke
grestore
gsave
541.649 541.649 437.656 77.378 clipbox
587.863 263.713 p0_0
gsave
fill
grestore
stroke
grestore
gsave
541.649 541.649 437.656 77.378 clipbox
502.557 242.342 p0_0
gsave
fill
grestore
stroke
grestore
gsave
541.649 541.649 437.656 77.378 clipbox
889.829 474.06 p0_0
gsave
fill
grestore
stroke
grestore
gsave
541.649 541.649 437.656 77.378 clipbox
659.994 338.262 p0_0
gsave
fill
grestore
stroke
grestore
gsave
541.649 541.649 437.656 77.378 clipbox
811.153 442.472 p0_0
gsave
fill
grestore
stroke
grestore
gsave
541.649 541.649 437.656 77.378 clipbox
732.298 402.062 p0_0
gsave
fill
grestore
stroke
grestore
gsave
541.649 541.649 437.656 77.378 clipbox
594.182 261.928 p0_0
gsave
fill
grestore
stroke
grestore
gsave
541.649 541.649 437.656 77.378 clipbox
896.669 470.461 p0_0
gsave
fill
grestore
stroke
grestore
gsave
541.649 541.649 437.656 77.378 clipbox
508.626 244.823 p0_0
gsave
fill
grestore
stroke
grestore
gsave
541.649 541.649 437.656 77.378 clipbox
738.878 393.963 p0_0
gsave
fill
grestore
stroke
grestore
gsave
541.649 541.649 437.656 77.378 clipbox
666.455 336.613 p0_0
gsave
fill
grestore
stroke
grestore
gsave
541.649 541.649 437.656 77.378 clipbox
514.902 238.686 p0_0
gsave
fill
grestore
stroke
grestore
gsave
541.649 541.649 437.656 77.378 clipbox
600.473 264.459 p0_0
gsave
fill
grestore
stroke
grestore
gsave
541.649 541.649 437.656 77.378 clipbox
903.655 473.472 p0_0
gsave
fill
grestore
stroke
grestore
gsave
541.649 541.649 437.656 77.378 clipbox
818.052 456.435 p0_0
gsave
fill
grestore
stroke
grestore
gsave
541.649 541.649 437.656 77.378 clipbox
745.508 396.8 p0_0
gsave
fill
grestore
stroke
grestore
gsave
541.649 541.649 437.656 77.378 clipbox
521.022 241.169 p0_0
gsave
fill
grestore
stroke
grestore
gsave
541.649 541.649 437.656 77.378 clipbox
910.588 472.069 p0_0
gsave
fill
grestore
stroke
grestore
gsave
541.649 541.649 437.656 77.378 clipbox
752.127 388.667 p0_0
gsave
fill
grestore
stroke
grestore
gsave
541.649 541.649 437.656 77.378 clipbox
606.817 264.835 p0_0
gsave
fill
grestore
stroke
grestore
gsave
541.649 541.649 437.656 77.378 clipbox
824.805 452.79 p0_0
gsave
fill
grestore
stroke
grestore
gsave
541.649 541.649 437.656 77.378 clipbox
672.863 352.426 p0_0
gsave
fill
grestore
stroke
grestore
gsave
541.649 541.649 437.656 77.378 clipbox
527.339 235.004 p0_0
gsave
fill
grestore
stroke
grestore
gsave
541.649 541.649 437.656 77.378 clipbox
917.501 468.445 p0_0
gsave
fill
grestore
stroke
grestore
gsave
541.649 541.649 437.656 77.378 clipbox
679.407 344.226 p0_0
gsave
fill
grestore
stroke
grestore
gsave
541.649 541.649 437.656 77.378 clipbox
831.631 453.56 p0_0
gsave
fill
grestore
stroke
grestore
gsave
541.649 541.649 437.656 77.378 clipbox
613.164 267.384 p0_0
gsave
fill
grestore
stroke
grestore
gsave
541.649 541.649 437.656 77.378 clipbox
685.981 331.63 p0_0
gsave
fill
grestore
stroke
grestore
gsave
541.649 541.649 437.656 77.378 clipbox
758.848 400.309 p0_0
gsave
fill
grestore
stroke
grestore
gsave
541.649 541.649 437.656 77.378 clipbox
533.511 237.487 p0_0
gsave
fill
grestore
stroke
grestore
gsave
541.649 541.649 437.656 77.378 clipbox
838.404 447.681 p0_0
gsave
fill
grestore
stroke
grestore
gsave
541.649 541.649 437.656 77.378 clipbox
924.577 471.469 p0_0
gsave
fill
grestore
stroke
grestore
gsave
541.649 541.649 437.656 77.378 clipbox
539.869 231.294 p0_0
gsave
fill
grestore
stroke
grestore
gsave
541.649 541.649 437.656 77.378 clipbox
931.589 470.055 p0_0
gsave
fill
grestore
stroke
grestore
gsave
541.649 541.649 437.656 77.378 clipbox
619.39 285.213 p0_0
gsave
fill
grestore
stroke
grestore
gsave
541.649 541.649 437.656 77.378 clipbox
845.399 457.331 p0_0
gsave
fill
grestore
stroke
grestore
gsave
541.649 541.649 437.656 77.378 clipbox
765.646 418.671 p0_0
gsave
fill
grestore
stroke
grestore
gsave
541.649 541.649 437.656 77.378 clipbox
699.105 337.062 p0_0
gsave
fill
grestore
stroke
grestore
gsave
541.649 541.649 437.656 77.378 clipbox
625.927 274.701 p0_0
gsave
fill
grestore
stroke
grestore
gsave
541.649 541.649 437.656 77.378 clipbox
692.47 358.519 p0_0
gsave
fill
grestore
stroke
grestore
gsave
541.649 541.649 437.656 77.378 clipbox
546.093 233.778 p0_0
gsave
fill
grestore
stroke
grestore
gsave
541.649 541.649 437.656 77.378 clipbox
772.357 412.715 p0_0
gsave
fill
grestore
stroke
grestore
gsave
541.649 541.649 437.656 77.378 clipbox
552.42 231.913 p0_0
gsave
fill
grestore
stroke
grestore
gsave
541.649 541.649 437.656 77.378 clipbox
852.374 462.576 p0_0
gsave
fill
grestore
stroke
grestore
gsave
541.649 541.649 437.656 77.378 clipbox
705.71 342.002 p0_0
gsave
fill
grestore
stroke
grestore
gsave
541.649 541.649 437.656 77.378 clipbox
859.159 452.205 p0_0
gsave
fill
grestore
stroke
grestore
gsave
541.649 541.649 437.656 77.378 clipbox
632.29 286.059 p0_0
gsave
fill
grestore
stroke
grestore
gsave
541.649 541.649 437.656 77.378 clipbox
558.77 230.041 p0_0
gsave
fill
grestore
stroke
grestore
gsave
541.649 541.649 437.656 77.378 clipbox
638.867 275.504 p0_0
gsave
fill
grestore
stroke
grestore
gsave
541.649 541.649 437.656 77.378 clipbox
779.202 424.534 p0_0
gsave
fill
grestore
stroke
grestore
gsave
541.649 541.649 437.656 77.378 clipbox
565.144 228.162 p0_0
gsave
fill
grestore
stroke
grestore
gsave
541.649 541.649 437.656 77.378 clipbox
866.229 459.692 p0_0
gsave
fill
grestore
stroke
grestore
gsave
541.649 541.649 437.656 77.378 clipbox
785.979 420.789 p0_0
gsave
fill
grestore
stroke
grestore
gsave
541.649 541.649 437.656 77.378 clipbox
645.363 278.107 p0_0
gsave
fill
grestore
stroke
grestore
gsave
541.649 541.649 437.656 77.378 clipbox
712.344 362.474 p0_0
gsave
fill
grestore
stroke
grestore
gsave
541.649 541.649 437.656 77.378 clipbox
873.23 460.486 p0_0
gsave
fill
grestore
stroke
grestore
gsave
541.649 541.649 437.656 77.378 clipbox
571.477 230.658 p0_0
gsave
fill
grestore
stroke
grestore
gsave
541.649 541.649 437.656 77.378 clipbox
719.026 360.84 p0_0
gsave
fill
grestore
stroke
grestore
gsave
541.649 541.649 437.656 77.378 clipbox
792.867 428.213 p0_0
gsave
fill
grestore
stroke
grestore
gsave
541.649 541.649 437.656 77.378 clipbox
651.859 285.134 p0_0
gsave
fill
grestore
stroke
grestore
gsave
541.649 541.649 437.656 77.378 clipbox
880.225 459.035 p0_0
gsave
fill
grestore
stroke
grestore
gsave
541.649 541.649 437.656 77.378 clipbox
658.496 274.513 p0_0
gsave
fill
grestore
stroke
grestore
gsave
541.649 541.649 437.656 77.378 clipbox
799.697 424.456 p0_0
gsave
fill
grestore
stroke
grestore
gsave
541.649 541.649 437.656 77.378 clipbox
577.777 237.564 p0_0
gsave
fill
grestore
stroke
grestore
gsave
541.649 541.649 437.656 77.378 clipbox
725.744 370.345 p0_0
gsave
fill
grestore
stroke
grestore
gsave
541.649 541.649 437.656 77.378 clipbox
887.246 457.578 p0_0
gsave
fill
grestore
stroke
grestore
gsave
541.649 541.649 437.656 77.378 clipbox
584.322 229.079 p0_0
gsave
fill
grestore
stroke
grestore
gsave
541.649 541.649 437.656 77.378 clipbox
732.473 362.015 p0_0
gsave
fill
grestore
stroke
grestore
gsave
541.649 541.649 437.656 77.378 clipbox
806.613 427.426 p0_0
gsave
fill
grestore
stroke
grestore
gsave
541.649 541.649 437.656 77.378 clipbox
894.293 456.116 p0_0
gsave
fill
grestore
stroke
grestore
gsave
541.649 541.649 437.656 77.378 clipbox
590.797 227.183 p0_0
gsave
fill
grestore
stroke
grestore
gsave
541.649 541.649 437.656 77.378 clipbox
664.996 292.644 p0_0
gsave
fill
grestore
stroke
grestore
gsave
541.649 541.649 437.656 77.378 clipbox
671.609 297.54 p0_0
gsave
fill
grestore
stroke
grestore
gsave
541.649 541.649 437.656 77.378 clipbox
597.189 234.12 p0_0
gsave
fill
grestore
stroke
grestore
gsave
541.649 541.649 437.656 77.378 clipbox
820.493 428.891 p0_0
gsave
fill
grestore
stroke
grestore
gsave
541.649 541.649 437.656 77.378 clipbox
813.761 450.736 p0_0
gsave
fill
grestore
stroke
grestore
gsave
541.649 541.649 437.656 77.378 clipbox
739.298 387.279 p0_0
gsave
fill
grestore
stroke
grestore
gsave
541.649 541.649 437.656 77.378 clipbox
603.822 223.368 p0_0
gsave
fill
grestore
stroke
grestore
gsave
541.649 541.649 437.656 77.378 clipbox
746.097 383.422 p0_0
gsave
fill
grestore
stroke
grestore
gsave
541.649 541.649 437.656 77.378 clipbox
678.247 304.695 p0_0
gsave
fill
grestore
stroke
grestore
gsave
541.649 541.649 437.656 77.378 clipbox
827.555 436.421 p0_0
gsave
fill
grestore
stroke
grestore
gsave
541.649 541.649 437.656 77.378 clipbox
684.986 291.75 p0_0
gsave
fill
grestore
stroke
grestore
gsave
541.649 541.649 437.656 77.378 clipbox
610.251 232.541 p0_0
gsave
fill
grestore
stroke
grestore
gsave
541.649 541.649 437.656 77.378 clipbox
834.575 437.176 p0_0
gsave
fill
grestore
stroke
grestore
gsave
541.649 541.649 437.656 77.378 clipbox
616.878 226.188 p0_0
gsave
fill
grestore
stroke
grestore
gsave
541.649 541.649 437.656 77.378 clipbox
752.978 395.358 p0_0
gsave
fill
grestore
stroke
grestore
gsave
541.649 541.649 437.656 77.378 clipbox
759.813 386.969 p0_0
gsave
fill
grestore
stroke
grestore
gsave
541.649 541.649 437.656 77.378 clipbox
691.658 310.134 p0_0
gsave
fill
grestore
stroke
grestore
gsave
541.649 541.649 437.656 77.378 clipbox
841.683 442.488 p0_0
gsave
fill
grestore
stroke
grestore
gsave
541.649 541.649 437.656 77.378 clipbox
623.376 235.411 p0_0
gsave
fill
grestore
stroke
grestore
gsave
541.649 541.649 437.656 77.378 clipbox
766.712 387.62 p0_0
gsave
fill
grestore
stroke
grestore
gsave
541.649 541.649 437.656 77.378 clipbox
848.644 434.136 p0_0
gsave
fill
grestore
stroke
grestore
gsave
541.649 541.649 437.656 77.378 clipbox
698.388 326.406 p0_0
gsave
fill
grestore
stroke
grestore
gsave
541.649 541.649 437.656 77.378 clipbox
629.934 242.451 p0_0
gsave
fill
grestore
stroke
grestore
gsave
541.649 541.649 437.656 77.378 clipbox
855.848 441.748 p0_0
gsave
fill
grestore
stroke
grestore
gsave
541.649 541.649 437.656 77.378 clipbox
773.721 401.928 p0_0
gsave
fill
grestore
stroke
grestore
gsave
541.649 541.649 437.656 77.378 clipbox
705.19 322.405 p0_0
gsave
fill
grestore
stroke
grestore
gsave
541.649 541.649 437.656 77.378 clipbox
636.548 247.285 p0_0
gsave
fill
grestore
stroke
grestore
gsave
541.649 541.649 437.656 77.378 clipbox
780.674 400.333 p0_0
gsave
fill
grestore
stroke
grestore
gsave
541.649 541.649 437.656 77.378 clipbox
643.348 231.904 p0_0
gsave
fill
grestore
stroke
grestore
gsave
541.649 541.649 437.656 77.378 clipbox
787.655 398.731 p0_0
gsave
fill
grestore
stroke
grestore
gsave
541.649 541.649 437.656 77.378 clipbox
712.009 336.539 p0_0
gsave
fill
grestore
stroke
grestore
gsave
541.649 541.649 437.656 77.378 clipbox
650.033 234.474 p0_0
gsave
fill
grestore
stroke
grestore
gsave
541.649 541.649 437.656 77.378 clipbox
794.625 392.543 p0_0
gsave
fill
grestore
stroke
grestore
gsave
541.649 541.649 437.656 77.378 clipbox
718.871 334.81 p0_0
gsave
fill
grestore
stroke
grestore
gsave
541.649 541.649 437.656 77.378 clipbox
725.754 326.236 p0_0
gsave
fill
grestore
stroke
grestore
gsave
541.649 541.649 437.656 77.378 clipbox
656.654 252.876 p0_0
gsave
fill
grestore
stroke
grestore
gsave
541.649 541.649 437.656 77.378 clipbox
801.837 411.599 p0_0
gsave
fill
grestore
stroke
grestore
gsave
541.649 541.649 437.656 77.378 clipbox
663.464 246.443 p0_0
gsave
fill
grestore
stroke
grestore
gsave
541.649 541.649 437.656 77.378 clipbox
808.845 403.093 p0_0
gsave
fill
grestore
stroke
grestore
gsave
541.649 541.649 437.656 77.378 clipbox
732.696 342.771 p0_0
gsave
fill
grestore
stroke
grestore
gsave
541.649 541.649 437.656 77.378 clipbox
816.129 419.977 p0_0
gsave
fill
grestore
stroke
grestore
gsave
541.649 541.649 437.656 77.378 clipbox
739.681 354.827 p0_0
gsave
fill
grestore
stroke
grestore
gsave
541.649 541.649 437.656 77.378 clipbox
670.134 274.12 p0_0
gsave
fill
grestore
stroke
grestore
gsave
541.649 541.649 437.656 77.378 clipbox
676.98 274.537 p0_0
gsave
fill
grestore
stroke
grestore
gsave
541.649 541.649 437.656 77.378 clipbox
746.698 362.345 p0_0
gsave
fill
grestore
stroke
grestore
gsave
541.649 541.649 437.656 77.378 clipbox
683.902 261.215 p0_0
gsave
fill
grestore
stroke
grestore
gsave
541.649 541.649 437.656 77.378 clipbox
753.72 360.643 p0_0
gsave
fill
grestore
stroke
grestore
gsave
541.649 541.649 437.656 77.378 clipbox
690.788 266.192 p0_0
gsave
fill
grestore
stroke
grestore
gsave
541.649 541.649 437.656 77.378 clipbox
760.749 354.302 p0_0
gsave
fill
grestore
stroke
grestore
gsave
541.649 541.649 437.656 77.378 clipbox
767.921 371.171 p0_0
gsave
fill
grestore
stroke
grestore
gsave
541.649 541.649 437.656 77.378 clipbox
697.65 303.525 p0_0
gsave
fill
grestore
stroke
grestore
gsave
541.649 541.649 437.656 77.378 clipbox
775.079 376.477 p0_0
gsave
fill
grestore
stroke
grestore
gsave
541.649 541.649 437.656 77.378 clipbox
704.649 294.733 p0_0
gsave
fill
grestore
stroke
grestore
gsave
541.649 541.649 437.656 77.378 clipbox
711.66 297.525 p0_0
gsave
fill
grestore
stroke
grestore
gsave
541.649 541.649 437.656 77.378 clipbox
718.708 304.995 p0_0
gsave
fill
grestore
stroke
grestore
gsave
541.649 541.649 437.656 77.378 clipbox
725.794 310.168 p0_0
gsave
fill
grestore
stroke
grestore
gsave
541.649 541.649 437.656 77.378 clipbox
732.932 322.418 p0_0
gsave
fill
grestore
stroke
grestore
/p1_0 {
newpath
translate
-2.236068 -2.236068 m
2.236068 2.236068 l
-2.236068 2.236068 m
2.236068 -2.236068 l

} bind def
1.500 setlinewidth
1.000 0.000 0.000 setrgbcolor
gsave
541.649 541.649 437.656 77.378 clipbox
700.912 447.843 p1_0
gsave
fill
grestore
stroke
grestore
gsave
541.649 541.649 437.656 77.378 clipbox
707.069 446.481 p1_0
gsave
fill
grestore
stroke
grestore
gsave
541.649 541.649 437.656 77.378 clipbox
713.25 438.89 p1_0
gsave
fill
grestore
stroke
grestore
gsave
541.649 541.649 437.656 77.378 clipbox
719.446 437.509 p1_0
gsave
fill
grestore
stroke
grestore
gsave
541.649 541.649 437.656 77.378 clipbox
725.689 461.147 p1_0
gsave
fill
grestore
stroke
grestore
gsave
541.649 541.649 437.656 77.378 clipbox
731.918 443.072 p1_0
gsave
fill
grestore
stroke
grestore
gsave
541.649 541.649 437.656 77.378 clipbox
663.135 394.888 p1_0
gsave
fill
grestore
stroke
grestore
gsave
541.649 541.649 437.656 77.378 clipbox
738.214 454.248 p1_0
gsave
fill
grestore
stroke
grestore
gsave
541.649 541.649 437.656 77.378 clipbox
744.493 446.587 p1_0
gsave
fill
grestore
stroke
grestore
gsave
541.649 541.649 437.656 77.378 clipbox
669.16 420.566 p1_0
gsave
fill
grestore
stroke
grestore
gsave
541.649 541.649 437.656 77.378 clipbox
675.411 404.476 p1_0
gsave
fill
grestore
stroke
grestore
gsave
541.649 541.649 437.656 77.378 clipbox
750.846 455.716 p1_0
gsave
fill
grestore
stroke
grestore
gsave
541.649 541.649 437.656 77.378 clipbox
757.129 439.613 p1_0
gsave
fill
grestore
stroke
grestore
gsave
541.649 541.649 437.656 77.378 clipbox
681.608 405.112 p1_0
gsave
fill
grestore
stroke
grestore
gsave
541.649 541.649 437.656 77.378 clipbox
687.836 403.651 p1_0
gsave
fill
grestore
stroke
grestore
gsave
541.649 541.649 437.656 77.378 clipbox
694.113 389.587 p1_0
gsave
fill
grestore
stroke
grestore
gsave
541.649 541.649 437.656 77.378 clipbox
624.513 349.218 p1_0
gsave
fill
grestore
stroke
grestore
gsave
541.649 541.649 437.656 77.378 clipbox
763.66 474.128 p1_0
gsave
fill
grestore
stroke
grestore
gsave
541.649 541.649 437.656 77.378 clipbox
700.36 398.608 p1_0
gsave
fill
grestore
stroke
grestore
gsave
541.649 541.649 437.656 77.378 clipbox
770.006 462.176 p1_0
gsave
fill
grestore
stroke
grestore
gsave
541.649 541.649 437.656 77.378 clipbox
630.628 351.845 p1_0
gsave
fill
grestore
stroke
grestore
gsave
541.649 541.649 437.656 77.378 clipbox
776.477 469.307 p1_0
gsave
fill
grestore
stroke
grestore
gsave
541.649 541.649 437.656 77.378 clipbox
706.641 409.793 p1_0
gsave
fill
grestore
stroke
grestore
gsave
541.649 541.649 437.656 77.378 clipbox
782.811 450.939 p1_0
gsave
fill
grestore
stroke
grestore
gsave
541.649 541.649 437.656 77.378 clipbox
636.771 354.483 p1_0
gsave
fill
grestore
stroke
grestore
gsave
541.649 541.649 437.656 77.378 clipbox
643.05 342.399 p1_0
gsave
fill
grestore
stroke
grestore
gsave
541.649 541.649 437.656 77.378 clipbox
712.965 406.212 p1_0
gsave
fill
grestore
stroke
grestore
gsave
541.649 541.649 437.656 77.378 clipbox
789.334 458.059 p1_0
gsave
fill
grestore
stroke
grestore
gsave
541.649 541.649 437.656 77.378 clipbox
649.252 342.918 p1_0
gsave
fill
grestore
stroke
grestore
gsave
541.649 541.649 437.656 77.378 clipbox
719.311 406.859 p1_0
gsave
fill
grestore
stroke
grestore
gsave
541.649 541.649 437.656 77.378 clipbox
795.909 467.355 p1_0
gsave
fill
grestore
stroke
grestore
gsave
541.649 541.649 437.656 77.378 clipbox
655.454 347.661 p1_0
gsave
fill
grestore
stroke
grestore
gsave
541.649 541.649 437.656 77.378 clipbox
585.141 294.114 p1_0
gsave
fill
grestore
stroke
grestore
gsave
541.649 541.649 437.656 77.378 clipbox
802.391 461.705 p1_0
gsave
fill
grestore
stroke
grestore
gsave
541.649 541.649 437.656 77.378 clipbox
725.701 426.67 p1_0
gsave
fill
grestore
stroke
grestore
gsave
541.649 541.649 437.656 77.378 clipbox
661.674 354.546 p1_0
gsave
fill
grestore
stroke
grestore
gsave
541.649 541.649 437.656 77.378 clipbox
732.1 420.953 p1_0
gsave
fill
grestore
stroke
grestore
gsave
541.649 541.649 437.656 77.378 clipbox
591.177 300.861 p1_0
gsave
fill
grestore
stroke
grestore
gsave
541.649 541.649 437.656 77.378 clipbox
808.992 466.757 p1_0
gsave
fill
grestore
stroke
grestore
gsave
541.649 541.649 437.656 77.378 clipbox
597.4 294.964 p1_0
gsave
fill
grestore
stroke
grestore
gsave
541.649 541.649 437.656 77.378 clipbox
667.938 359.342 p1_0
gsave
fill
grestore
stroke
grestore
gsave
541.649 541.649 437.656 77.378 clipbox
738.54 425.915 p1_0
gsave
fill
grestore
stroke
grestore
gsave
541.649 541.649 437.656 77.378 clipbox
815.69 478.295 p1_0
gsave
fill
grestore
stroke
grestore
gsave
541.649 541.649 437.656 77.378 clipbox
674.259 357.77 p1_0
gsave
fill
grestore
stroke
grestore
gsave
541.649 541.649 437.656 77.378 clipbox
603.543 297.506 p1_0
gsave
fill
grestore
stroke
grestore
gsave
541.649 541.649 437.656 77.378 clipbox
609.898 283.12 p1_0
gsave
fill
grestore
stroke
grestore
gsave
541.649 541.649 437.656 77.378 clipbox
745 426.608 p1_0
gsave
fill
grestore
stroke
grestore
gsave
541.649 541.649 437.656 77.378 clipbox
680.612 354.061 p1_0
gsave
fill
grestore
stroke
grestore
gsave
541.649 541.649 437.656 77.378 clipbox
822.29 476.936 p1_0
gsave
fill
grestore
stroke
grestore
gsave
541.649 541.649 437.656 77.378 clipbox
828.915 475.572 p1_0
gsave
fill
grestore
stroke
grestore
gsave
541.649 541.649 437.656 77.378 clipbox
615.933 300.5 p1_0
gsave
fill
grestore
stroke
grestore
gsave
541.649 541.649 437.656 77.378 clipbox
751.541 442.379 p1_0
gsave
fill
grestore
stroke
grestore
gsave
541.649 541.649 437.656 77.378 clipbox
835.538 472.038 p1_0
gsave
fill
grestore
stroke
grestore
gsave
541.649 541.649 437.656 77.378 clipbox
686.921 371.727 p1_0
gsave
fill
grestore
stroke
grestore
gsave
541.649 541.649 437.656 77.378 clipbox
544.615 256.907 p1_0
gsave
fill
grestore
stroke
grestore
gsave
541.649 541.649 437.656 77.378 clipbox
622.158 303.072 p1_0
gsave
fill
grestore
stroke
grestore
gsave
541.649 541.649 437.656 77.378 clipbox
842.181 468.493 p1_0
gsave
fill
grestore
stroke
grestore
gsave
541.649 541.649 437.656 77.378 clipbox
758.081 447.434 p1_0
gsave
fill
grestore
stroke
grestore
gsave
541.649 541.649 437.656 77.378 clipbox
764.58 437.349 p1_0
gsave
fill
grestore
stroke
grestore
gsave
541.649 541.649 437.656 77.378 clipbox
693.303 378.762 p1_0
gsave
fill
grestore
stroke
grestore
gsave
541.649 541.649 437.656 77.378 clipbox
628.449 301.384 p1_0
gsave
fill
grestore
stroke
grestore
gsave
541.649 541.649 437.656 77.378 clipbox
550.618 263.637 p1_0
gsave
fill
grestore
stroke
grestore
gsave
541.649 541.649 437.656 77.378 clipbox
848.905 469.278 p1_0
gsave
fill
grestore
stroke
grestore
gsave
541.649 541.649 437.656 77.378 clipbox
771.115 431.573 p1_0
gsave
fill
grestore
stroke
grestore
gsave
541.649 541.649 437.656 77.378 clipbox
699.727 381.521 p1_0
gsave
fill
grestore
stroke
grestore
gsave
541.649 541.649 437.656 77.378 clipbox
556.792 261.874 p1_0
gsave
fill
grestore
stroke
grestore
gsave
541.649 541.649 437.656 77.378 clipbox
855.717 474.423 p1_0
gsave
fill
grestore
stroke
grestore
gsave
541.649 541.649 437.656 77.378 clipbox
634.639 314.68 p1_0
gsave
fill
grestore
stroke
grestore
gsave
541.649 541.649 437.656 77.378 clipbox
562.989 260.104 p1_0
gsave
fill
grestore
stroke
grestore
gsave
541.649 541.649 437.656 77.378 clipbox
641.052 304.42 p1_0
gsave
fill
grestore
stroke
grestore
gsave
541.649 541.649 437.656 77.378 clipbox
777.818 449.671 p1_0
gsave
fill
grestore
stroke
grestore
gsave
541.649 541.649 437.656 77.378 clipbox
862.499 475.224 p1_0
gsave
fill
grestore
stroke
grestore
gsave
541.649 541.649 437.656 77.378 clipbox
706.171 392.947 p1_0
gsave
fill
grestore
stroke
grestore
gsave
541.649 541.649 437.656 77.378 clipbox
784.391 441.704 p1_0
gsave
fill
grestore
stroke
grestore
gsave
541.649 541.649 437.656 77.378 clipbox
569.079 266.886 p1_0
gsave
fill
grestore
stroke
grestore
gsave
541.649 541.649 437.656 77.378 clipbox
647.356 311.324 p1_0
gsave
fill
grestore
stroke
grestore
gsave
541.649 541.649 437.656 77.378 clipbox
869.342 478.217 p1_0
gsave
fill
grestore
stroke
grestore
gsave
541.649 541.649 437.656 77.378 clipbox
575.389 260.829 p1_0
gsave
fill
grestore
stroke
grestore
gsave
541.649 541.649 437.656 77.378 clipbox
712.657 404.445 p1_0
gsave
fill
grestore
stroke
grestore
gsave
541.649 541.649 437.656 77.378 clipbox
791.095 448.992 p1_0
gsave
fill
grestore
stroke
grestore
gsave
541.649 541.649 437.656 77.378 clipbox
876.075 472.453 p1_0
gsave
fill
grestore
stroke
grestore
gsave
541.649 541.649 437.656 77.378 clipbox
719.175 394.221 p1_0
gsave
fill
grestore
stroke
grestore
gsave
541.649 541.649 437.656 77.378 clipbox
581.628 261.194 p1_0
gsave
fill
grestore
stroke
grestore
gsave
541.649 541.649 437.656 77.378 clipbox
797.763 447.556 p1_0
gsave
fill
grestore
stroke
grestore
gsave
541.649 541.649 437.656 77.378 clipbox
725.711 388.328 p1_0
gsave
fill
grestore
stroke
grestore
gsave
541.649 541.649 437.656 77.378 clipbox
882.975 475.451 p1_0
gsave
fill
grestore
stroke
grestore
gsave
541.649 541.649 437.656 77.378 clipbox
653.613 331.238 p1_0
gsave
fill
grestore
stroke
grestore
gsave
541.649 541.649 437.656 77.378 clipbox
804.456 446.114 p1_0
gsave
fill
grestore
stroke
grestore
gsave
541.649 541.649 437.656 77.378 clipbox
502.557 242.342 p1_0
gsave
fill
grestore
stroke
grestore
gsave
541.649 541.649 437.656 77.378 clipbox
587.835 265.866 p1_0
gsave
fill
grestore
stroke
grestore
gsave
541.649 541.649 437.656 77.378 clipbox
889.829 474.06 p1_0
gsave
fill
grestore
stroke
grestore
gsave
541.649 541.649 437.656 77.378 clipbox
660.031 331.749 p1_0
gsave
fill
grestore
stroke
grestore
gsave
541.649 541.649 437.656 77.378 clipbox
732.298 402.062 p1_0
gsave
fill
grestore
stroke
grestore
gsave
541.649 541.649 437.656 77.378 clipbox
811.174 444.668 p1_0
gsave
fill
grestore
stroke
grestore
gsave
541.649 541.649 437.656 77.378 clipbox
594.182 261.928 p1_0
gsave
fill
grestore
stroke
grestore
gsave
541.649 541.649 437.656 77.378 clipbox
896.709 472.664 p1_0
gsave
fill
grestore
stroke
grestore
gsave
541.649 541.649 437.656 77.378 clipbox
508.626 244.823 p1_0
gsave
fill
grestore
stroke
grestore
gsave
541.649 541.649 437.656 77.378 clipbox
738.873 391.776 p1_0
gsave
fill
grestore
stroke
grestore
gsave
541.649 541.649 437.656 77.378 clipbox
666.477 332.263 p1_0
gsave
fill
grestore
stroke
grestore
gsave
541.649 541.649 437.656 77.378 clipbox
514.902 238.686 p1_0
gsave
fill
grestore
stroke
grestore
gsave
541.649 541.649 437.656 77.378 clipbox
600.498 262.298 p1_0
gsave
fill
grestore
stroke
grestore
gsave
541.649 541.649 437.656 77.378 clipbox
903.655 473.472 p1_0
gsave
fill
grestore
stroke
grestore
gsave
541.649 541.649 437.656 77.378 clipbox
818.007 452.024 p1_0
gsave
fill
grestore
stroke
grestore
gsave
541.649 541.649 437.656 77.378 clipbox
745.494 392.415 p1_0
gsave
fill
grestore
stroke
grestore
gsave
541.649 541.649 437.656 77.378 clipbox
606.841 262.669 p1_0
gsave
fill
grestore
stroke
grestore
gsave
541.649 541.649 437.656 77.378 clipbox
910.588 472.069 p1_0
gsave
fill
grestore
stroke
grestore
gsave
541.649 541.649 437.656 77.378 clipbox
520.979 243.33 p1_0
gsave
fill
grestore
stroke
grestore
gsave
541.649 541.649 437.656 77.378 clipbox
752.143 393.057 p1_0
gsave
fill
grestore
stroke
grestore
gsave
541.649 541.649 437.656 77.378 clipbox
824.854 457.21 p1_0
gsave
fill
grestore
stroke
grestore
gsave
541.649 541.649 437.656 77.378 clipbox
672.844 356.803 p1_0
gsave
fill
grestore
stroke
grestore
gsave
541.649 541.649 437.656 77.378 clipbox
679.432 337.666 p1_0
gsave
fill
grestore
stroke
grestore
gsave
541.649 541.649 437.656 77.378 clipbox
527.339 235.004 p1_0
gsave
fill
grestore
stroke
grestore
gsave
541.649 541.649 437.656 77.378 clipbox
917.501 468.445 p1_0
gsave
fill
grestore
stroke
grestore
gsave
541.649 541.649 437.656 77.378 clipbox
831.631 453.56 p1_0
gsave
fill
grestore
stroke
grestore
gsave
541.649 541.649 437.656 77.378 clipbox
685.987 329.443 p1_0
gsave
fill
grestore
stroke
grestore
gsave
541.649 541.649 437.656 77.378 clipbox
613.164 267.384 p1_0
gsave
fill
grestore
stroke
grestore
gsave
541.649 541.649 437.656 77.378 clipbox
758.839 398.106 p1_0
gsave
fill
grestore
stroke
grestore
gsave
541.649 541.649 437.656 77.378 clipbox
533.552 235.319 p1_0
gsave
fill
grestore
stroke
grestore
gsave
541.649 541.649 437.656 77.378 clipbox
924.577 471.469 p1_0
gsave
fill
grestore
stroke
grestore
gsave
541.649 541.649 437.656 77.378 clipbox
838.431 449.897 p1_0
gsave
fill
grestore
stroke
grestore
gsave
541.649 541.649 437.656 77.378 clipbox
539.83 233.464 p1_0
gsave
fill
grestore
stroke
grestore
gsave
541.649 541.649 437.656 77.378 clipbox
619.476 276.482 p1_0
gsave
fill
grestore
stroke
grestore
gsave
541.649 541.649 437.656 77.378 clipbox
931.589 470.055 p1_0
gsave
fill
grestore
stroke
grestore
gsave
541.649 541.649 437.656 77.378 clipbox
845.399 457.331 p1_0
gsave
fill
grestore
stroke
grestore
gsave
541.649 541.649 437.656 77.378 clipbox
692.481 354.114 p1_0
gsave
fill
grestore
stroke
grestore
gsave
541.649 541.649 437.656 77.378 clipbox
625.948 272.517 p1_0
gsave
fill
grestore
stroke
grestore
gsave
541.649 541.649 437.656 77.378 clipbox
546.093 233.778 p1_0
gsave
fill
grestore
stroke
grestore
gsave
541.649 541.649 437.656 77.378 clipbox
699.101 339.261 p1_0
gsave
fill
grestore
stroke
grestore
gsave
541.649 541.649 437.656 77.378 clipbox
765.669 423.106 p1_0
gsave
fill
grestore
stroke
grestore
gsave
541.649 541.649 437.656 77.378 clipbox
772.332 408.28 p1_0
gsave
fill
grestore
stroke
grestore
gsave
541.649 541.649 437.656 77.378 clipbox
852.344 460.345 p1_0
gsave
fill
grestore
stroke
grestore
gsave
541.649 541.649 437.656 77.378 clipbox
552.42 231.913 p1_0
gsave
fill
grestore
stroke
grestore
gsave
541.649 541.649 437.656 77.378 clipbox
705.708 344.207 p1_0
gsave
fill
grestore
stroke
grestore
gsave
541.649 541.649 437.656 77.378 clipbox
859.159 452.205 p1_0
gsave
fill
grestore
stroke
grestore
gsave
541.649 541.649 437.656 77.378 clipbox
632.271 288.254 p1_0
gsave
fill
grestore
stroke
grestore
gsave
541.649 541.649 437.656 77.378 clipbox
558.77 230.041 p1_0
gsave
fill
grestore
stroke
grestore
gsave
541.649 541.649 437.656 77.378 clipbox
638.867 275.504 p1_0
gsave
fill
grestore
stroke
grestore
gsave
541.649 541.649 437.656 77.378 clipbox
779.202 424.534 p1_0
gsave
fill
grestore
stroke
grestore
gsave
541.649 541.649 437.656 77.378 clipbox
565.178 225.975 p1_0
gsave
fill
grestore
stroke
grestore
gsave
541.649 541.649 437.656 77.378 clipbox
866.229 459.692 p1_0
gsave
fill
grestore
stroke
grestore
gsave
541.649 541.649 437.656 77.378 clipbox
785.979 420.789 p1_0
gsave
fill
grestore
stroke
grestore
gsave
541.649 541.649 437.656 77.378 clipbox
645.378 275.908 p1_0
gsave
fill
grestore
stroke
grestore
gsave
541.649 541.649 437.656 77.378 clipbox
712.345 360.256 p1_0
gsave
fill
grestore
stroke
grestore
gsave
541.649 541.649 437.656 77.378 clipbox
873.23 460.486 p1_0
gsave
fill
grestore
stroke
grestore
gsave
541.649 541.649 437.656 77.378 clipbox
571.477 230.658 p1_0
gsave
fill
grestore
stroke
grestore
gsave
541.649 541.649 437.656 77.378 clipbox
719.027 363.063 p1_0
gsave
fill
grestore
stroke
grestore
gsave
541.649 541.649 437.656 77.378 clipbox
792.867 428.213 p1_0
gsave
fill
grestore
stroke
grestore
gsave
541.649 541.649 437.656 77.378 clipbox
651.845 287.342 p1_0
gsave
fill
grestore
stroke
grestore
gsave
541.649 541.649 437.656 77.378 clipbox
658.535 267.897 p1_0
gsave
fill
grestore
stroke
grestore
gsave
541.649 541.649 437.656 77.378 clipbox
880.225 459.035 p1_0
gsave
fill
grestore
stroke
grestore
gsave
541.649 541.649 437.656 77.378 clipbox
799.716 426.699 p1_0
gsave
fill
grestore
stroke
grestore
gsave
541.649 541.649 437.656 77.378 clipbox
577.746 239.764 p1_0
gsave
fill
grestore
stroke
grestore
gsave
541.649 541.649 437.656 77.378 clipbox
887.246 457.578 p1_0
gsave
fill
grestore
stroke
grestore
gsave
541.649 541.649 437.656 77.378 clipbox
584.351 226.879 p1_0
gsave
fill
grestore
stroke
grestore
gsave
541.649 541.649 437.656 77.378 clipbox
725.749 374.81 p1_0
gsave
fill
grestore
stroke
grestore
gsave
541.649 541.649 437.656 77.378 clipbox
732.473 362.015 p1_0
gsave
fill
grestore
stroke
grestore
gsave
541.649 541.649 437.656 77.378 clipbox
806.613 427.426 p1_0
gsave
fill
grestore
stroke
grestore
gsave
541.649 541.649 437.656 77.378 clipbox
894.293 456.116 p1_0
gsave
fill
grestore
stroke
grestore
gsave
541.649 541.649 437.656 77.378 clipbox
590.797 227.183 p1_0
gsave
fill
grestore
stroke
grestore
gsave
541.649 541.649 437.656 77.378 clipbox
664.973 297.086 p1_0
gsave
fill
grestore
stroke
grestore
gsave
541.649 541.649 437.656 77.378 clipbox
671.619 295.314 p1_0
gsave
fill
grestore
stroke
grestore
gsave
541.649 541.649 437.656 77.378 clipbox
597.216 231.908 p1_0
gsave
fill
grestore
stroke
grestore
gsave
541.649 541.649 437.656 77.378 clipbox
739.287 382.784 p1_0
gsave
fill
grestore
stroke
grestore
gsave
541.649 541.649 437.656 77.378 clipbox
813.739 448.473 p1_0
gsave
fill
grestore
stroke
grestore
gsave
541.649 541.649 437.656 77.378 clipbox
820.541 433.408 p1_0
gsave
fill
grestore
stroke
grestore
gsave
541.649 541.649 437.656 77.378 clipbox
603.771 227.794 p1_0
gsave
fill
grestore
stroke
grestore
gsave
541.649 541.649 437.656 77.378 clipbox
746.09 381.171 p1_0
gsave
fill
grestore
stroke
grestore
gsave
541.649 541.649 437.656 77.378 clipbox
678.238 306.931 p1_0
gsave
fill
grestore
stroke
grestore
gsave
541.649 541.649 437.656 77.378 clipbox
827.606 440.954 p1_0
gsave
fill
grestore
stroke
grestore
gsave
541.649 541.649 437.656 77.378 clipbox
684.979 293.983 p1_0
gsave
fill
grestore
stroke
grestore
gsave
541.649 541.649 437.656 77.378 clipbox
610.251 232.541 p1_0
gsave
fill
grestore
stroke
grestore
gsave
541.649 541.649 437.656 77.378 clipbox
834.602 439.447 p1_0
gsave
fill
grestore
stroke
grestore
gsave
541.649 541.649 437.656 77.378 clipbox
616.855 228.411 p1_0
gsave
fill
grestore
stroke
grestore
gsave
541.649 541.649 437.656 77.378 clipbox
752.986 397.62 p1_0
gsave
fill
grestore
stroke
grestore
gsave
541.649 541.649 437.656 77.378 clipbox
759.833 391.496 p1_0
gsave
fill
grestore
stroke
grestore
gsave
541.649 541.649 437.656 77.378 clipbox
691.658 310.134 p1_0
gsave
fill
grestore
stroke
grestore
gsave
541.649 541.649 437.656 77.378 clipbox
841.683 442.488 p1_0
gsave
fill
grestore
stroke
grestore
gsave
541.649 541.649 437.656 77.378 clipbox
766.7 385.353 p1_0
gsave
fill
grestore
stroke
grestore
gsave
541.649 541.649 437.656 77.378 clipbox
623.355 237.643 p1_0
gsave
fill
grestore
stroke
grestore
gsave
541.649 541.649 437.656 77.378 clipbox
848.674 436.416 p1_0
gsave
fill
grestore
stroke
grestore
gsave
541.649 541.649 437.656 77.378 clipbox
630.013 233.501 p1_0
gsave
fill
grestore
stroke
grestore
gsave
541.649 541.649 437.656 77.378 clipbox
698.4 319.635 p1_0
gsave
fill
grestore
stroke
grestore
gsave
541.649 541.649 437.656 77.378 clipbox
855.848 441.748 p1_0
gsave
fill
grestore
stroke
grestore
gsave
541.649 541.649 437.656 77.378 clipbox
773.721 401.928 p1_0
gsave
fill
grestore
stroke
grestore
gsave
541.649 541.649 437.656 77.378 clipbox
705.19 322.405 p1_0
gsave
fill
grestore
stroke
grestore
gsave
541.649 541.649 437.656 77.378 clipbox
636.548 247.285 p1_0
gsave
fill
grestore
stroke
grestore
gsave
541.649 541.649 437.656 77.378 clipbox
780.674 400.333 p1_0
gsave
fill
grestore
stroke
grestore
gsave
541.649 541.649 437.656 77.378 clipbox
643.331 234.148 p1_0
gsave
fill
grestore
stroke
grestore
gsave
541.649 541.649 437.656 77.378 clipbox
787.655 398.731 p1_0
gsave
fill
grestore
stroke
grestore
gsave
541.649 541.649 437.656 77.378 clipbox
712.009 336.539 p1_0
gsave
fill
grestore
stroke
grestore
gsave
541.649 541.649 437.656 77.378 clipbox
650.018 236.725 p1_0
gsave
fill
grestore
stroke
grestore
gsave
541.649 541.649 437.656 77.378 clipbox
794.644 394.832 p1_0
gsave
fill
grestore
stroke
grestore
gsave
541.649 541.649 437.656 77.378 clipbox
718.871 334.81 p1_0
gsave
fill
grestore
stroke
grestore
gsave
541.649 541.649 437.656 77.378 clipbox
725.751 323.959 p1_0
gsave
fill
grestore
stroke
grestore
gsave
541.649 541.649 437.656 77.378 clipbox
656.668 250.613 p1_0
gsave
fill
grestore
stroke
grestore
gsave
541.649 541.649 437.656 77.378 clipbox
801.837 411.599 p1_0
gsave
fill
grestore
stroke
grestore
gsave
541.649 541.649 437.656 77.378 clipbox
663.439 250.976 p1_0
gsave
fill
grestore
stroke
grestore
gsave
541.649 541.649 437.656 77.378 clipbox
732.688 338.192 p1_0
gsave
fill
grestore
stroke
grestore
gsave
541.649 541.649 437.656 77.378 clipbox
808.911 410.008 p1_0
gsave
fill
grestore
stroke
grestore
gsave
541.649 541.649 437.656 77.378 clipbox
739.675 352.527 p1_0
gsave
fill
grestore
stroke
grestore
gsave
541.649 541.649 437.656 77.378 clipbox
816.129 419.977 p1_0
gsave
fill
grestore
stroke
grestore
gsave
541.649 541.649 437.656 77.378 clipbox
670.123 276.404 p1_0
gsave
fill
grestore
stroke
grestore
gsave
541.649 541.649 437.656 77.378 clipbox
746.669 353.116 p1_0
gsave
fill
grestore
stroke
grestore
gsave
541.649 541.649 437.656 77.378 clipbox
676.998 269.963 p1_0
gsave
fill
grestore
stroke
grestore
gsave
541.649 541.649 437.656 77.378 clipbox
683.909 258.929 p1_0
gsave
fill
grestore
stroke
grestore
gsave
541.649 541.649 437.656 77.378 clipbox
753.729 362.957 p1_0
gsave
fill
grestore
stroke
grestore
gsave
541.649 541.649 437.656 77.378 clipbox
760.727 349.674 p1_0
gsave
fill
grestore
stroke
grestore
gsave
541.649 541.649 437.656 77.378 clipbox
690.77 273.08 p1_0
gsave
fill
grestore
stroke
grestore
gsave
541.649 541.649 437.656 77.378 clipbox
767.909 368.843 p1_0
gsave
fill
grestore
stroke
grestore
gsave
541.649 541.649 437.656 77.378 clipbox
775.037 369.474 p1_0
gsave
fill
grestore
stroke
grestore
gsave
541.649 541.649 437.656 77.378 clipbox
697.646 305.843 p1_0
gsave
fill
grestore
stroke
grestore
gsave
541.649 541.649 437.656 77.378 clipbox
704.657 287.785 p1_0
gsave
fill
grestore
stroke
grestore
gsave
541.649 541.649 437.656 77.378 clipbox
711.658 302.176 p1_0
gsave
fill
grestore
stroke
grestore
gsave
541.649 541.649 437.656 77.378 clipbox
718.704 293.345 p1_0
gsave
fill
grestore
stroke
grestore
gsave
541.649 541.649 437.656 77.378 clipbox
725.79 305.489 p1_0
gsave
fill
grestore
stroke
grestore
gsave
541.649 541.649 437.656 77.378 clipbox
732.936 324.77 p1_0
gsave
fill
grestore
stroke
grestore
/p2_0 {
newpath
translate
0 -2.236068 m
0.593012 -2.236068 1.161816 -2.000462 1.581139 -1.581139 c
2.000462 -1.161816 2.236068 -0.593012 2.236068 0 c
2.236068 0.593012 2.000462 1.161816 1.581139 1.581139 c
1.161816 2.000462 0.593012 2.236068 0 2.236068 c
-0.593012 2.236068 -1.161816 2.000462 -1.581139 1.581139 c
-2.000462 1.161816 -2.236068 0.593012 -2.236068 0 c
-2.236068 -0.593012 -2.000462 -1.161816 -1.581139 -1.581139 c
-1.161816 -2.000462 -0.593012 -2.236068 0 -2.236068 c
cl

} bind def
1.000 setlinewidth
0.000 setgray
gsave
541.649 541.649 437.656 77.378 clipbox
700.941 428.429 p2_0
gsave
fill
grestore
stroke
grestore
gsave
541.649 541.649 437.656 77.378 clipbox
707.079 435.301 p2_0
gsave
fill
grestore
stroke
grestore
gsave
541.649 541.649 437.656 77.378 clipbox
713.25 439.72 p2_0
gsave
fill
grestore
stroke
grestore
gsave
541.649 541.649 437.656 77.378 clipbox
719.446 436.886 p2_0
gsave
fill
grestore
stroke
grestore
gsave
541.649 541.649 437.656 77.378 clipbox
725.67 441.742 p2_0
gsave
fill
grestore
stroke
grestore
gsave
541.649 541.649 437.656 77.378 clipbox
663.198 383.259 p2_0
gsave
fill
grestore
stroke
grestore
gsave
541.649 541.649 437.656 77.378 clipbox
731.924 446.83 p2_0
gsave
fill
grestore
stroke
grestore
gsave
541.649 541.649 437.656 77.378 clipbox
669.326 385.304 p2_0
gsave
fill
grestore
stroke
grestore
gsave
541.649 541.649 437.656 77.378 clipbox
738.197 446.918 p2_0
gsave
fill
grestore
stroke
grestore
gsave
541.649 541.649 437.656 77.378 clipbox
744.495 447.426 p2_0
gsave
fill
grestore
stroke
grestore
gsave
541.649 541.649 437.656 77.378 clipbox
675.446 396.118 p2_0
gsave
fill
grestore
stroke
grestore
gsave
541.649 541.649 437.656 77.378 clipbox
681.649 393.182 p2_0
gsave
fill
grestore
stroke
grestore
gsave
541.649 541.649 437.656 77.378 clipbox
750.835 452.77 p2_0
gsave
fill
grestore
stroke
grestore
gsave
541.649 541.649 437.656 77.378 clipbox
757.193 454.978 p2_0
gsave
fill
grestore
stroke
grestore
gsave
541.649 541.649 437.656 77.378 clipbox
687.845 400.294 p2_0
gsave
fill
grestore
stroke
grestore
gsave
541.649 541.649 437.656 77.378 clipbox
624.606 339.186 p2_0
gsave
fill
grestore
stroke
grestore
gsave
541.649 541.649 437.656 77.378 clipbox
763.6 461.634 p2_0
gsave
fill
grestore
stroke
grestore
gsave
541.649 541.649 437.656 77.378 clipbox
694.082 403.446 p2_0
gsave
fill
grestore
stroke
grestore
gsave
541.649 541.649 437.656 77.378 clipbox
630.759 336.766 p2_0
gsave
fill
grestore
stroke
grestore
gsave
541.649 541.649 437.656 77.378 clipbox
769.996 460.481 p2_0
gsave
fill
grestore
stroke
grestore
gsave
541.649 541.649 437.656 77.378 clipbox
700.354 402.609 p2_0
gsave
fill
grestore
stroke
grestore
gsave
541.649 541.649 437.656 77.378 clipbox
776.42 459.96 p2_0
gsave
fill
grestore
stroke
grestore
gsave
541.649 541.649 437.656 77.378 clipbox
636.865 342.722 p2_0
gsave
fill
grestore
stroke
grestore
gsave
541.649 541.649 437.656 77.378 clipbox
706.642 408.525 p2_0
gsave
fill
grestore
stroke
grestore
gsave
541.649 541.649 437.656 77.378 clipbox
643.036 344.291 p2_0
gsave
fill
grestore
stroke
grestore
gsave
541.649 541.649 437.656 77.378 clipbox
712.965 406.635 p2_0
gsave
fill
grestore
stroke
grestore
gsave
541.649 541.649 437.656 77.378 clipbox
782.92 467.097 p2_0
gsave
fill
grestore
stroke
grestore
gsave
541.649 541.649 437.656 77.378 clipbox
789.399 466.799 p2_0
gsave
fill
grestore
stroke
grestore
gsave
541.649 541.649 437.656 77.378 clipbox
649.197 351.138 p2_0
gsave
fill
grestore
stroke
grestore
gsave
541.649 541.649 437.656 77.378 clipbox
719.312 411.314 p2_0
gsave
fill
grestore
stroke
grestore
gsave
541.649 541.649 437.656 77.378 clipbox
795.923 469.066 p2_0
gsave
fill
grestore
stroke
grestore
gsave
541.649 541.649 437.656 77.378 clipbox
655.43 351.464 p2_0
gsave
fill
grestore
stroke
grestore
gsave
541.649 541.649 437.656 77.378 clipbox
585.16 292.643 p2_0
gsave
fill
grestore
stroke
grestore
gsave
541.649 541.649 437.656 77.378 clipbox
725.689 414.738 p2_0
gsave
fill
grestore
stroke
grestore
gsave
541.649 541.649 437.656 77.378 clipbox
802.438 467.057 p2_0
gsave
fill
grestore
stroke
grestore
gsave
541.649 541.649 437.656 77.378 clipbox
591.269 293.696 p2_0
gsave
fill
grestore
stroke
grestore
gsave
541.649 541.649 437.656 77.378 clipbox
661.661 356.877 p2_0
gsave
fill
grestore
stroke
grestore
gsave
541.649 541.649 437.656 77.378 clipbox
732.097 419.246 p2_0
gsave
fill
grestore
stroke
grestore
gsave
541.649 541.649 437.656 77.378 clipbox
809.012 468.904 p2_0
gsave
fill
grestore
stroke
grestore
gsave
541.649 541.649 437.656 77.378 clipbox
667.958 355.093 p2_0
gsave
fill
grestore
stroke
grestore
gsave
541.649 541.649 437.656 77.378 clipbox
597.382 296.441 p2_0
gsave
fill
grestore
stroke
grestore
gsave
541.649 541.649 437.656 77.378 clipbox
738.543 427.2 p2_0
gsave
fill
grestore
stroke
grestore
gsave
541.649 541.649 437.656 77.378 clipbox
815.601 469.467 p2_0
gsave
fill
grestore
stroke
grestore
gsave
541.649 541.649 437.656 77.378 clipbox
603.58 294.334 p2_0
gsave
fill
grestore
stroke
grestore
gsave
541.649 541.649 437.656 77.378 clipbox
674.26 357.557 p2_0
gsave
fill
grestore
stroke
grestore
gsave
541.649 541.649 437.656 77.378 clipbox
745.005 428.325 p2_0
gsave
fill
grestore
stroke
grestore
gsave
541.649 541.649 437.656 77.378 clipbox
822.253 473.484 p2_0
gsave
fill
grestore
stroke
grestore
gsave
541.649 541.649 437.656 77.378 clipbox
609.709 300.485 p2_0
gsave
fill
grestore
stroke
grestore
gsave
541.649 541.649 437.656 77.378 clipbox
680.579 363.021 p2_0
gsave
fill
grestore
stroke
grestore
gsave
541.649 541.649 437.656 77.378 clipbox
828.871 471.682 p2_0
gsave
fill
grestore
stroke
grestore
gsave
541.649 541.649 437.656 77.378 clipbox
751.51 433.974 p2_0
gsave
fill
grestore
stroke
grestore
gsave
541.649 541.649 437.656 77.378 clipbox
615.942 299.65 p2_0
gsave
fill
grestore
stroke
grestore
gsave
541.649 541.649 437.656 77.378 clipbox
686.921 371.942 p2_0
gsave
fill
grestore
stroke
grestore
gsave
541.649 541.649 437.656 77.378 clipbox
835.582 475.72 p2_0
gsave
fill
grestore
stroke
grestore
gsave
541.649 541.649 437.656 77.378 clipbox
758.036 436.845 p2_0
gsave
fill
grestore
stroke
grestore
gsave
541.649 541.649 437.656 77.378 clipbox
544.507 263.058 p2_0
gsave
fill
grestore
stroke
grestore
gsave
541.649 541.649 437.656 77.378 clipbox
622.146 304.351 p2_0
gsave
fill
grestore
stroke
grestore
gsave
541.649 541.649 437.656 77.378 clipbox
842.248 473.698 p2_0
gsave
fill
grestore
stroke
grestore
gsave
541.649 541.649 437.656 77.378 clipbox
764.561 433.457 p2_0
gsave
fill
grestore
stroke
grestore
gsave
541.649 541.649 437.656 77.378 clipbox
693.315 373.818 p2_0
gsave
fill
grestore
stroke
grestore
gsave
541.649 541.649 437.656 77.378 clipbox
550.654 261.51 p2_0
gsave
fill
grestore
stroke
grestore
gsave
541.649 541.649 437.656 77.378 clipbox
628.394 307.578 p2_0
gsave
fill
grestore
stroke
grestore
gsave
541.649 541.649 437.656 77.378 clipbox
848.995 476.017 p2_0
gsave
fill
grestore
stroke
grestore
gsave
541.649 541.649 437.656 77.378 clipbox
771.137 435.472 p2_0
gsave
fill
grestore
stroke
grestore
gsave
541.649 541.649 437.656 77.378 clipbox
556.823 259.956 p2_0
gsave
fill
grestore
stroke
grestore
gsave
541.649 541.649 437.656 77.378 clipbox
699.726 381.953 p2_0
gsave
fill
grestore
stroke
grestore
gsave
541.649 541.649 437.656 77.378 clipbox
634.7 307.394 p2_0
gsave
fill
grestore
stroke
grestore
gsave
541.649 541.649 437.656 77.378 clipbox
855.72 474.641 p2_0
gsave
fill
grestore
stroke
grestore
gsave
541.649 541.649 437.656 77.378 clipbox
563.019 258.184 p2_0
gsave
fill
grestore
stroke
grestore
gsave
541.649 541.649 437.656 77.378 clipbox
706.183 380.619 p2_0
gsave
fill
grestore
stroke
grestore
gsave
541.649 541.649 437.656 77.378 clipbox
777.775 442.709 p2_0
gsave
fill
grestore
stroke
grestore
gsave
541.649 541.649 437.656 77.378 clipbox
641.053 304.206 p2_0
gsave
fill
grestore
stroke
grestore
gsave
541.649 541.649 437.656 77.378 clipbox
862.473 473.478 p2_0
gsave
fill
grestore
stroke
grestore
gsave
541.649 541.649 437.656 77.378 clipbox
569.183 260.038 p2_0
gsave
fill
grestore
stroke
grestore
gsave
541.649 541.649 437.656 77.378 clipbox
784.441 448.896 p2_0
gsave
fill
grestore
stroke
grestore
gsave
541.649 541.649 437.656 77.378 clipbox
869.271 473.622 p2_0
gsave
fill
grestore
stroke
grestore
gsave
541.649 541.649 437.656 77.378 clipbox
647.346 312.83 p2_0
gsave
fill
grestore
stroke
grestore
gsave
541.649 541.649 437.656 77.378 clipbox
712.66 394.234 p2_0
gsave
fill
grestore
stroke
grestore
gsave
541.649 541.649 437.656 77.378 clipbox
575.389 260.829 p2_0
gsave
fill
grestore
stroke
grestore
gsave
541.649 541.649 437.656 77.378 clipbox
791.065 445.06 p2_0
gsave
fill
grestore
stroke
grestore
gsave
541.649 541.649 437.656 77.378 clipbox
876.096 473.768 p2_0
gsave
fill
grestore
stroke
grestore
gsave
541.649 541.649 437.656 77.378 clipbox
719.175 393.351 p2_0
gsave
fill
grestore
stroke
grestore
gsave
541.649 541.649 437.656 77.378 clipbox
653.67 322.154 p2_0
gsave
fill
grestore
stroke
grestore
gsave
541.649 541.649 437.656 77.378 clipbox
581.613 262.268 p2_0
gsave
fill
grestore
stroke
grestore
gsave
541.649 541.649 437.656 77.378 clipbox
882.897 470.841 p2_0
gsave
fill
grestore
stroke
grestore
gsave
541.649 541.649 437.656 77.378 clipbox
725.712 388.981 p2_0
gsave
fill
grestore
stroke
grestore
gsave
541.649 541.649 437.656 77.378 clipbox
797.796 451.498 p2_0
gsave
fill
grestore
stroke
grestore
gsave
541.649 541.649 437.656 77.378 clipbox
587.897 261.13 p2_0
gsave
fill
grestore
stroke
grestore
gsave
541.649 541.649 437.656 77.378 clipbox
660.082 322.863 p2_0
gsave
fill
grestore
stroke
grestore
gsave
541.649 541.649 437.656 77.378 clipbox
804.478 448.527 p2_0
gsave
fill
grestore
stroke
grestore
gsave
541.649 541.649 437.656 77.378 clipbox
502.543 242.986 p2_0
gsave
fill
grestore
stroke
grestore
gsave
541.649 541.649 437.656 77.378 clipbox
889.825 473.84 p2_0
gsave
fill
grestore
stroke
grestore
gsave
541.649 541.649 437.656 77.378 clipbox
732.285 394.413 p2_0
gsave
fill
grestore
stroke
grestore
gsave
541.649 541.649 437.656 77.378 clipbox
594.174 262.575 p2_0
gsave
fill
grestore
stroke
grestore
gsave
541.649 541.649 437.656 77.378 clipbox
666.512 325.311 p2_0
gsave
fill
grestore
stroke
grestore
gsave
541.649 541.649 437.656 77.378 clipbox
508.695 241.593 p2_0
gsave
fill
grestore
stroke
grestore
gsave
541.649 541.649 437.656 77.378 clipbox
896.725 473.546 p2_0
gsave
fill
grestore
stroke
grestore
gsave
541.649 541.649 437.656 77.378 clipbox
811.246 452.141 p2_0
gsave
fill
grestore
stroke
grestore
gsave
541.649 541.649 437.656 77.378 clipbox
738.9 403.16 p2_0
gsave
fill
grestore
stroke
grestore
gsave
541.649 541.649 437.656 77.378 clipbox
514.893 239.117 p2_0
gsave
fill
grestore
stroke
grestore
gsave
541.649 541.649 437.656 77.378 clipbox
600.486 263.379 p2_0
gsave
fill
grestore
stroke
grestore
gsave
541.649 541.649 437.656 77.378 clipbox
903.622 471.705 p2_0
gsave
fill
grestore
stroke
grestore
gsave
541.649 541.649 437.656 77.378 clipbox
817.991 450.482 p2_0
gsave
fill
grestore
stroke
grestore
gsave
541.649 541.649 437.656 77.378 clipbox
672.918 339.756 p2_0
gsave
fill
grestore
stroke
grestore
gsave
541.649 541.649 437.656 77.378 clipbox
521.087 237.928 p2_0
gsave
fill
grestore
stroke
grestore
gsave
541.649 541.649 437.656 77.378 clipbox
606.858 261.153 p2_0
gsave
fill
grestore
stroke
grestore
gsave
541.649 541.649 437.656 77.378 clipbox
910.562 470.742 p2_0
gsave
fill
grestore
stroke
grestore
gsave
541.649 541.649 437.656 77.378 clipbox
745.541 407.999 p2_0
gsave
fill
grestore
stroke
grestore
gsave
541.649 541.649 437.656 77.378 clipbox
824.786 451.024 p2_0
gsave
fill
grestore
stroke
grestore
gsave
541.649 541.649 437.656 77.378 clipbox
679.44 335.481 p2_0
gsave
fill
grestore
stroke
grestore
gsave
541.649 541.649 437.656 77.378 clipbox
527.314 236.302 p2_0
gsave
fill
grestore
stroke
grestore
gsave
541.649 541.649 437.656 77.378 clipbox
917.528 469.775 p2_0
gsave
fill
grestore
stroke
grestore
gsave
541.649 541.649 437.656 77.378 clipbox
752.195 407.133 p2_0
gsave
fill
grestore
stroke
grestore
gsave
541.649 541.649 437.656 77.378 clipbox
831.657 455.774 p2_0
gsave
fill
grestore
stroke
grestore
gsave
541.649 541.649 437.656 77.378 clipbox
613.13 270.643 p2_0
gsave
fill
grestore
stroke
grestore
gsave
541.649 541.649 437.656 77.378 clipbox
533.56 234.886 p2_0
gsave
fill
grestore
stroke
grestore
gsave
541.649 541.649 437.656 77.378 clipbox
685.951 341.481 p2_0
gsave
fill
grestore
stroke
grestore
gsave
541.649 541.649 437.656 77.378 clipbox
924.511 468.36 p2_0
gsave
fill
grestore
stroke
grestore
gsave
541.649 541.649 437.656 77.378 clipbox
619.563 267.767 p2_0
gsave
fill
grestore
stroke
grestore
gsave
541.649 541.649 437.656 77.378 clipbox
758.911 414.655 p2_0
gsave
fill
grestore
stroke
grestore
gsave
541.649 541.649 437.656 77.378 clipbox
838.519 456.995 p2_0
gsave
fill
grestore
stroke
grestore
gsave
541.649 541.649 437.656 77.378 clipbox
539.818 234.116 p2_0
gsave
fill
grestore
stroke
grestore
gsave
541.649 541.649 437.656 77.378 clipbox
931.545 468.053 p2_0
gsave
fill
grestore
stroke
grestore
gsave
541.649 541.649 437.656 77.378 clipbox
692.502 345.096 p2_0
gsave
fill
grestore
stroke
grestore
gsave
541.649 541.649 437.656 77.378 clipbox
845.341 452.885 p2_0
gsave
fill
grestore
stroke
grestore
gsave
541.649 541.649 437.656 77.378 clipbox
625.958 271.425 p2_0
gsave
fill
grestore
stroke
grestore
gsave
541.649 541.649 437.656 77.378 clipbox
765.648 419.114 p2_0
gsave
fill
grestore
stroke
grestore
gsave
541.649 541.649 437.656 77.378 clipbox
546.082 234.431 p2_0
gsave
fill
grestore
stroke
grestore
gsave
541.649 541.649 437.656 77.378 clipbox
699.085 348.948 p2_0
gsave
fill
grestore
stroke
grestore
gsave
541.649 541.649 437.656 77.378 clipbox
852.301 457.224 p2_0
gsave
fill
grestore
stroke
grestore
gsave
541.649 541.649 437.656 77.378 clipbox
552.438 230.823 p2_0
gsave
fill
grestore
stroke
grestore
gsave
541.649 541.649 437.656 77.378 clipbox
632.382 275.32 p2_0
gsave
fill
grestore
stroke
grestore
gsave
541.649 541.649 437.656 77.378 clipbox
772.411 422.04 p2_0
gsave
fill
grestore
stroke
grestore
gsave
541.649 541.649 437.656 77.378 clipbox
859.201 455.106 p2_0
gsave
fill
grestore
stroke
grestore
gsave
541.649 541.649 437.656 77.378 clipbox
779.157 417.632 p2_0
gsave
fill
grestore
stroke
grestore
gsave
541.649 541.649 437.656 77.378 clipbox
558.738 232.006 p2_0
gsave
fill
grestore
stroke
grestore
gsave
541.649 541.649 437.656 77.378 clipbox
638.848 277.918 p2_0
gsave
fill
grestore
stroke
grestore
gsave
541.649 541.649 437.656 77.378 clipbox
705.69 361.445 p2_0
gsave
fill
grestore
stroke
grestore
gsave
541.649 541.649 437.656 77.378 clipbox
866.147 454.322 p2_0
gsave
fill
grestore
stroke
grestore
gsave
541.649 541.649 437.656 77.378 clipbox
712.347 353.385 p2_0
gsave
fill
grestore
stroke
grestore
gsave
541.649 541.649 437.656 77.378 clipbox
565.127 229.255 p2_0
gsave
fill
grestore
stroke
grestore
gsave
541.649 541.649 437.656 77.378 clipbox
785.981 421.012 p2_0
gsave
fill
grestore
stroke
grestore
gsave
541.649 541.649 437.656 77.378 clipbox
645.299 286.913 p2_0
gsave
fill
grestore
stroke
grestore
gsave
541.649 541.649 437.656 77.378 clipbox
873.163 456.225 p2_0
gsave
fill
grestore
stroke
grestore
gsave
541.649 541.649 437.656 77.378 clipbox
571.467 231.316 p2_0
gsave
fill
grestore
stroke
grestore
gsave
541.649 541.649 437.656 77.378 clipbox
792.841 424.855 p2_0
gsave
fill
grestore
stroke
grestore
gsave
541.649 541.649 437.656 77.378 clipbox
719.028 368.403 p2_0
gsave
fill
grestore
stroke
grestore
gsave
541.649 541.649 437.656 77.378 clipbox
880.169 455.664 p2_0
gsave
fill
grestore
stroke
grestore
gsave
541.649 541.649 437.656 77.378 clipbox
651.84 288.005 p2_0
gsave
fill
grestore
stroke
grestore
gsave
541.649 541.649 437.656 77.378 clipbox
577.896 229.211 p2_0
gsave
fill
grestore
stroke
grestore
gsave
541.649 541.649 437.656 77.378 clipbox
799.739 429.391 p2_0
gsave
fill
grestore
stroke
grestore
gsave
541.649 541.649 437.656 77.378 clipbox
887.168 453.077 p2_0
gsave
fill
grestore
stroke
grestore
gsave
541.649 541.649 437.656 77.378 clipbox
725.745 371.014 p2_0
gsave
fill
grestore
stroke
grestore
gsave
541.649 541.649 437.656 77.378 clipbox
658.41 289.101 p2_0
gsave
fill
grestore
stroke
grestore
gsave
541.649 541.649 437.656 77.378 clipbox
584.304 230.4 p2_0
gsave
fill
grestore
stroke
grestore
gsave
541.649 541.649 437.656 77.378 clipbox
806.617 427.876 p2_0
gsave
fill
grestore
stroke
grestore
gsave
541.649 541.649 437.656 77.378 clipbox
894.248 453.635 p2_0
gsave
fill
grestore
stroke
grestore
gsave
541.649 541.649 437.656 77.378 clipbox
732.499 377.443 p2_0
gsave
fill
grestore
stroke
grestore
gsave
541.649 541.649 437.656 77.378 clipbox
590.737 231.814 p2_0
gsave
fill
grestore
stroke
grestore
gsave
541.649 541.649 437.656 77.378 clipbox
664.964 298.864 p2_0
gsave
fill
grestore
stroke
grestore
gsave
541.649 541.649 437.656 77.378 clipbox
813.625 436.95 p2_0
gsave
fill
grestore
stroke
grestore
gsave
541.649 541.649 437.656 77.378 clipbox
671.642 290.197 p2_0
gsave
fill
grestore
stroke
grestore
gsave
541.649 541.649 437.656 77.378 clipbox
739.271 376.049 p2_0
gsave
fill
grestore
stroke
grestore
gsave
541.649 541.649 437.656 77.378 clipbox
597.211 232.351 p2_0
gsave
fill
grestore
stroke
grestore
gsave
541.649 541.649 437.656 77.378 clipbox
820.52 431.375 p2_0
gsave
fill
grestore
stroke
grestore
gsave
541.649 541.649 437.656 77.378 clipbox
603.742 230.23 p2_0
gsave
fill
grestore
stroke
grestore
gsave
541.649 541.649 437.656 77.378 clipbox
746.084 379.146 p2_0
gsave
fill
grestore
stroke
grestore
gsave
541.649 541.649 437.656 77.378 clipbox
827.501 431.665 p2_0
gsave
fill
grestore
stroke
grestore
gsave
541.649 541.649 437.656 77.378 clipbox
678.23 309.167 p2_0
gsave
fill
grestore
stroke
grestore
gsave
541.649 541.649 437.656 77.378 clipbox
610.26 231.653 p2_0
gsave
fill
grestore
stroke
grestore
gsave
541.649 541.649 437.656 77.378 clipbox
752.945 386.771 p2_0
gsave
fill
grestore
stroke
grestore
gsave
541.649 541.649 437.656 77.378 clipbox
684.935 307.856 p2_0
gsave
fill
grestore
stroke
grestore
gsave
541.649 541.649 437.656 77.378 clipbox
834.564 436.268 p2_0
gsave
fill
grestore
stroke
grestore
gsave
541.649 541.649 437.656 77.378 clipbox
616.81 232.86 p2_0
gsave
fill
grestore
stroke
grestore
gsave
541.649 541.649 437.656 77.378 clipbox
841.596 435.659 p2_0
gsave
fill
grestore
stroke
grestore
gsave
541.649 541.649 437.656 77.378 clipbox
759.851 395.347 p2_0
gsave
fill
grestore
stroke
grestore
gsave
541.649 541.649 437.656 77.378 clipbox
691.647 314.629 p2_0
gsave
fill
grestore
stroke
grestore
gsave
541.649 541.649 437.656 77.378 clipbox
623.338 239.43 p2_0
gsave
fill
grestore
stroke
grestore
gsave
541.649 541.649 437.656 77.378 clipbox
766.724 389.888 p2_0
gsave
fill
grestore
stroke
grestore
gsave
541.649 541.649 437.656 77.378 clipbox
848.638 433.681 p2_0
gsave
fill
grestore
stroke
grestore
gsave
541.649 541.649 437.656 77.378 clipbox
698.411 313.548 p2_0
gsave
fill
grestore
stroke
grestore
gsave
541.649 541.649 437.656 77.378 clipbox
629.976 237.751 p2_0
gsave
fill
grestore
stroke
grestore
gsave
541.649 541.649 437.656 77.378 clipbox
855.754 435.12 p2_0
gsave
fill
grestore
stroke
grestore
gsave
541.649 541.649 437.656 77.378 clipbox
773.722 402.156 p2_0
gsave
fill
grestore
stroke
grestore
gsave
541.649 541.649 437.656 77.378 clipbox
705.19 322.631 p2_0
gsave
fill
grestore
stroke
grestore
gsave
541.649 541.649 437.656 77.378 clipbox
636.585 242.794 p2_0
gsave
fill
grestore
stroke
grestore
gsave
541.649 541.649 437.656 77.378 clipbox
780.683 401.703 p2_0
gsave
fill
grestore
stroke
grestore
gsave
541.649 541.649 437.656 77.378 clipbox
643.23 247.639 p2_0
gsave
fill
grestore
stroke
grestore
gsave
541.649 541.649 437.656 77.378 clipbox
712.01 334.267 p2_0
gsave
fill
grestore
stroke
grestore
gsave
541.649 541.649 437.656 77.378 clipbox
787.67 400.789 p2_0
gsave
fill
grestore
stroke
grestore
gsave
541.649 541.649 437.656 77.378 clipbox
649.912 252.283 p2_0
gsave
fill
grestore
stroke
grestore
gsave
541.649 541.649 437.656 77.378 clipbox
794.754 408.591 p2_0
gsave
fill
grestore
stroke
grestore
gsave
541.649 541.649 437.656 77.378 clipbox
718.874 343.927 p2_0
gsave
fill
grestore
stroke
grestore
gsave
541.649 541.649 437.656 77.378 clipbox
656.667 250.839 p2_0
gsave
fill
grestore
stroke
grestore
gsave
541.649 541.649 437.656 77.378 clipbox
725.769 341.293 p2_0
gsave
fill
grestore
stroke
grestore
gsave
541.649 541.649 437.656 77.378 clipbox
801.809 408.377 p2_0
gsave
fill
grestore
stroke
grestore
gsave
541.649 541.649 437.656 77.378 clipbox
808.906 409.546 p2_0
gsave
fill
grestore
stroke
grestore
gsave
541.649 541.649 437.656 77.378 clipbox
663.384 261.191 p2_0
gsave
fill
grestore
stroke
grestore
gsave
541.649 541.649 437.656 77.378 clipbox
732.708 349.417 p2_0
gsave
fill
grestore
stroke
grestore
gsave
541.649 541.649 437.656 77.378 clipbox
816.028 410.027 p2_0
gsave
fill
grestore
stroke
grestore
gsave
541.649 541.649 437.656 77.378 clipbox
739.677 353.217 p2_0
gsave
fill
grestore
stroke
grestore
gsave
541.649 541.649 437.656 77.378 clipbox
670.16 268.415 p2_0
gsave
fill
grestore
stroke
grestore
gsave
541.649 541.649 437.656 77.378 clipbox
746.666 352.194 p2_0
gsave
fill
grestore
stroke
grestore
gsave
541.649 541.649 437.656 77.378 clipbox
676.978 274.995 p2_0
gsave
fill
grestore
stroke
grestore
gsave
541.649 541.649 437.656 77.378 clipbox
683.859 274.269 p2_0
gsave
fill
grestore
stroke
grestore
gsave
541.649 541.649 437.656 77.378 clipbox
753.745 367.125 p2_0
gsave
fill
grestore
stroke
grestore
gsave
541.649 541.649 437.656 77.378 clipbox
760.791 363.573 p2_0
gsave
fill
grestore
stroke
grestore
gsave
541.649 541.649 437.656 77.378 clipbox
690.737 285.733 p2_0
gsave
fill
grestore
stroke
grestore
gsave
541.649 541.649 437.656 77.378 clipbox
767.94 374.665 p2_0
gsave
fill
grestore
stroke
grestore
gsave
541.649 541.649 437.656 77.378 clipbox
697.674 290.799 p2_0
gsave
fill
grestore
stroke
grestore
gsave
541.649 541.649 437.656 77.378 clipbox
704.654 289.868 p2_0
gsave
fill
grestore
stroke
grestore
gsave
541.649 541.649 437.656 77.378 clipbox
775.085 377.412 p2_0
gsave
fill
grestore
stroke
grestore
gsave
541.649 541.649 437.656 77.378 clipbox
711.658 303.339 p2_0
gsave
fill
grestore
stroke
grestore
gsave
541.649 541.649 437.656 77.378 clipbox
718.707 303.829 p2_0
gsave
fill
grestore
stroke
grestore
gsave
541.649 541.649 437.656 77.378 clipbox
725.798 313.211 p2_0
gsave
fill
grestore
stroke
grestore
gsave
541.649 541.649 437.656 77.378 clipbox
732.939 326.181 p2_0
gsave
fill
grestore
stroke
grestore

end
showpage
