3488 2720 64 0.7773 0.0365359375
4096 3328 64 0.6993 0.0868328125
4608 3360 96 0.8646 0.1698234375
8192 7152 80 0.5506 0.2882484375
6688 5024 128 0.7802 0.325096875
6960 5413 119 0.7569 0.30061875
8192 6528 128 0.6754 0.4363546875
8192 6424 136 0.6959 0.457490625
20326 10163 134 1.0 8.841625
22054 11027 154 1.0 11.13953125
23558 11779 134 1.0 13.71
24538 12269 154 1.0 13.48734375
21706 10853 133 1.0 10.77