%!PS-Adobe-3.0 EPSF-3.0
%%Title: eucl_psi_and_eucl_psi_ord_5_scatter.eps
%%Creator: Matplotlib v3.4.1, https://matplotlib.org/
%%CreationDate: Wed Aug  4 14:22:23 2021
%%Orientation: portrait
%%BoundingBox: -385 44 998 748
%%HiResBoundingBox: -385.200000 44.280000 997.200000 747.720000
%%EndComments
%%BeginProlog
/mpldict 11 dict def
mpldict begin
/d { bind def } bind def
/m { moveto } d
/l { lineto } d
/r { rlineto } d
/c { curveto } d
/cl { closepath } d
/ce { closepath eofill } d
/box {
      m
      1 index 0 r
      0 exch r
      neg 0 r
      cl
    } d
/clipbox {
      box
      clip
      newpath
    } d
/sc { setcachedevice } d
%!PS-Adobe-3.0 Resource-Font
%%Creator: Converted from TrueType to Type 3 by Matplotlib.
10 dict begin
/FontName /DejaVuSans def
/PaintType 0 def
/FontMatrix [0.00048828125 0 0 0.00048828125 0 0] def
/FontBBox [-2090 -948 3673 2524] def
/FontType 3 def
/Encoding [/period /zero /one /two /four /five /six /seven /eight /underscore /c /d /e /i /l /o /p /r /s /u] def
/CharStrings 21 dict dup begin
/.notdef 0 def
/period{651 0 219 0 430 254 sc
219 254 m
430 254 l
430 0 l
219 0 l
219 254 l

ce} d
/zero{1303 0 135 -29 1167 1520 sc
651 1360 m
547 1360 469 1309 416 1206 c
364 1104 338 950 338 745 c
338 540 364 387 416 284 c
469 182 547 131 651 131 c
756 131 834 182 886 284 c
939 387 965 540 965 745 c
965 950 939 1104 886 1206 c
834 1309 756 1360 651 1360 c

651 1520 m
818 1520 946 1454 1034 1321 c
1123 1189 1167 997 1167 745 c
1167 494 1123 302 1034 169 c
946 37 818 -29 651 -29 c
484 -29 356 37 267 169 c
179 302 135 494 135 745 c
135 997 179 1189 267 1321 c
356 1454 484 1520 651 1520 c

ce} d
/one{1303 0 225 0 1114 1493 sc
254 170 m
584 170 l
584 1309 l
225 1237 l
225 1421 l
582 1493 l
784 1493 l
784 170 l
1114 170 l
1114 0 l
254 0 l
254 170 l

ce} d
/two{1303 0 150 0 1098 1520 sc
393 170 m
1098 170 l
1098 0 l
150 0 l
150 170 l
227 249 331 356 463 489 c
596 623 679 709 713 748 c
778 821 823 882 848 932 c
874 983 887 1032 887 1081 c
887 1160 859 1225 803 1275 c
748 1325 675 1350 586 1350 c
523 1350 456 1339 385 1317 c
315 1295 240 1262 160 1217 c
160 1421 l
241 1454 317 1478 388 1495 c
459 1512 523 1520 582 1520 c
737 1520 860 1481 952 1404 c
1044 1327 1090 1223 1090 1094 c
1090 1033 1078 974 1055 919 c
1032 864 991 800 930 725 c
913 706 860 650 771 557 c
682 465 556 336 393 170 c

ce} d
/four{1303 0 100 0 1188 1493 sc
774 1317 m
264 520 l
774 520 l
774 1317 l

721 1493 m
975 1493 l
975 520 l
1188 520 l
1188 352 l
975 352 l
975 0 l
774 0 l
774 352 l
100 352 l
100 547 l
721 1493 l

ce} d
/five{1303 0 158 -29 1124 1493 sc
221 1493 m
1014 1493 l
1014 1323 l
406 1323 l
406 957 l
435 967 465 974 494 979 c
523 984 553 987 582 987 c
749 987 881 941 978 850 c
1075 759 1124 635 1124 479 c
1124 318 1074 193 974 104 c
874 15 733 -29 551 -29 c
488 -29 424 -24 359 -13 c
294 -2 227 14 158 35 c
158 238 l
218 205 280 181 344 165 c
408 149 476 141 547 141 c
662 141 754 171 821 232 c
888 293 922 375 922 479 c
922 583 888 665 821 726 c
754 787 662 817 547 817 c
493 817 439 811 385 799 c
332 787 277 768 221 743 c
221 1493 l

ce} d
/six{1303 0 143 -29 1174 1520 sc
676 827 m
585 827 513 796 460 734 c
407 672 381 587 381 479 c
381 372 407 287 460 224 c
513 162 585 131 676 131 c
767 131 838 162 891 224 c
944 287 971 372 971 479 c
971 587 944 672 891 734 c
838 796 767 827 676 827 c

1077 1460 m
1077 1276 l
1026 1300 975 1318 923 1331 c
872 1344 821 1350 770 1350 c
637 1350 535 1305 464 1215 c
394 1125 354 989 344 807 c
383 865 433 909 492 940 c
551 971 617 987 688 987 c
838 987 956 941 1043 850 c
1130 759 1174 636 1174 479 c
1174 326 1129 203 1038 110 c
947 17 827 -29 676 -29 c
503 -29 371 37 280 169 c
189 302 143 494 143 745 c
143 981 199 1169 311 1309 c
423 1450 573 1520 762 1520 c
813 1520 864 1515 915 1505 c
967 1495 1021 1480 1077 1460 c

ce} d
/seven{1303 0 168 0 1128 1493 sc
168 1493 m
1128 1493 l
1128 1407 l
586 0 l
375 0 l
885 1323 l
168 1323 l
168 1493 l

ce} d
/eight{1303 0 139 -29 1163 1520 sc
651 709 m
555 709 479 683 424 632 c
369 581 342 510 342 420 c
342 330 369 259 424 208 c
479 157 555 131 651 131 c
747 131 823 157 878 208 c
933 260 961 331 961 420 c
961 510 933 581 878 632 c
823 683 748 709 651 709 c

449 795 m
362 816 295 857 246 916 c
198 975 174 1048 174 1133 c
174 1252 216 1347 301 1416 c
386 1485 503 1520 651 1520 c
800 1520 916 1485 1001 1416 c
1086 1347 1128 1252 1128 1133 c
1128 1048 1104 975 1055 916 c
1007 857 940 816 854 795 c
951 772 1027 728 1081 662 c
1136 596 1163 515 1163 420 c
1163 275 1119 164 1030 87 c
942 10 816 -29 651 -29 c
486 -29 360 10 271 87 c
183 164 139 275 139 420 c
139 515 166 596 221 662 c
276 728 352 772 449 795 c

375 1114 m
375 1037 399 976 447 933 c
496 890 564 868 651 868 c
738 868 805 890 854 933 c
903 976 928 1037 928 1114 c
928 1191 903 1252 854 1295 c
805 1338 738 1360 651 1360 c
564 1360 496 1338 447 1295 c
399 1252 375 1191 375 1114 c

ce} d
/underscore{1024 0 -20 -483 1044 -340 sc
1044 -340 m
1044 -483 l
-20 -483 l
-20 -340 l
1044 -340 l

ce} d
/c{1126 0 113 -29 999 1147 sc
999 1077 m
999 905 l
947 934 895 955 842 969 c
790 984 737 991 684 991 c
565 991 472 953 406 877 c
340 802 307 696 307 559 c
307 422 340 316 406 240 c
472 165 565 127 684 127 c
737 127 790 134 842 148 c
895 163 947 184 999 213 c
999 43 l
948 19 894 1 839 -11 c
784 -23 726 -29 664 -29 c
495 -29 361 24 262 130 c
163 236 113 379 113 559 c
113 742 163 885 263 990 c
364 1095 501 1147 676 1147 c
733 1147 788 1141 842 1129 c
896 1118 948 1100 999 1077 c

ce} d
/d{1300 0 113 -29 1114 1556 sc
930 950 m
930 1556 l
1114 1556 l
1114 0 l
930 0 l
930 168 l
891 101 842 52 783 19 c
724 -13 654 -29 571 -29 c
436 -29 325 25 240 133 c
155 241 113 383 113 559 c
113 735 155 877 240 985 c
325 1093 436 1147 571 1147 c
654 1147 724 1131 783 1098 c
842 1066 891 1017 930 950 c

303 559 m
303 424 331 317 386 240 c
442 163 519 125 616 125 c
713 125 790 163 846 240 c
902 317 930 424 930 559 c
930 694 902 800 846 877 c
790 954 713 993 616 993 c
519 993 442 954 386 877 c
331 800 303 694 303 559 c

ce} d
/e{1260 0 113 -29 1151 1147 sc
1151 606 m
1151 516 l
305 516 l
313 389 351 293 419 226 c
488 160 583 127 705 127 c
776 127 844 136 910 153 c
977 170 1043 196 1108 231 c
1108 57 l
1042 29 974 8 905 -7 c
836 -22 765 -29 694 -29 c
515 -29 374 23 269 127 c
165 231 113 372 113 549 c
113 732 162 878 261 985 c
360 1093 494 1147 662 1147 c
813 1147 932 1098 1019 1001 c
1107 904 1151 773 1151 606 c

967 660 m
966 761 937 841 882 901 c
827 961 755 991 664 991 c
561 991 479 962 417 904 c
356 846 320 764 311 659 c
967 660 l

ce} d
/i{569 0 193 0 377 1556 sc
193 1120 m
377 1120 l
377 0 l
193 0 l
193 1120 l

193 1556 m
377 1556 l
377 1323 l
193 1323 l
193 1556 l

ce} d
/l{569 0 193 0 377 1556 sc
193 1556 m
377 1556 l
377 0 l
193 0 l
193 1556 l

ce} d
/o{1253 0 113 -29 1141 1147 sc
627 991 m
528 991 450 952 393 875 c
336 798 307 693 307 559 c
307 425 335 319 392 242 c
449 165 528 127 627 127 c
725 127 803 166 860 243 c
917 320 946 426 946 559 c
946 692 917 797 860 874 c
803 952 725 991 627 991 c

627 1147 m
787 1147 913 1095 1004 991 c
1095 887 1141 743 1141 559 c
1141 376 1095 232 1004 127 c
913 23 787 -29 627 -29 c
466 -29 340 23 249 127 c
158 232 113 376 113 559 c
113 743 158 887 249 991 c
340 1095 466 1147 627 1147 c

ce} d
/p{1300 0 186 -426 1188 1147 sc
371 168 m
371 -426 l
186 -426 l
186 1120 l
371 1120 l
371 950 l
410 1017 458 1066 517 1098 c
576 1131 647 1147 729 1147 c
865 1147 975 1093 1060 985 c
1145 877 1188 735 1188 559 c
1188 383 1145 241 1060 133 c
975 25 865 -29 729 -29 c
647 -29 576 -13 517 19 c
458 52 410 101 371 168 c

997 559 m
997 694 969 800 913 877 c
858 954 781 993 684 993 c
587 993 510 954 454 877 c
399 800 371 694 371 559 c
371 424 399 317 454 240 c
510 163 587 125 684 125 c
781 125 858 163 913 240 c
969 317 997 424 997 559 c

ce} d
/r{842 0 186 0 842 1147 sc
842 948 m
821 960 799 969 774 974 c
750 980 723 983 694 983 c
590 983 510 949 454 881 c
399 814 371 717 371 590 c
371 0 l
186 0 l
186 1120 l
371 1120 l
371 946 l
410 1014 460 1064 522 1097 c
584 1130 659 1147 748 1147 c
761 1147 775 1146 790 1144 c
805 1143 822 1140 841 1137 c
842 948 l

ce} d
/s{1067 0 111 -29 967 1147 sc
907 1087 m
907 913 l
855 940 801 960 745 973 c
689 986 631 993 571 993 c
480 993 411 979 365 951 c
320 923 297 881 297 825 c
297 782 313 749 346 724 c
379 700 444 677 543 655 c
606 641 l
737 613 829 573 884 522 c
939 471 967 400 967 309 c
967 205 926 123 843 62 c
761 1 648 -29 504 -29 c
444 -29 381 -23 316 -11 c
251 0 183 18 111 41 c
111 231 l
179 196 246 169 312 151 c
378 134 443 125 508 125 c
595 125 661 140 708 169 c
755 199 778 241 778 295 c
778 345 761 383 727 410 c
694 437 620 462 506 487 c
442 502 l
328 526 246 563 195 612 c
144 662 119 730 119 817 c
119 922 156 1004 231 1061 c
306 1118 412 1147 549 1147 c
617 1147 681 1142 741 1132 c
801 1122 856 1107 907 1087 c

ce} d
/u{1298 0 174 -29 1112 1147 sc
174 442 m
174 1120 l
358 1120 l
358 449 l
358 343 379 263 420 210 c
461 157 523 131 606 131 c
705 131 784 163 841 226 c
899 289 928 376 928 485 c
928 1120 l
1112 1120 l
1112 0 l
928 0 l
928 172 l
883 104 831 53 772 20 c
713 -13 645 -29 567 -29 c
438 -29 341 11 274 91 c
207 171 174 288 174 442 c

637 1147 m
637 1147 l

ce} d
end readonly def

/BuildGlyph {
 exch begin
 CharStrings exch
 2 copy known not {pop /.notdef} if
 true 3 1 roll get exec
 end
} d

/BuildChar {
 1 index /Encoding get exch get
 1 index /BuildGlyph get exec
} d

FontName currentdict end definefont pop
end
%%EndProlog
mpldict begin
-385.2 44.28 translate
1382.4 703.44 0 0 clipbox
gsave
0 0 m
1382.4 0 l
1382.4 703.44 l
0 703.44 l
cl
1.000 setgray
fill
grestore
gsave
437.6556 77.3784 m
979.3044 77.3784 l
979.3044 619.0272 l
437.6556 619.0272 l
cl
1.000 setgray
fill
grestore
1.000 setlinewidth
0 setlinejoin
0 setlinecap
[] 0 setdash
0.950 setgray
gsave
473.364059 215.630804 m
670.198917 299.83969 l
669.170294 534.428661 l
467.356403 471.254167 l
gsave
fill
grestore
stroke
grestore
0.900 setgray
gsave
670.198917 299.83969 m
950.517388 246.18425 l
956.144197 494.20745 l
669.170294 534.428661 l
gsave
fill
grestore
stroke
grestore
0.925 setgray
gsave
473.364059 215.630804 m
769.163706 150.775987 l
950.517388 246.18425 l
670.198917 299.83969 l
gsave
fill
grestore
stroke
grestore
0.800 setlinewidth
1 setlinejoin
2 setlinecap
0.000 setgray
gsave
473.364059 215.630804 m
769.163706 150.775987 l
stroke
grestore
0 setlinecap
0.690 setgray
gsave
484.11362 213.273936 m
680.444069 297.878677 l
679.644722 532.960603 l
stroke
grestore
gsave
519.104925 205.602004 m
713.762912 291.501155 l
713.716523 528.185225 l
stroke
grestore
gsave
554.658752 197.806738 m
747.569597 285.030256 l
748.298639 523.338322 l
stroke
grestore
gsave
590.788773 189.88514 m
781.87492 278.463913 l
783.402623 518.418276 l
stroke
grestore
gsave
627.509112 181.834113 m
816.689994 271.799999 l
819.040378 513.423419 l
stroke
grestore
gsave
664.834354 173.65046 m
852.026265 265.036324 l
855.22417 508.352031 l
stroke
grestore
gsave
702.77957 165.330876 m
887.895527 258.170629 l
891.966647 503.20234 l
stroke
grestore
gsave
741.360338 156.871945 m
924.309929 251.20059 l
929.280848 497.972518 l
stroke
grestore
2 setlinecap
0.000 setgray
gsave
485.834367 214.015458 m
480.664151 211.787455 l
stroke
grestore
/DejaVuSans 10.000 selectfont
gsave

469.183050 191.666575 translate
0.000000 rotate
0.000000 0 m /four glyphshow
6.362305 0 m /five glyphshow
grestore
gsave
520.8122 206.355394 m
515.682401 204.091704 l
stroke
grestore
gsave

504.209883 183.859748 translate
0.000000 rotate
0.000000 0 m /five glyphshow
6.362305 0 m /zero glyphshow
grestore
gsave
556.351897 198.572283 m
551.264488 196.272041 l
stroke
grestore
gsave

539.801495 175.927043 translate
0.000000 rotate
0.000000 0 m /five glyphshow
6.362305 0 m /five glyphshow
grestore
gsave
592.467105 190.663137 m
587.424142 188.325451 l
stroke
grestore
gsave

575.971659 167.865389 translate
0.000000 rotate
0.000000 0 m /six glyphshow
6.362305 0 m /zero glyphshow
grestore
gsave
629.171919 182.624869 m
624.175539 180.248816 l
stroke
grestore
gsave

612.734597 159.671617 translate
0.000000 rotate
0.000000 0 m /six glyphshow
6.362305 0 m /five glyphshow
grestore
gsave
666.480895 174.45429 m
661.533325 172.038919 l
stroke
grestore
gsave

650.105001 151.342453 translate
0.000000 rotate
0.000000 0 m /seven glyphshow
6.362305 0 m /zero glyphshow
grestore
gsave
704.409074 166.148108 m
699.512633 163.692434 l
stroke
grestore
gsave

688.098052 142.874511 translate
0.000000 rotate
0.000000 0 m /seven glyphshow
6.362305 0 m /five glyphshow
grestore
gsave
742.972 157.702917 m
738.129104 155.205924 l
stroke
grestore
gsave

726.729444 134.264296 translate
0.000000 rotate
0.000000 0 m /eight glyphshow
6.362305 0 m /zero glyphshow
grestore
gsave
950.517388 246.18425 m
769.163706 150.775987 l
stroke
grestore
0 setlinecap
0.690 setgray
gsave
481.376946 475.643066 m
487.011087 221.469205 l
781.806736 157.427352 l
stroke
grestore
gsave
518.95123 487.405073 m
523.604663 237.124483 l
815.656938 175.235586 l
stroke
grestore
gsave
555.283249 498.778209 m
559.016536 252.27421 l
848.343165 192.431467 l
stroke
grestore
gsave
590.433609 509.781447 m
593.303039 266.942487 l
879.924441 209.046044 l
stroke
grestore
gsave
624.459035 520.432542 m
626.516976 281.151905 l
910.455863 225.108303 l
stroke
grestore
gsave
657.41268 530.748135 m
658.707903 294.923663 l
939.988925 240.645337 l
stroke
grestore
2 setlinecap
0.000 setgray
gsave
779.291394 157.973789 m
786.845535 156.332716 l
stroke
grestore
gsave

785.044211 136.300673 translate
0.000000 rotate
0.000000 0 m /four glyphshow
6.362305 0 m /five glyphshow
12.724609 0 m /zero glyphshow
grestore
gsave
813.167723 175.763077 m
820.643257 174.178934 l
stroke
grestore
gsave

818.726870 154.375683 translate
0.000000 rotate
0.000000 0 m /five glyphshow
6.362305 0 m /zero glyphshow
12.724609 0 m /zero glyphshow
grestore
gsave
845.879782 192.940979 m
853.277604 191.410854 l
stroke
grestore
gsave

851.249421 171.828149 translate
0.000000 rotate
0.000000 0 m /five glyphshow
6.362305 0 m /five glyphshow
12.724609 0 m /zero glyphshow
grestore
gsave
877.486581 209.538482 m
884.807626 208.059659 l
stroke
grestore
gsave

882.670786 188.689689 translate
0.000000 rotate
0.000000 0 m /six glyphshow
6.362305 0 m /zero glyphshow
12.724609 0 m /zero glyphshow
grestore
gsave
908.043204 225.584512 m
915.288447 224.154452 l
stroke
grestore
gsave

913.045962 204.989815 translate
0.000000 rotate
0.000000 0 m /six glyphshow
6.362305 0 m /five glyphshow
12.724609 0 m /zero glyphshow
grestore
gsave
937.601135 241.106104 m
944.771578 239.722436 l
stroke
grestore
gsave

942.426342 220.756109 translate
0.000000 rotate
0.000000 0 m /seven glyphshow
6.362305 0 m /zero glyphshow
12.724609 0 m /zero glyphshow
grestore
gsave
950.517388 246.18425 m
956.144197 494.20745 l
stroke
grestore
0 setlinecap
0.690 setgray
gsave
950.867596 261.621033 m
670.134813 314.459288 l
472.990424 231.528855 l
stroke
grestore
gsave
951.833555 304.199348 m
669.958056 354.770559 l
471.959657 275.387543 l
stroke
grestore
gsave
952.807484 347.129039 m
669.779926 395.395112 l
470.920102 319.620193 l
stroke
grestore
gsave
953.789485 390.414472 m
669.600407 436.336613 l
469.871645 364.23161 l
stroke
grestore
gsave
954.779657 434.06009 m
669.419481 477.598785 l
468.814172 409.226679 l
stroke
grestore
gsave
955.778102 478.070405 m
669.237132 519.18541 l
467.747565 454.61037 l
stroke
grestore
2 setlinecap
0.000 setgray
gsave
948.485069 262.069461 m
955.639675 260.722854 l
stroke
grestore
gsave

961.749314 255.213323 translate
0.000000 rotate
0.000000 0 m /zero glyphshow
6.362305 0 m /period glyphshow
9.541016 0 m /zero glyphshow
grestore
gsave
949.440766 304.628638 m
956.626216 303.339498 l
stroke
grestore
gsave

962.791310 297.741014 translate
0.000000 rotate
0.000000 0 m /zero glyphshow
6.362305 0 m /period glyphshow
9.541016 0 m /two glyphshow
grestore
gsave
950.404346 347.538858 m
957.620906 346.308182 l
stroke
grestore
gsave

963.841894 340.619204 translate
0.000000 rotate
0.000000 0 m /zero glyphshow
6.362305 0 m /period glyphshow
9.541016 0 m /four glyphshow
grestore
gsave
951.375906 390.804483 m
958.623847 389.633287 l
stroke
grestore
gsave

964.901172 383.852243 translate
0.000000 rotate
0.000000 0 m /zero glyphshow
6.362305 0 m /period glyphshow
9.541016 0 m /six glyphshow
grestore
gsave
952.355547 434.429947 m
959.635142 433.319266 l
stroke
grestore
gsave

965.969253 427.444556 translate
0.000000 rotate
0.000000 0 m /zero glyphshow
6.362305 0 m /period glyphshow
9.541016 0 m /eight glyphshow
grestore
gsave
953.34337 478.419758 m
960.654896 477.370647 l
stroke
grestore
gsave

967.046247 471.400638 translate
0.000000 rotate
0.000000 0 m /one glyphshow
6.362305 0 m /period glyphshow
9.541016 0 m /zero glyphshow
grestore
/p0_0 {
newpath
translate
-3.535534 -3.535534 m
3.535534 3.535534 l
-3.535534 3.535534 m
3.535534 -3.535534 l

} bind def
1.500 setlinewidth
0 setlinecap
0.000 0.000 1.000 setrgbcolor
gsave
541.649 541.649 437.656 77.378 clipbox
675.018 450.111 p0_0
gsave
fill
grestore
stroke
grestore
gsave
541.649 541.649 437.656 77.378 clipbox
681.784 449.04 p0_0
gsave
fill
grestore
stroke
grestore
gsave
541.649 541.649 437.656 77.378 clipbox
688.603 435.457 p0_0
gsave
fill
grestore
stroke
grestore
gsave
541.649 541.649 437.656 77.378 clipbox
695.397 436.447 p0_0
gsave
fill
grestore
stroke
grestore
gsave
541.649 541.649 437.656 77.378 clipbox
709.057 434.253 p0_0
gsave
fill
grestore
stroke
grestore
gsave
541.649 541.649 437.656 77.378 clipbox
702.19 456.28 p0_0
gsave
fill
grestore
stroke
grestore
gsave
541.649 541.649 437.656 77.378 clipbox
715.917 449.933 p0_0
gsave
fill
grestore
stroke
grestore
gsave
541.649 541.649 437.656 77.378 clipbox
722.805 442.542 p0_0
gsave
fill
grestore
stroke
grestore
gsave
541.649 541.649 437.656 77.378 clipbox
642.787 392.283 p0_0
gsave
fill
grestore
stroke
grestore
gsave
541.649 541.649 437.656 77.378 clipbox
736.625 431.928 p0_0
gsave
fill
grestore
stroke
grestore
gsave
541.649 541.649 437.656 77.378 clipbox
729.727 451.981 p0_0
gsave
fill
grestore
stroke
grestore
gsave
541.649 541.649 437.656 77.378 clipbox
649.411 418.44 p0_0
gsave
fill
grestore
stroke
grestore
gsave
541.649 541.649 437.656 77.378 clipbox
656.328 402.551 p0_0
gsave
fill
grestore
stroke
grestore
gsave
541.649 541.649 437.656 77.378 clipbox
663.204 395.073 p0_0
gsave
fill
grestore
stroke
grestore
gsave
541.649 541.649 437.656 77.378 clipbox
743.67 468.877 p0_0
gsave
fill
grestore
stroke
grestore
gsave
541.649 541.649 437.656 77.378 clipbox
750.632 459.321 p0_0
gsave
fill
grestore
stroke
grestore
gsave
541.649 541.649 437.656 77.378 clipbox
670.047 398.118 p0_0
gsave
fill
grestore
stroke
grestore
gsave
541.649 541.649 437.656 77.378 clipbox
676.979 384.288 p0_0
gsave
fill
grestore
stroke
grestore
gsave
541.649 541.649 437.656 77.378 clipbox
764.625 448.658 p0_0
gsave
fill
grestore
stroke
grestore
gsave
541.649 541.649 437.656 77.378 clipbox
757.68 468.878 p0_0
gsave
fill
grestore
stroke
grestore
gsave
541.649 541.649 437.656 77.378 clipbox
683.844 393.659 p0_0
gsave
fill
grestore
stroke
grestore
gsave
541.649 541.649 437.656 77.378 clipbox
771.712 456.078 p0_0
gsave
fill
grestore
stroke
grestore
gsave
541.649 541.649 437.656 77.378 clipbox
690.733 407.323 p0_0
gsave
fill
grestore
stroke
grestore
gsave
541.649 541.649 437.656 77.378 clipbox
609.679 345.764 p0_0
gsave
fill
grestore
stroke
grestore
gsave
541.649 541.649 437.656 77.378 clipbox
697.692 404.034 p0_0
gsave
fill
grestore
stroke
grestore
gsave
541.649 541.649 437.656 77.378 clipbox
778.858 467.808 p0_0
gsave
fill
grestore
stroke
grestore
gsave
541.649 541.649 437.656 77.378 clipbox
616.492 346.622 p0_0
gsave
fill
grestore
stroke
grestore
gsave
541.649 541.649 437.656 77.378 clipbox
785.943 464.594 p0_0
gsave
fill
grestore
stroke
grestore
gsave
541.649 541.649 437.656 77.378 clipbox
623.366 343.248 p0_0
gsave
fill
grestore
stroke
grestore
gsave
541.649 541.649 437.656 77.378 clipbox
704.661 409.255 p0_0
gsave
fill
grestore
stroke
grestore
gsave
541.649 541.649 437.656 77.378 clipbox
630.276 337.746 p0_0
gsave
fill
grestore
stroke
grestore
gsave
541.649 541.649 437.656 77.378 clipbox
793.078 465.66 p0_0
gsave
fill
grestore
stroke
grestore
gsave
541.649 541.649 437.656 77.378 clipbox
637.104 344.965 p0_0
gsave
fill
grestore
stroke
grestore
gsave
541.649 541.649 437.656 77.378 clipbox
711.654 425.193 p0_0
gsave
fill
grestore
stroke
grestore
gsave
541.649 541.649 437.656 77.378 clipbox
800.341 479.638 p0_0
gsave
fill
grestore
stroke
grestore
gsave
541.649 541.649 437.656 77.378 clipbox
644.053 339.446 p0_0
gsave
fill
grestore
stroke
grestore
gsave
541.649 541.649 437.656 77.378 clipbox
718.687 419.763 p0_0
gsave
fill
grestore
stroke
grestore
gsave
541.649 541.649 437.656 77.378 clipbox
807.516 478.577 p0_0
gsave
fill
grestore
stroke
grestore
gsave
541.649 541.649 437.656 77.378 clipbox
725.745 425.051 p0_0
gsave
fill
grestore
stroke
grestore
gsave
541.649 541.649 437.656 77.378 clipbox
814.693 475.353 p0_0
gsave
fill
grestore
stroke
grestore
gsave
541.649 541.649 437.656 77.378 clipbox
650.911 350.96 p0_0
gsave
fill
grestore
stroke
grestore
gsave
541.649 541.649 437.656 77.378 clipbox
732.826 426.055 p0_0
gsave
fill
grestore
stroke
grestore
gsave
541.649 541.649 437.656 77.378 clipbox
821.888 472.12 p0_0
gsave
fill
grestore
stroke
grestore
gsave
541.649 541.649 437.656 77.378 clipbox
575.824 289.525 p0_0
gsave
fill
grestore
stroke
grestore
gsave
541.649 541.649 437.656 77.378 clipbox
657.843 356.115 p0_0
gsave
fill
grestore
stroke
grestore
gsave
541.649 541.649 437.656 77.378 clipbox
829.103 468.879 p0_0
gsave
fill
grestore
stroke
grestore
gsave
541.649 541.649 437.656 77.378 clipbox
582.58 296.688 p0_0
gsave
fill
grestore
stroke
grestore
gsave
541.649 541.649 437.656 77.378 clipbox
664.804 361.291 p0_0
gsave
fill
grestore
stroke
grestore
gsave
541.649 541.649 437.656 77.378 clipbox
739.967 442.177 p0_0
gsave
fill
grestore
stroke
grestore
gsave
541.649 541.649 437.656 77.378 clipbox
836.411 472.131 p0_0
gsave
fill
grestore
stroke
grestore
gsave
541.649 541.649 437.656 77.378 clipbox
671.868 349.309 p0_0
gsave
fill
grestore
stroke
grestore
gsave
541.649 541.649 437.656 77.378 clipbox
589.549 288.938 p0_0
gsave
fill
grestore
stroke
grestore
gsave
541.649 541.649 437.656 77.378 clipbox
596.481 285.44 p0_0
gsave
fill
grestore
stroke
grestore
gsave
541.649 541.649 437.656 77.378 clipbox
843.773 477.569 p0_0
gsave
fill
grestore
stroke
grestore
gsave
541.649 541.649 437.656 77.378 clipbox
747.127 449.719 p0_0
gsave
fill
grestore
stroke
grestore
gsave
541.649 541.649 437.656 77.378 clipbox
603.502 275.528 p0_0
gsave
fill
grestore
stroke
grestore
gsave
541.649 541.649 437.656 77.378 clipbox
754.25 437.753 p0_0
gsave
fill
grestore
stroke
grestore
gsave
541.649 541.649 437.656 77.378 clipbox
761.408 432.277 p0_0
gsave
fill
grestore
stroke
grestore
gsave
541.649 541.649 437.656 77.378 clipbox
851.112 478.673 p0_0
gsave
fill
grestore
stroke
grestore
gsave
541.649 541.649 437.656 77.378 clipbox
678.817 371.711 p0_0
gsave
fill
grestore
stroke
grestore
gsave
541.649 541.649 437.656 77.378 clipbox
858.506 481.963 p0_0
gsave
fill
grestore
stroke
grestore
gsave
541.649 541.649 437.656 77.378 clipbox
610.228 295.554 p0_0
gsave
fill
grestore
stroke
grestore
gsave
541.649 541.649 437.656 77.378 clipbox
685.857 381.282 p0_0
gsave
fill
grestore
stroke
grestore
gsave
541.649 541.649 437.656 77.378 clipbox
865.805 476.52 p0_0
gsave
fill
grestore
stroke
grestore
gsave
541.649 541.649 437.656 77.378 clipbox
768.713 452.895 p0_0
gsave
fill
grestore
stroke
grestore
gsave
541.649 541.649 437.656 77.378 clipbox
617.167 298.493 p0_0
gsave
fill
grestore
stroke
grestore
gsave
541.649 541.649 437.656 77.378 clipbox
775.909 445.228 p0_0
gsave
fill
grestore
stroke
grestore
gsave
541.649 541.649 437.656 77.378 clipbox
873.25 479.817 p0_0
gsave
fill
grestore
stroke
grestore
gsave
541.649 541.649 437.656 77.378 clipbox
692.938 388.731 p0_0
gsave
fill
grestore
stroke
grestore
gsave
541.649 541.649 437.656 77.378 clipbox
624.152 299.289 p0_0
gsave
fill
grestore
stroke
grestore
gsave
541.649 541.649 437.656 77.378 clipbox
880.657 478.738 p0_0
gsave
fill
grestore
stroke
grestore
gsave
541.649 541.649 437.656 77.378 clipbox
783.203 450.654 p0_0
gsave
fill
grestore
stroke
grestore
gsave
541.649 541.649 437.656 77.378 clipbox
700.056 394.038 p0_0
gsave
fill
grestore
stroke
grestore
gsave
541.649 541.649 437.656 77.378 clipbox
540.808 251.192 p0_0
gsave
fill
grestore
stroke
grestore
gsave
541.649 541.649 437.656 77.378 clipbox
888.05 475.461 p0_0
gsave
fill
grestore
stroke
grestore
gsave
541.649 541.649 437.656 77.378 clipbox
790.481 449.529 p0_0
gsave
fill
grestore
stroke
grestore
gsave
541.649 541.649 437.656 77.378 clipbox
631.038 315.218 p0_0
gsave
fill
grestore
stroke
grestore
gsave
541.649 541.649 437.656 77.378 clipbox
547.611 256.212 p0_0
gsave
fill
grestore
stroke
grestore
gsave
541.649 541.649 437.656 77.378 clipbox
895.576 478.771 p0_0
gsave
fill
grestore
stroke
grestore
gsave
541.649 541.649 437.656 77.378 clipbox
638.163 305.215 p0_0
gsave
fill
grestore
stroke
grestore
gsave
541.649 541.649 437.656 77.378 clipbox
797.799 450.594 p0_0
gsave
fill
grestore
stroke
grestore
gsave
541.649 541.649 437.656 77.378 clipbox
707.199 405.92 p0_0
gsave
fill
grestore
stroke
grestore
gsave
541.649 541.649 437.656 77.378 clipbox
714.386 393.79 p0_0
gsave
fill
grestore
stroke
grestore
gsave
541.649 541.649 437.656 77.378 clipbox
554.578 252.624 p0_0
gsave
fill
grestore
stroke
grestore
gsave
541.649 541.649 437.656 77.378 clipbox
805.088 445.071 p0_0
gsave
fill
grestore
stroke
grestore
gsave
541.649 541.649 437.656 77.378 clipbox
903.053 477.686 p0_0
gsave
fill
grestore
stroke
grestore
gsave
541.649 541.649 437.656 77.378 clipbox
721.584 388.198 p0_0
gsave
fill
grestore
stroke
grestore
gsave
541.649 541.649 437.656 77.378 clipbox
645.195 310.365 p0_0
gsave
fill
grestore
stroke
grestore
gsave
541.649 541.649 437.656 77.378 clipbox
561.5 253.344 p0_0
gsave
fill
grestore
stroke
grestore
gsave
541.649 541.649 437.656 77.378 clipbox
910.514 474.391 p0_0
gsave
fill
grestore
stroke
grestore
gsave
541.649 541.649 437.656 77.378 clipbox
812.574 459.348 p0_0
gsave
fill
grestore
stroke
grestore
gsave
541.649 541.649 437.656 77.378 clipbox
728.823 402.312 p0_0
gsave
fill
grestore
stroke
grestore
gsave
541.649 541.649 437.656 77.378 clipbox
918.121 477.715 p0_0
gsave
fill
grestore
stroke
grestore
gsave
541.649 541.649 437.656 77.378 clipbox
568.385 258.396 p0_0
gsave
fill
grestore
stroke
grestore
gsave
541.649 541.649 437.656 77.378 clipbox
652.205 324.248 p0_0
gsave
fill
grestore
stroke
grestore
gsave
541.649 541.649 437.656 77.378 clipbox
819.931 456.019 p0_0
gsave
fill
grestore
stroke
grestore
gsave
541.649 541.649 437.656 77.378 clipbox
736.063 394.512 p0_0
gsave
fill
grestore
stroke
grestore
gsave
541.649 541.649 437.656 77.378 clipbox
575.417 254.792 p0_0
gsave
fill
grestore
stroke
grestore
gsave
541.649 541.649 437.656 77.378 clipbox
925.67 476.623 p0_0
gsave
fill
grestore
stroke
grestore
gsave
541.649 541.649 437.656 77.378 clipbox
827.356 457.104 p0_0
gsave
fill
grestore
stroke
grestore
gsave
541.649 541.649 437.656 77.378 clipbox
743.345 397.687 p0_0
gsave
fill
grestore
stroke
grestore
gsave
541.649 541.649 437.656 77.378 clipbox
659.27 336.027 p0_0
gsave
fill
grestore
stroke
grestore
gsave
541.649 541.649 437.656 77.378 clipbox
582.413 255.519 p0_0
gsave
fill
grestore
stroke
grestore
gsave
541.649 541.649 437.656 77.378 clipbox
834.731 451.548 p0_0
gsave
fill
grestore
stroke
grestore
gsave
541.649 541.649 437.656 77.378 clipbox
750.621 389.859 p0_0
gsave
fill
grestore
stroke
grestore
gsave
541.649 541.649 437.656 77.378 clipbox
666.437 334.709 p0_0
gsave
fill
grestore
stroke
grestore
gsave
541.649 541.649 437.656 77.378 clipbox
589.407 258.425 p0_0
gsave
fill
grestore
stroke
grestore
gsave
541.649 541.649 437.656 77.378 clipbox
842.31 461.505 p0_0
gsave
fill
grestore
stroke
grestore
gsave
541.649 541.649 437.656 77.378 clipbox
757.989 401.866 p0_0
gsave
fill
grestore
stroke
grestore
gsave
541.649 541.649 437.656 77.378 clipbox
596.479 256.982 p0_0
gsave
fill
grestore
stroke
grestore
gsave
541.649 541.649 437.656 77.378 clipbox
673.555 350.971 p0_0
gsave
fill
grestore
stroke
grestore
gsave
541.649 541.649 437.656 77.378 clipbox
849.872 467.058 p0_0
gsave
fill
grestore
stroke
grestore
gsave
541.649 541.649 437.656 77.378 clipbox
603.526 259.902 p0_0
gsave
fill
grestore
stroke
grestore
gsave
541.649 541.649 437.656 77.378 clipbox
680.801 343.059 p0_0
gsave
fill
grestore
stroke
grestore
gsave
541.649 541.649 437.656 77.378 clipbox
504.337 233.503 p0_0
gsave
fill
grestore
stroke
grestore
gsave
541.649 541.649 437.656 77.378 clipbox
857.258 457.025 p0_0
gsave
fill
grestore
stroke
grestore
gsave
541.649 541.649 437.656 77.378 clipbox
688.073 330.729 p0_0
gsave
fill
grestore
stroke
grestore
gsave
541.649 541.649 437.656 77.378 clipbox
765.431 420.6 p0_0
gsave
fill
grestore
stroke
grestore
gsave
541.649 541.649 437.656 77.378 clipbox
610.624 260.644 p0_0
gsave
fill
grestore
stroke
grestore
gsave
541.649 541.649 437.656 77.378 clipbox
511.215 236.382 p0_0
gsave
fill
grestore
stroke
grestore
gsave
541.649 541.649 437.656 77.378 clipbox
772.792 414.959 p0_0
gsave
fill
grestore
stroke
grestore
gsave
541.649 541.649 437.656 77.378 clipbox
864.907 464.817 p0_0
gsave
fill
grestore
stroke
grestore
gsave
541.649 541.649 437.656 77.378 clipbox
518.288 230.522 p0_0
gsave
fill
grestore
stroke
grestore
gsave
541.649 541.649 437.656 77.378 clipbox
617.726 263.582 p0_0
gsave
fill
grestore
stroke
grestore
gsave
541.649 541.649 437.656 77.378 clipbox
872.493 465.93 p0_0
gsave
fill
grestore
stroke
grestore
gsave
541.649 541.649 437.656 77.378 clipbox
702.6 336.891 p0_0
gsave
fill
grestore
stroke
grestore
gsave
541.649 541.649 437.656 77.378 clipbox
695.274 358.124 p0_0
gsave
fill
grestore
stroke
grestore
gsave
541.649 541.649 437.656 77.378 clipbox
780.279 427.127 p0_0
gsave
fill
grestore
stroke
grestore
gsave
541.649 541.649 437.656 77.378 clipbox
525.217 233.404 p0_0
gsave
fill
grestore
stroke
grestore
gsave
541.649 541.649 437.656 77.378 clipbox
880.072 464.804 p0_0
gsave
fill
grestore
stroke
grestore
gsave
541.649 541.649 437.656 77.378 clipbox
532.329 227.522 p0_0
gsave
fill
grestore
stroke
grestore
gsave
541.649 541.649 437.656 77.378 clipbox
787.702 423.705 p0_0
gsave
fill
grestore
stroke
grestore
gsave
541.649 541.649 437.656 77.378 clipbox
709.906 342.207 p0_0
gsave
fill
grestore
stroke
grestore
gsave
541.649 541.649 437.656 77.378 clipbox
624.722 281.945 p0_0
gsave
fill
grestore
stroke
grestore
gsave
541.649 541.649 437.656 77.378 clipbox
887.675 463.675 p0_0
gsave
fill
grestore
stroke
grestore
gsave
541.649 541.649 437.656 77.378 clipbox
631.999 271.697 p0_0
gsave
fill
grestore
stroke
grestore
gsave
541.649 541.649 437.656 77.378 clipbox
539.308 230.407 p0_0
gsave
fill
grestore
stroke
grestore
gsave
541.649 541.649 437.656 77.378 clipbox
795.23 431.466 p0_0
gsave
fill
grestore
stroke
grestore
gsave
541.649 541.649 437.656 77.378 clipbox
895.302 462.542 p0_0
gsave
fill
grestore
stroke
grestore
gsave
541.649 541.649 437.656 77.378 clipbox
546.459 224.503 p0_0
gsave
fill
grestore
stroke
grestore
gsave
541.649 541.649 437.656 77.378 clipbox
802.702 428.036 p0_0
gsave
fill
grestore
stroke
grestore
gsave
541.649 541.649 437.656 77.378 clipbox
717.247 363.131 p0_0
gsave
fill
grestore
stroke
grestore
gsave
541.649 541.649 437.656 77.378 clipbox
639.123 283.522 p0_0
gsave
fill
grestore
stroke
grestore
gsave
541.649 541.649 437.656 77.378 clipbox
646.437 273.239 p0_0
gsave
fill
grestore
stroke
grestore
gsave
541.649 541.649 437.656 77.378 clipbox
553.489 227.391 p0_0
gsave
fill
grestore
stroke
grestore
gsave
541.649 541.649 437.656 77.378 clipbox
724.624 361.834 p0_0
gsave
fill
grestore
stroke
grestore
gsave
541.649 541.649 437.656 77.378 clipbox
810.256 431.339 p0_0
gsave
fill
grestore
stroke
grestore
gsave
541.649 541.649 437.656 77.378 clipbox
560.613 225.876 p0_0
gsave
fill
grestore
stroke
grestore
gsave
541.649 541.649 437.656 77.378 clipbox
653.683 276.231 p0_0
gsave
fill
grestore
stroke
grestore
gsave
541.649 541.649 437.656 77.378 clipbox
732.042 371.727 p0_0
gsave
fill
grestore
stroke
grestore
gsave
541.649 541.649 437.656 77.378 clipbox
567.76 224.356 p0_0
gsave
fill
grestore
stroke
grestore
gsave
541.649 541.649 437.656 77.378 clipbox
739.459 363.71 p0_0
gsave
fill
grestore
stroke
grestore
gsave
541.649 541.649 437.656 77.378 clipbox
660.934 283.684 p0_0
gsave
fill
grestore
stroke
grestore
gsave
541.649 541.649 437.656 77.378 clipbox
825.407 433.467 p0_0
gsave
fill
grestore
stroke
grestore
gsave
541.649 541.649 437.656 77.378 clipbox
818.036 454.979 p0_0
gsave
fill
grestore
stroke
grestore
gsave
541.649 541.649 437.656 77.378 clipbox
574.93 222.831 p0_0
gsave
fill
grestore
stroke
grestore
gsave
541.649 541.649 437.656 77.378 clipbox
668.302 273.347 p0_0
gsave
fill
grestore
stroke
grestore
gsave
541.649 541.649 437.656 77.378 clipbox
833.1 441.327 p0_0
gsave
fill
grestore
stroke
grestore
gsave
541.649 541.649 437.656 77.378 clipbox
582.066 225.736 p0_0
gsave
fill
grestore
stroke
grestore
gsave
541.649 541.649 437.656 77.378 clipbox
746.99 389.414 p0_0
gsave
fill
grestore
stroke
grestore
gsave
541.649 541.649 437.656 77.378 clipbox
675.57 291.987 p0_0
gsave
fill
grestore
stroke
grestore
gsave
541.649 541.649 437.656 77.378 clipbox
840.75 442.414 p0_0
gsave
fill
grestore
stroke
grestore
gsave
541.649 541.649 437.656 77.378 clipbox
589.176 233.101 p0_0
gsave
fill
grestore
stroke
grestore
gsave
541.649 541.649 437.656 77.378 clipbox
754.476 385.888 p0_0
gsave
fill
grestore
stroke
grestore
gsave
541.649 541.649 437.656 77.378 clipbox
596.502 224.9 p0_0
gsave
fill
grestore
stroke
grestore
gsave
541.649 541.649 437.656 77.378 clipbox
682.931 297.286 p0_0
gsave
fill
grestore
stroke
grestore
gsave
541.649 541.649 437.656 77.378 clipbox
848.485 448.053 p0_0
gsave
fill
grestore
stroke
grestore
gsave
541.649 541.649 437.656 77.378 clipbox
856.074 440.047 p0_0
gsave
fill
grestore
stroke
grestore
gsave
541.649 541.649 437.656 77.378 clipbox
603.77 223.365 p0_0
gsave
fill
grestore
stroke
grestore
gsave
541.649 541.649 437.656 77.378 clipbox
762.053 398.205 p0_0
gsave
fill
grestore
stroke
grestore
gsave
541.649 541.649 437.656 77.378 clipbox
690.321 304.859 p0_0
gsave
fill
grestore
stroke
grestore
gsave
541.649 541.649 437.656 77.378 clipbox
769.57 390.137 p0_0
gsave
fill
grestore
stroke
grestore
gsave
541.649 541.649 437.656 77.378 clipbox
697.782 292.195 p0_0
gsave
fill
grestore
stroke
grestore
gsave
541.649 541.649 437.656 77.378 clipbox
863.901 447.982 p0_0
gsave
fill
grestore
stroke
grestore
gsave
541.649 541.649 437.656 77.378 clipbox
610.97 230.762 p0_0
gsave
fill
grestore
stroke
grestore
gsave
541.649 541.649 437.656 77.378 clipbox
618.375 220.28 p0_0
gsave
fill
grestore
stroke
grestore
gsave
541.649 541.649 437.656 77.378 clipbox
777.154 391.137 p0_0
gsave
fill
grestore
stroke
grestore
gsave
541.649 541.649 437.656 77.378 clipbox
705.22 311.069 p0_0
gsave
fill
grestore
stroke
grestore
gsave
541.649 541.649 437.656 77.378 clipbox
625.616 229.937 p0_0
gsave
fill
grestore
stroke
grestore
gsave
541.649 541.649 437.656 77.378 clipbox
784.856 405.823 p0_0
gsave
fill
grestore
stroke
grestore
gsave
541.649 541.649 437.656 77.378 clipbox
633.022 223.906 p0_0
gsave
fill
grestore
stroke
grestore
gsave
541.649 541.649 437.656 77.378 clipbox
792.49 404.57 p0_0
gsave
fill
grestore
stroke
grestore
gsave
541.649 541.649 437.656 77.378 clipbox
712.711 327.805 p0_0
gsave
fill
grestore
stroke
grestore
gsave
541.649 541.649 437.656 77.378 clipbox
800.148 403.313 p0_0
gsave
fill
grestore
stroke
grestore
gsave
541.649 541.649 437.656 77.378 clipbox
640.331 233.61 p0_0
gsave
fill
grestore
stroke
grestore
gsave
541.649 541.649 437.656 77.378 clipbox
720.245 324.147 p0_0
gsave
fill
grestore
stroke
grestore
gsave
541.649 541.649 437.656 77.378 clipbox
807.791 397.467 p0_0
gsave
fill
grestore
stroke
grestore
gsave
541.649 541.649 437.656 77.378 clipbox
647.694 241.106 p0_0
gsave
fill
grestore
stroke
grestore
gsave
541.649 541.649 437.656 77.378 clipbox
727.821 338.723 p0_0
gsave
fill
grestore
stroke
grestore
gsave
541.649 541.649 437.656 77.378 clipbox
815.693 416.89 p0_0
gsave
fill
grestore
stroke
grestore
gsave
541.649 541.649 437.656 77.378 clipbox
655.108 246.372 p0_0
gsave
fill
grestore
stroke
grestore
gsave
541.649 541.649 437.656 77.378 clipbox
662.661 231.244 p0_0
gsave
fill
grestore
stroke
grestore
gsave
541.649 541.649 437.656 77.378 clipbox
735.414 337.351 p0_0
gsave
fill
grestore
stroke
grestore
gsave
541.649 541.649 437.656 77.378 clipbox
823.368 408.727 p0_0
gsave
fill
grestore
stroke
grestore
gsave
541.649 541.649 437.656 77.378 clipbox
743.015 329.106 p0_0
gsave
fill
grestore
stroke
grestore
gsave
541.649 541.649 437.656 77.378 clipbox
670.139 234.231 p0_0
gsave
fill
grestore
stroke
grestore
gsave
541.649 541.649 437.656 77.378 clipbox
831.338 425.965 p0_0
gsave
fill
grestore
stroke
grestore
gsave
541.649 541.649 437.656 77.378 clipbox
750.715 346.082 p0_0
gsave
fill
grestore
stroke
grestore
gsave
541.649 541.649 437.656 77.378 clipbox
677.589 253.181 p0_0
gsave
fill
grestore
stroke
grestore
gsave
541.649 541.649 437.656 77.378 clipbox
685.168 247.089 p0_0
gsave
fill
grestore
stroke
grestore
gsave
541.649 541.649 437.656 77.378 clipbox
758.449 358.553 p0_0
gsave
fill
grestore
stroke
grestore
gsave
541.649 541.649 437.656 77.378 clipbox
766.207 366.462 p0_0
gsave
fill
grestore
stroke
grestore
gsave
541.649 541.649 437.656 77.378 clipbox
692.689 275.37 p0_0
gsave
fill
grestore
stroke
grestore
gsave
541.649 541.649 437.656 77.378 clipbox
773.953 365.12 p0_0
gsave
fill
grestore
stroke
grestore
gsave
541.649 541.649 437.656 77.378 clipbox
781.695 359.128 p0_0
gsave
fill
grestore
stroke
grestore
gsave
541.649 541.649 437.656 77.378 clipbox
700.32 276.18 p0_0
gsave
fill
grestore
stroke
grestore
gsave
541.649 541.649 437.656 77.378 clipbox
707.99 263.155 p0_0
gsave
fill
grestore
stroke
grestore
gsave
541.649 541.649 437.656 77.378 clipbox
715.668 268.561 p0_0
gsave
fill
grestore
stroke
grestore
gsave
541.649 541.649 437.656 77.378 clipbox
789.62 376.41 p0_0
gsave
fill
grestore
stroke
grestore
gsave
541.649 541.649 437.656 77.378 clipbox
797.509 382.094 p0_0
gsave
fill
grestore
stroke
grestore
gsave
541.649 541.649 437.656 77.378 clipbox
723.406 306.521 p0_0
gsave
fill
grestore
stroke
grestore
gsave
541.649 541.649 437.656 77.378 clipbox
731.16 298.064 p0_0
gsave
fill
grestore
stroke
grestore
gsave
541.649 541.649 437.656 77.378 clipbox
738.955 301.263 p0_0
gsave
fill
grestore
stroke
grestore
gsave
541.649 541.649 437.656 77.378 clipbox
746.798 309.162 p0_0
gsave
fill
grestore
stroke
grestore
gsave
541.649 541.649 437.656 77.378 clipbox
754.673 314.75 p0_0
gsave
fill
grestore
stroke
grestore
gsave
541.649 541.649 437.656 77.378 clipbox
762.617 327.444 p0_0
gsave
fill
grestore
stroke
grestore
/p1_0 {
newpath
translate
-0 -3.535534 m
3.535534 3.535534 l
-3.535534 3.535534 l
cl

} bind def
1.000 setlinewidth
1.000 0.000 0.000 setrgbcolor
gsave
541.649 541.649 437.656 77.378 clipbox
675.042 443.871 p1_0
gsave
fill
grestore
stroke
grestore
gsave
541.649 541.649 437.656 77.378 clipbox
681.805 442.791 p1_0
gsave
fill
grestore
stroke
grestore
gsave
541.649 541.649 437.656 77.378 clipbox
688.603 435.457 p1_0
gsave
fill
grestore
stroke
grestore
gsave
541.649 541.649 437.656 77.378 clipbox
695.401 434.362 p1_0
gsave
fill
grestore
stroke
grestore
gsave
541.649 541.649 437.656 77.378 clipbox
709.053 440.531 p1_0
gsave
fill
grestore
stroke
grestore
gsave
541.649 541.649 437.656 77.378 clipbox
702.187 458.377 p1_0
gsave
fill
grestore
stroke
grestore
gsave
541.649 541.649 437.656 77.378 clipbox
715.917 452.034 p1_0
gsave
fill
grestore
stroke
grestore
gsave
541.649 541.649 437.656 77.378 clipbox
722.806 444.644 p1_0
gsave
fill
grestore
stroke
grestore
gsave
541.649 541.649 437.656 77.378 clipbox
642.802 390.19 p1_0
gsave
fill
grestore
stroke
grestore
gsave
541.649 541.649 437.656 77.378 clipbox
729.73 454.09 p1_0
gsave
fill
grestore
stroke
grestore
gsave
541.649 541.649 437.656 77.378 clipbox
736.638 438.244 p1_0
gsave
fill
grestore
stroke
grestore
gsave
541.649 541.649 437.656 77.378 clipbox
649.424 416.332 p1_0
gsave
fill
grestore
stroke
grestore
gsave
541.649 541.649 437.656 77.378 clipbox
656.34 400.447 p1_0
gsave
fill
grestore
stroke
grestore
gsave
541.649 541.649 437.656 77.378 clipbox
663.173 401.391 p1_0
gsave
fill
grestore
stroke
grestore
gsave
541.649 541.649 437.656 77.378 clipbox
743.681 473.124 p1_0
gsave
fill
grestore
stroke
grestore
gsave
541.649 541.649 437.656 77.378 clipbox
750.639 461.443 p1_0
gsave
fill
grestore
stroke
grestore
gsave
541.649 541.649 437.656 77.378 clipbox
670.038 400.228 p1_0
gsave
fill
grestore
stroke
grestore
gsave
541.649 541.649 437.656 77.378 clipbox
676.971 386.396 p1_0
gsave
fill
grestore
stroke
grestore
gsave
541.649 541.649 437.656 77.378 clipbox
764.635 450.783 p1_0
gsave
fill
grestore
stroke
grestore
gsave
541.649 541.649 437.656 77.378 clipbox
757.68 468.878 p1_0
gsave
fill
grestore
stroke
grestore
gsave
541.649 541.649 437.656 77.378 clipbox
683.837 395.774 p1_0
gsave
fill
grestore
stroke
grestore
gsave
541.649 541.649 437.656 77.378 clipbox
771.724 458.209 p1_0
gsave
fill
grestore
stroke
grestore
gsave
541.649 541.649 437.656 77.378 clipbox
609.701 343.653 p1_0
gsave
fill
grestore
stroke
grestore
gsave
541.649 541.649 437.656 77.378 clipbox
690.733 407.323 p1_0
gsave
fill
grestore
stroke
grestore
gsave
541.649 541.649 437.656 77.378 clipbox
697.692 404.034 p1_0
gsave
fill
grestore
stroke
grestore
gsave
541.649 541.649 437.656 77.378 clipbox
778.858 467.808 p1_0
gsave
fill
grestore
stroke
grestore
gsave
541.649 541.649 437.656 77.378 clipbox
616.492 346.622 p1_0
gsave
fill
grestore
stroke
grestore
gsave
541.649 541.649 437.656 77.378 clipbox
785.929 462.453 p1_0
gsave
fill
grestore
stroke
grestore
gsave
541.649 541.649 437.656 77.378 clipbox
704.665 404.994 p1_0
gsave
fill
grestore
stroke
grestore
gsave
541.649 541.649 437.656 77.378 clipbox
623.31 349.603 p1_0
gsave
fill
grestore
stroke
grestore
gsave
541.649 541.649 437.656 77.378 clipbox
630.276 337.746 p1_0
gsave
fill
grestore
stroke
grestore
gsave
541.649 541.649 437.656 77.378 clipbox
793.094 467.805 p1_0
gsave
fill
grestore
stroke
grestore
gsave
541.649 541.649 437.656 77.378 clipbox
637.152 338.595 p1_0
gsave
fill
grestore
stroke
grestore
gsave
541.649 541.649 437.656 77.378 clipbox
711.654 425.193 p1_0
gsave
fill
grestore
stroke
grestore
gsave
541.649 541.649 437.656 77.378 clipbox
800.341 479.638 p1_0
gsave
fill
grestore
stroke
grestore
gsave
541.649 541.649 437.656 77.378 clipbox
718.687 419.763 p1_0
gsave
fill
grestore
stroke
grestore
gsave
541.649 541.649 437.656 77.378 clipbox
644.024 343.7 p1_0
gsave
fill
grestore
stroke
grestore
gsave
541.649 541.649 437.656 77.378 clipbox
807.516 478.577 p1_0
gsave
fill
grestore
stroke
grestore
gsave
541.649 541.649 437.656 77.378 clipbox
725.745 425.051 p1_0
gsave
fill
grestore
stroke
grestore
gsave
541.649 541.649 437.656 77.378 clipbox
650.911 350.96 p1_0
gsave
fill
grestore
stroke
grestore
gsave
541.649 541.649 437.656 77.378 clipbox
814.713 477.512 p1_0
gsave
fill
grestore
stroke
grestore
gsave
541.649 541.649 437.656 77.378 clipbox
732.826 426.055 p1_0
gsave
fill
grestore
stroke
grestore
gsave
541.649 541.649 437.656 77.378 clipbox
821.91 474.282 p1_0
gsave
fill
grestore
stroke
grestore
gsave
541.649 541.649 437.656 77.378 clipbox
575.853 287.4 p1_0
gsave
fill
grestore
stroke
grestore
gsave
541.649 541.649 437.656 77.378 clipbox
657.843 356.115 p1_0
gsave
fill
grestore
stroke
grestore
gsave
541.649 541.649 437.656 77.378 clipbox
829.126 471.043 p1_0
gsave
fill
grestore
stroke
grestore
gsave
541.649 541.649 437.656 77.378 clipbox
664.836 354.859 p1_0
gsave
fill
grestore
stroke
grestore
gsave
541.649 541.649 437.656 77.378 clipbox
582.607 294.557 p1_0
gsave
fill
grestore
stroke
grestore
gsave
541.649 541.649 437.656 77.378 clipbox
739.967 442.177 p1_0
gsave
fill
grestore
stroke
grestore
gsave
541.649 541.649 437.656 77.378 clipbox
836.411 472.131 p1_0
gsave
fill
grestore
stroke
grestore
gsave
541.649 541.649 437.656 77.378 clipbox
671.859 351.454 p1_0
gsave
fill
grestore
stroke
grestore
gsave
541.649 541.649 437.656 77.378 clipbox
589.549 288.938 p1_0
gsave
fill
grestore
stroke
grestore
gsave
541.649 541.649 437.656 77.378 clipbox
747.12 447.55 p1_0
gsave
fill
grestore
stroke
grestore
gsave
541.649 541.649 437.656 77.378 clipbox
843.773 477.569 p1_0
gsave
fill
grestore
stroke
grestore
gsave
541.649 541.649 437.656 77.378 clipbox
596.408 291.847 p1_0
gsave
fill
grestore
stroke
grestore
gsave
541.649 541.649 437.656 77.378 clipbox
754.25 437.753 p1_0
gsave
fill
grestore
stroke
grestore
gsave
541.649 541.649 437.656 77.378 clipbox
603.479 277.662 p1_0
gsave
fill
grestore
stroke
grestore
gsave
541.649 541.649 437.656 77.378 clipbox
761.408 432.277 p1_0
gsave
fill
grestore
stroke
grestore
gsave
541.649 541.649 437.656 77.378 clipbox
678.825 369.555 p1_0
gsave
fill
grestore
stroke
grestore
gsave
541.649 541.649 437.656 77.378 clipbox
851.112 478.673 p1_0
gsave
fill
grestore
stroke
grestore
gsave
541.649 541.649 437.656 77.378 clipbox
858.506 481.963 p1_0
gsave
fill
grestore
stroke
grestore
gsave
541.649 541.649 437.656 77.378 clipbox
610.228 295.554 p1_0
gsave
fill
grestore
stroke
grestore
gsave
541.649 541.649 437.656 77.378 clipbox
685.87 376.955 p1_0
gsave
fill
grestore
stroke
grestore
gsave
541.649 541.649 437.656 77.378 clipbox
865.805 476.52 p1_0
gsave
fill
grestore
stroke
grestore
gsave
541.649 541.649 437.656 77.378 clipbox
768.702 450.714 p1_0
gsave
fill
grestore
stroke
grestore
gsave
541.649 541.649 437.656 77.378 clipbox
617.167 298.493 p1_0
gsave
fill
grestore
stroke
grestore
gsave
541.649 541.649 437.656 77.378 clipbox
775.897 443.047 p1_0
gsave
fill
grestore
stroke
grestore
gsave
541.649 541.649 437.656 77.378 clipbox
692.957 380.054 p1_0
gsave
fill
grestore
stroke
grestore
gsave
541.649 541.649 437.656 77.378 clipbox
873.25 479.817 p1_0
gsave
fill
grestore
stroke
grestore
gsave
541.649 541.649 437.656 77.378 clipbox
624.171 297.135 p1_0
gsave
fill
grestore
stroke
grestore
gsave
541.649 541.649 437.656 77.378 clipbox
880.657 478.738 p1_0
gsave
fill
grestore
stroke
grestore
gsave
541.649 541.649 437.656 77.378 clipbox
783.203 450.654 p1_0
gsave
fill
grestore
stroke
grestore
gsave
541.649 541.649 437.656 77.378 clipbox
700.059 391.862 p1_0
gsave
fill
grestore
stroke
grestore
gsave
541.649 541.649 437.656 77.378 clipbox
540.844 249.045 p1_0
gsave
fill
grestore
stroke
grestore
gsave
541.649 541.649 437.656 77.378 clipbox
888.086 477.656 p1_0
gsave
fill
grestore
stroke
grestore
gsave
541.649 541.649 437.656 77.378 clipbox
790.481 449.529 p1_0
gsave
fill
grestore
stroke
grestore
gsave
541.649 541.649 437.656 77.378 clipbox
631.073 310.89 p1_0
gsave
fill
grestore
stroke
grestore
gsave
541.649 541.649 437.656 77.378 clipbox
638.195 300.888 p1_0
gsave
fill
grestore
stroke
grestore
gsave
541.649 541.649 437.656 77.378 clipbox
547.611 256.212 p1_0
gsave
fill
grestore
stroke
grestore
gsave
541.649 541.649 437.656 77.378 clipbox
797.782 448.4 p1_0
gsave
fill
grestore
stroke
grestore
gsave
541.649 541.649 437.656 77.378 clipbox
707.201 403.735 p1_0
gsave
fill
grestore
stroke
grestore
gsave
541.649 541.649 437.656 77.378 clipbox
895.576 478.771 p1_0
gsave
fill
grestore
stroke
grestore
gsave
541.649 541.649 437.656 77.378 clipbox
714.386 393.79 p1_0
gsave
fill
grestore
stroke
grestore
gsave
541.649 541.649 437.656 77.378 clipbox
554.545 254.78 p1_0
gsave
fill
grestore
stroke
grestore
gsave
541.649 541.649 437.656 77.378 clipbox
805.106 447.268 p1_0
gsave
fill
grestore
stroke
grestore
gsave
541.649 541.649 437.656 77.378 clipbox
903.053 477.686 p1_0
gsave
fill
grestore
stroke
grestore
gsave
541.649 541.649 437.656 77.378 clipbox
721.584 388.198 p1_0
gsave
fill
grestore
stroke
grestore
gsave
541.649 541.649 437.656 77.378 clipbox
645.21 308.195 p1_0
gsave
fill
grestore
stroke
grestore
gsave
541.649 541.649 437.656 77.378 clipbox
561.5 253.344 p1_0
gsave
fill
grestore
stroke
grestore
gsave
541.649 541.649 437.656 77.378 clipbox
910.514 474.391 p1_0
gsave
fill
grestore
stroke
grestore
gsave
541.649 541.649 437.656 77.378 clipbox
812.534 454.939 p1_0
gsave
fill
grestore
stroke
grestore
gsave
541.649 541.649 437.656 77.378 clipbox
728.823 402.312 p1_0
gsave
fill
grestore
stroke
grestore
gsave
541.649 541.649 437.656 77.378 clipbox
918.121 477.715 p1_0
gsave
fill
grestore
stroke
grestore
gsave
541.649 541.649 437.656 77.378 clipbox
568.354 260.561 p1_0
gsave
fill
grestore
stroke
grestore
gsave
541.649 541.649 437.656 77.378 clipbox
736.059 392.317 p1_0
gsave
fill
grestore
stroke
grestore
gsave
541.649 541.649 437.656 77.378 clipbox
652.179 328.609 p1_0
gsave
fill
grestore
stroke
grestore
gsave
541.649 541.649 437.656 77.378 clipbox
819.975 460.437 p1_0
gsave
fill
grestore
stroke
grestore
gsave
541.649 541.649 437.656 77.378 clipbox
575.417 254.792 p1_0
gsave
fill
grestore
stroke
grestore
gsave
541.649 541.649 437.656 77.378 clipbox
925.67 476.623 p1_0
gsave
fill
grestore
stroke
grestore
gsave
541.649 541.649 437.656 77.378 clipbox
827.356 457.104 p1_0
gsave
fill
grestore
stroke
grestore
gsave
541.649 541.649 437.656 77.378 clipbox
743.334 393.288 p1_0
gsave
fill
grestore
stroke
grestore
gsave
541.649 541.649 437.656 77.378 clipbox
659.305 329.467 p1_0
gsave
fill
grestore
stroke
grestore
gsave
541.649 541.649 437.656 77.378 clipbox
582.413 255.519 p1_0
gsave
fill
grestore
stroke
grestore
gsave
541.649 541.649 437.656 77.378 clipbox
834.756 453.762 p1_0
gsave
fill
grestore
stroke
grestore
gsave
541.649 541.649 437.656 77.378 clipbox
750.635 394.263 p1_0
gsave
fill
grestore
stroke
grestore
gsave
541.649 541.649 437.656 77.378 clipbox
666.457 330.328 p1_0
gsave
fill
grestore
stroke
grestore
gsave
541.649 541.649 437.656 77.378 clipbox
589.38 260.602 p1_0
gsave
fill
grestore
stroke
grestore
gsave
541.649 541.649 437.656 77.378 clipbox
842.31 461.505 p1_0
gsave
fill
grestore
stroke
grestore
gsave
541.649 541.649 437.656 77.378 clipbox
757.98 399.656 p1_0
gsave
fill
grestore
stroke
grestore
gsave
541.649 541.649 437.656 77.378 clipbox
596.479 256.982 p1_0
gsave
fill
grestore
stroke
grestore
gsave
541.649 541.649 437.656 77.378 clipbox
849.843 464.831 p1_0
gsave
fill
grestore
stroke
grestore
gsave
541.649 541.649 437.656 77.378 clipbox
680.823 336.457 p1_0
gsave
fill
grestore
stroke
grestore
gsave
541.649 541.649 437.656 77.378 clipbox
673.537 355.376 p1_0
gsave
fill
grestore
stroke
grestore
gsave
541.649 541.649 437.656 77.378 clipbox
603.55 257.718 p1_0
gsave
fill
grestore
stroke
grestore
gsave
541.649 541.649 437.656 77.378 clipbox
504.337 233.503 p1_0
gsave
fill
grestore
stroke
grestore
gsave
541.649 541.649 437.656 77.378 clipbox
857.258 457.025 p1_0
gsave
fill
grestore
stroke
grestore
gsave
541.649 541.649 437.656 77.378 clipbox
688.079 328.529 p1_0
gsave
fill
grestore
stroke
grestore
gsave
541.649 541.649 437.656 77.378 clipbox
610.646 258.456 p1_0
gsave
fill
grestore
stroke
grestore
gsave
541.649 541.649 437.656 77.378 clipbox
765.452 425.044 p1_0
gsave
fill
grestore
stroke
grestore
gsave
541.649 541.649 437.656 77.378 clipbox
772.768 410.516 p1_0
gsave
fill
grestore
stroke
grestore
gsave
541.649 541.649 437.656 77.378 clipbox
511.215 236.382 p1_0
gsave
fill
grestore
stroke
grestore
gsave
541.649 541.649 437.656 77.378 clipbox
864.907 464.817 p1_0
gsave
fill
grestore
stroke
grestore
gsave
541.649 541.649 437.656 77.378 clipbox
518.288 230.522 p1_0
gsave
fill
grestore
stroke
grestore
gsave
541.649 541.649 437.656 77.378 clipbox
617.726 263.582 p1_0
gsave
fill
grestore
stroke
grestore
gsave
541.649 541.649 437.656 77.378 clipbox
695.283 353.694 p1_0
gsave
fill
grestore
stroke
grestore
gsave
541.649 541.649 437.656 77.378 clipbox
872.493 465.93 p1_0
gsave
fill
grestore
stroke
grestore
gsave
541.649 541.649 437.656 77.378 clipbox
702.597 339.102 p1_0
gsave
fill
grestore
stroke
grestore
gsave
541.649 541.649 437.656 77.378 clipbox
780.279 427.127 p1_0
gsave
fill
grestore
stroke
grestore
gsave
541.649 541.649 437.656 77.378 clipbox
525.176 235.595 p1_0
gsave
fill
grestore
stroke
grestore
gsave
541.649 541.649 437.656 77.378 clipbox
880.072 464.804 p1_0
gsave
fill
grestore
stroke
grestore
gsave
541.649 541.649 437.656 77.378 clipbox
624.799 273.131 p1_0
gsave
fill
grestore
stroke
grestore
gsave
541.649 541.649 437.656 77.378 clipbox
532.329 227.522 p1_0
gsave
fill
grestore
stroke
grestore
gsave
541.649 541.649 437.656 77.378 clipbox
787.702 423.705 p1_0
gsave
fill
grestore
stroke
grestore
gsave
541.649 541.649 437.656 77.378 clipbox
709.905 344.424 p1_0
gsave
fill
grestore
stroke
grestore
gsave
541.649 541.649 437.656 77.378 clipbox
887.675 463.675 p1_0
gsave
fill
grestore
stroke
grestore
gsave
541.649 541.649 437.656 77.378 clipbox
632.016 269.493 p1_0
gsave
fill
grestore
stroke
grestore
gsave
541.649 541.649 437.656 77.378 clipbox
539.345 228.211 p1_0
gsave
fill
grestore
stroke
grestore
gsave
541.649 541.649 437.656 77.378 clipbox
795.23 431.466 p1_0
gsave
fill
grestore
stroke
grestore
gsave
541.649 541.649 437.656 77.378 clipbox
895.302 462.542 p1_0
gsave
fill
grestore
stroke
grestore
gsave
541.649 541.649 437.656 77.378 clipbox
546.423 226.702 p1_0
gsave
fill
grestore
stroke
grestore
gsave
541.649 541.649 437.656 77.378 clipbox
717.247 360.902 p1_0
gsave
fill
grestore
stroke
grestore
gsave
541.649 541.649 437.656 77.378 clipbox
802.721 430.28 p1_0
gsave
fill
grestore
stroke
grestore
gsave
541.649 541.649 437.656 77.378 clipbox
639.107 285.736 p1_0
gsave
fill
grestore
stroke
grestore
gsave
541.649 541.649 437.656 77.378 clipbox
646.437 273.239 p1_0
gsave
fill
grestore
stroke
grestore
gsave
541.649 541.649 437.656 77.378 clipbox
553.489 227.391 p1_0
gsave
fill
grestore
stroke
grestore
gsave
541.649 541.649 437.656 77.378 clipbox
724.626 364.068 p1_0
gsave
fill
grestore
stroke
grestore
gsave
541.649 541.649 437.656 77.378 clipbox
810.256 431.339 p1_0
gsave
fill
grestore
stroke
grestore
gsave
541.649 541.649 437.656 77.378 clipbox
560.613 225.876 p1_0
gsave
fill
grestore
stroke
grestore
gsave
541.649 541.649 437.656 77.378 clipbox
653.696 274.014 p1_0
gsave
fill
grestore
stroke
grestore
gsave
541.649 541.649 437.656 77.378 clipbox
567.76 224.356 p1_0
gsave
fill
grestore
stroke
grestore
gsave
541.649 541.649 437.656 77.378 clipbox
732.049 376.211 p1_0
gsave
fill
grestore
stroke
grestore
gsave
541.649 541.649 437.656 77.378 clipbox
739.459 363.71 p1_0
gsave
fill
grestore
stroke
grestore
gsave
541.649 541.649 437.656 77.378 clipbox
668.333 266.678 p1_0
gsave
fill
grestore
stroke
grestore
gsave
541.649 541.649 437.656 77.378 clipbox
818.015 452.717 p1_0
gsave
fill
grestore
stroke
grestore
gsave
541.649 541.649 437.656 77.378 clipbox
660.922 285.91 p1_0
gsave
fill
grestore
stroke
grestore
gsave
541.649 541.649 437.656 77.378 clipbox
574.96 220.619 p1_0
gsave
fill
grestore
stroke
grestore
gsave
541.649 541.649 437.656 77.378 clipbox
825.454 437.984 p1_0
gsave
fill
grestore
stroke
grestore
gsave
541.649 541.649 437.656 77.378 clipbox
582.066 225.736 p1_0
gsave
fill
grestore
stroke
grestore
gsave
541.649 541.649 437.656 77.378 clipbox
833.151 445.858 p1_0
gsave
fill
grestore
stroke
grestore
gsave
541.649 541.649 437.656 77.378 clipbox
746.977 384.903 p1_0
gsave
fill
grestore
stroke
grestore
gsave
541.649 541.649 437.656 77.378 clipbox
840.777 444.683 p1_0
gsave
fill
grestore
stroke
grestore
gsave
541.649 541.649 437.656 77.378 clipbox
675.552 296.462 p1_0
gsave
fill
grestore
stroke
grestore
gsave
541.649 541.649 437.656 77.378 clipbox
754.468 383.63 p1_0
gsave
fill
grestore
stroke
grestore
gsave
541.649 541.649 437.656 77.378 clipbox
589.149 235.327 p1_0
gsave
fill
grestore
stroke
grestore
gsave
541.649 541.649 437.656 77.378 clipbox
596.528 222.675 p1_0
gsave
fill
grestore
stroke
grestore
gsave
541.649 541.649 437.656 77.378 clipbox
682.939 295.044 p1_0
gsave
fill
grestore
stroke
grestore
gsave
541.649 541.649 437.656 77.378 clipbox
848.485 448.053 p1_0
gsave
fill
grestore
stroke
grestore
gsave
541.649 541.649 437.656 77.378 clipbox
603.77 223.365 p1_0
gsave
fill
grestore
stroke
grestore
gsave
541.649 541.649 437.656 77.378 clipbox
856.104 442.323 p1_0
gsave
fill
grestore
stroke
grestore
gsave
541.649 541.649 437.656 77.378 clipbox
762.063 400.473 p1_0
gsave
fill
grestore
stroke
grestore
gsave
541.649 541.649 437.656 77.378 clipbox
690.316 307.11 p1_0
gsave
fill
grestore
stroke
grestore
gsave
541.649 541.649 437.656 77.378 clipbox
769.593 394.676 p1_0
gsave
fill
grestore
stroke
grestore
gsave
541.649 541.649 437.656 77.378 clipbox
697.779 294.444 p1_0
gsave
fill
grestore
stroke
grestore
gsave
541.649 541.649 437.656 77.378 clipbox
610.993 228.526 p1_0
gsave
fill
grestore
stroke
grestore
gsave
541.649 541.649 437.656 77.378 clipbox
863.901 447.982 p1_0
gsave
fill
grestore
stroke
grestore
gsave
541.649 541.649 437.656 77.378 clipbox
777.141 388.865 p1_0
gsave
fill
grestore
stroke
grestore
gsave
541.649 541.649 437.656 77.378 clipbox
618.333 224.753 p1_0
gsave
fill
grestore
stroke
grestore
gsave
541.649 541.649 437.656 77.378 clipbox
705.22 311.069 p1_0
gsave
fill
grestore
stroke
grestore
gsave
541.649 541.649 437.656 77.378 clipbox
625.616 229.937 p1_0
gsave
fill
grestore
stroke
grestore
gsave
541.649 541.649 437.656 77.378 clipbox
784.856 405.823 p1_0
gsave
fill
grestore
stroke
grestore
gsave
541.649 541.649 437.656 77.378 clipbox
633.004 226.152 p1_0
gsave
fill
grestore
stroke
grestore
gsave
541.649 541.649 437.656 77.378 clipbox
792.49 404.57 p1_0
gsave
fill
grestore
stroke
grestore
gsave
541.649 541.649 437.656 77.378 clipbox
712.713 320.994 p1_0
gsave
fill
grestore
stroke
grestore
gsave
541.649 541.649 437.656 77.378 clipbox
800.148 403.313 p1_0
gsave
fill
grestore
stroke
grestore
gsave
541.649 541.649 437.656 77.378 clipbox
640.314 235.864 p1_0
gsave
fill
grestore
stroke
grestore
gsave
541.649 541.649 437.656 77.378 clipbox
720.245 324.147 p1_0
gsave
fill
grestore
stroke
grestore
gsave
541.649 541.649 437.656 77.378 clipbox
807.811 399.759 p1_0
gsave
fill
grestore
stroke
grestore
gsave
541.649 541.649 437.656 77.378 clipbox
647.754 232.072 p1_0
gsave
fill
grestore
stroke
grestore
gsave
541.649 541.649 437.656 77.378 clipbox
727.821 338.723 p1_0
gsave
fill
grestore
stroke
grestore
gsave
541.649 541.649 437.656 77.378 clipbox
815.693 416.89 p1_0
gsave
fill
grestore
stroke
grestore
gsave
541.649 541.649 437.656 77.378 clipbox
655.108 246.372 p1_0
gsave
fill
grestore
stroke
grestore
gsave
541.649 541.649 437.656 77.378 clipbox
735.414 337.351 p1_0
gsave
fill
grestore
stroke
grestore
gsave
541.649 541.649 437.656 77.378 clipbox
662.649 233.509 p1_0
gsave
fill
grestore
stroke
grestore
gsave
541.649 541.649 437.656 77.378 clipbox
743.009 326.818 p1_0
gsave
fill
grestore
stroke
grestore
gsave
541.649 541.649 437.656 77.378 clipbox
823.439 415.646 p1_0
gsave
fill
grestore
stroke
grestore
gsave
541.649 541.649 437.656 77.378 clipbox
670.129 236.501 p1_0
gsave
fill
grestore
stroke
grestore
gsave
541.649 541.649 437.656 77.378 clipbox
831.338 425.965 p1_0
gsave
fill
grestore
stroke
grestore
gsave
541.649 541.649 437.656 77.378 clipbox
750.7 341.484 p1_0
gsave
fill
grestore
stroke
grestore
gsave
541.649 541.649 437.656 77.378 clipbox
677.598 250.899 p1_0
gsave
fill
grestore
stroke
grestore
gsave
541.649 541.649 437.656 77.378 clipbox
758.44 356.244 p1_0
gsave
fill
grestore
stroke
grestore
gsave
541.649 541.649 437.656 77.378 clipbox
685.155 251.658 p1_0
gsave
fill
grestore
stroke
grestore
gsave
541.649 541.649 437.656 77.378 clipbox
766.162 357.202 p1_0
gsave
fill
grestore
stroke
grestore
gsave
541.649 541.649 437.656 77.378 clipbox
692.684 277.671 p1_0
gsave
fill
grestore
stroke
grestore
gsave
541.649 541.649 437.656 77.378 clipbox
773.966 367.442 p1_0
gsave
fill
grestore
stroke
grestore
gsave
541.649 541.649 437.656 77.378 clipbox
781.666 354.486 p1_0
gsave
fill
grestore
stroke
grestore
gsave
541.649 541.649 437.656 77.378 clipbox
700.326 271.572 p1_0
gsave
fill
grestore
stroke
grestore
gsave
541.649 541.649 437.656 77.378 clipbox
707.991 260.853 p1_0
gsave
fill
grestore
stroke
grestore
gsave
541.649 541.649 437.656 77.378 clipbox
789.604 374.076 p1_0
gsave
fill
grestore
stroke
grestore
gsave
541.649 541.649 437.656 77.378 clipbox
715.668 275.494 p1_0
gsave
fill
grestore
stroke
grestore
gsave
541.649 541.649 437.656 77.378 clipbox
797.454 375.076 p1_0
gsave
fill
grestore
stroke
grestore
gsave
541.649 541.649 437.656 77.378 clipbox
723.407 308.852 p1_0
gsave
fill
grestore
stroke
grestore
gsave
541.649 541.649 437.656 77.378 clipbox
731.149 291.075 p1_0
gsave
fill
grestore
stroke
grestore
gsave
541.649 541.649 437.656 77.378 clipbox
738.966 305.938 p1_0
gsave
fill
grestore
stroke
grestore
gsave
541.649 541.649 437.656 77.378 clipbox
746.763 297.451 p1_0
gsave
fill
grestore
stroke
grestore
gsave
541.649 541.649 437.656 77.378 clipbox
754.655 310.049 p1_0
gsave
fill
grestore
stroke
grestore
gsave
541.649 541.649 437.656 77.378 clipbox
762.627 329.806 p1_0
gsave
fill
grestore
stroke
grestore
0 setlinejoin
0.300 setgray
gsave
613.94875 25.342835 m
807.01125 25.342835 l
808.344583 25.342835 809.01125 26.009502 809.01125 27.342835 c
809.01125 41.29596 l
809.01125 42.629293 808.344583 43.29596 807.01125 43.29596 c
613.94875 43.29596 l
612.615417 43.29596 611.94875 42.629293 611.94875 41.29596 c
611.94875 27.342835 l
611.94875 26.009502 612.615417 25.342835 613.94875 25.342835 c
cl
gsave
fill
grestore
stroke
grestore
0.800 setgray
gsave
611.94875 27.342835 m
805.01125 27.342835 l
806.344583 27.342835 807.01125 28.009502 807.01125 29.342835 c
807.01125 43.29596 l
807.01125 44.629293 806.344583 45.29596 805.01125 45.29596 c
611.94875 45.29596 l
610.615417 45.29596 609.94875 44.629293 609.94875 43.29596 c
609.94875 29.342835 l
609.94875 28.009502 610.615417 27.342835 611.94875 27.342835 c
cl
gsave
1.000 setgray
fill
grestore
stroke
grestore
1.500 setlinewidth
1 setlinejoin
0.000 0.000 1.000 setrgbcolor
gsave
/o {
gsave
newpath
translate
1.5 setlinewidth
1 setlinejoin

0 setlinecap

-3.535534 -3.535534 m
3.535534 3.535534 l
-3.535534 3.535534 m
3.535534 -3.535534 l

gsave
0.000 0.000 1.000 setrgbcolor
fill
grestore
stroke
grestore
} bind def
623.949 36.3272 o
grestore
0.000 setgray
gsave

641.948750 33.702210 translate
0.000000 rotate
0.000000 0 m /e glyphshow
6.152344 0 m /u glyphshow
12.490234 0 m /c glyphshow
17.988281 0 m /l glyphshow
20.766602 0 m /underscore glyphshow
25.766602 0 m /p glyphshow
32.114258 0 m /s glyphshow
37.324219 0 m /i glyphshow
grestore
1.000 setlinewidth
1.000 0.000 0.000 setrgbcolor
gsave
/o {
gsave
newpath
translate
1.0 setlinewidth
1 setlinejoin

0 setlinecap

-0 -3.535534 m
3.535534 3.535534 l
-3.535534 3.535534 l
cl

gsave
1.000 0.000 0.000 setrgbcolor
fill
grestore
stroke
grestore
} bind def
712.074 36.3272 o
grestore
0.000 setgray
gsave

730.073750 33.702210 translate
0.000000 rotate
0.000000 0 m /e glyphshow
6.152344 0 m /u glyphshow
12.490234 0 m /c glyphshow
17.988281 0 m /l glyphshow
20.766602 0 m /underscore glyphshow
25.766602 0 m /p glyphshow
32.114258 0 m /s glyphshow
37.324219 0 m /i glyphshow
40.102539 0 m /underscore glyphshow
45.102539 0 m /o glyphshow
51.220703 0 m /r glyphshow
55.207031 0 m /d glyphshow
61.554688 0 m /underscore glyphshow
66.554688 0 m /five glyphshow
grestore

end
showpage
